EESchema Schematic File Version 4
LIBS:usb-smu-cache
EELAYER 26 0
EELAYER END
$Descr A4 11693 8268
encoding utf-8
Sheet 8 17
Title ""
Date ""
Rev ""
Comp ""
Comment1 ""
Comment2 ""
Comment3 ""
Comment4 ""
$EndDescr
$Comp
L usb-smu:ADP2442 U?
U 1 1 5DBDC49C
P 5800 3250
AR Path="/5C7CA963/5DBDC49C" Ref="U?"  Part="1" 
AR Path="/5C7CA963/5DBC7C47/5DBDC49C" Ref="U801"  Part="1" 
F 0 "U801" H 5350 3550 50  0000 C CNN
F 1 "ADP2442ACPZ" H 6350 3550 50  0000 C CNN
F 2 "usb-smu:LFCSP-12_3x3mm_P0.5mm" H 6700 2900 50  0001 C CNN
F 3 "https://www.analog.com/media/en/technical-documentation/data-sheets/ADP2442.pdf" H 6800 2800 50  0001 C CNN
	1    5800 3250
	-1   0    0    -1  
$EndComp
$Comp
L Device:R_Small R?
U 1 1 5DBDC4A3
P 3800 3850
AR Path="/5C7CA963/5DBDC4A3" Ref="R?"  Part="1" 
AR Path="/5C7CA963/5DBC7C47/5DBDC4A3" Ref="R801"  Part="1" 
F 0 "R801" V 3900 3750 50  0000 L CNN
F 1 "0" V 4000 3750 50  0000 L CNN
F 2 "Resistor_SMD:R_0603_1608Metric" H 3800 3850 50  0001 C CNN
F 3 "~" H 3800 3850 50  0001 C CNN
	1    3800 3850
	0    1    1    0   
$EndComp
Wire Wire Line
	3600 3850 3700 3850
Wire Wire Line
	4000 3900 4000 3850
Wire Wire Line
	3900 3850 4000 3850
Wire Wire Line
	4000 4150 4000 4100
$Comp
L power:GND #PWR?
U 1 1 5DBDC4AE
P 4000 4150
AR Path="/5C7CA963/5DBDC4AE" Ref="#PWR?"  Part="1" 
AR Path="/5C7CA963/5DBC7C47/5DBDC4AE" Ref="#PWR0801"  Part="1" 
F 0 "#PWR0801" H 4000 3900 50  0001 C CNN
F 1 "GND" H 4005 3977 50  0000 C CNN
F 2 "" H 4000 4150 50  0001 C CNN
F 3 "" H 4000 4150 50  0001 C CNN
	1    4000 4150
	1    0    0    -1  
$EndComp
$Comp
L Device:C_Small C?
U 1 1 5DBDC4B5
P 4000 4000
AR Path="/5C7CA963/5DBDC4B5" Ref="C?"  Part="1" 
AR Path="/5C7CA963/5DBC7C47/5DBDC4B5" Ref="C801"  Part="1" 
F 0 "C801" H 3908 3954 50  0000 R CNN
F 1 "10UF" H 3908 4045 50  0000 R CNN
F 2 "Capacitor_SMD:C_0805_2012Metric" H 4000 4000 50  0001 C CNN
F 3 "~" H 4000 4000 50  0001 C CNN
F 4 "CIN1" H 4000 4000 50  0001 C CNN "Note"
	1    4000 4000
	-1   0    0    1   
$EndComp
$Comp
L power:VCC #PWR?
U 1 1 5DBDC4BC
P 5700 2700
AR Path="/5C7CA963/5DBDC4BC" Ref="#PWR?"  Part="1" 
AR Path="/5C7CA963/5DBC7C47/5DBDC4BC" Ref="#PWR0804"  Part="1" 
F 0 "#PWR0804" H 5700 2550 50  0001 C CNN
F 1 "VCC" H 5717 2873 50  0000 C CNN
F 2 "" H 5700 2700 50  0001 C CNN
F 3 "" H 5700 2700 50  0001 C CNN
	1    5700 2700
	-1   0    0    -1  
$EndComp
$Comp
L Device:L_Small L?
U 1 1 5DBDC4C2
P 4750 3400
AR Path="/5C7CA963/5DBDC4C2" Ref="L?"  Part="1" 
AR Path="/5C7CA963/5DBC7C47/5DBDC4C2" Ref="L801"  Part="1" 
F 0 "L801" V 4935 3400 50  0000 C CNN
F 1 "2.2UH" V 4844 3400 50  0000 C CNN
F 2 "Inductor_SMD:L_1210_3225Metric" H 4750 3400 50  0001 C CNN
F 3 "~" H 4750 3400 50  0001 C CNN
	1    4750 3400
	0    1    -1   0   
$EndComp
$Comp
L power:GND #PWR?
U 1 1 5DBDC4C9
P 4100 3250
AR Path="/5C7CA963/5DBDC4C9" Ref="#PWR?"  Part="1" 
AR Path="/5C7CA963/5DBC7C47/5DBDC4C9" Ref="#PWR0802"  Part="1" 
F 0 "#PWR0802" H 4100 3000 50  0001 C CNN
F 1 "GND" H 4105 3077 50  0000 C CNN
F 2 "" H 4100 3250 50  0001 C CNN
F 3 "" H 4100 3250 50  0001 C CNN
	1    4100 3250
	-1   0    0    -1  
$EndComp
Text Label 6450 3500 0    50   ~ 0
4V5_U5
Wire Wire Line
	6450 3500 6400 3500
Text Label 5250 3300 2    50   ~ 0
4V5_U5
Wire Wire Line
	5250 3300 5300 3300
$Comp
L Device:C_Small C?
U 1 1 5DBDC4D4
P 5900 2750
AR Path="/5C7CA963/5DBDC4D4" Ref="C?"  Part="1" 
AR Path="/5C7CA963/5DBC7C47/5DBDC4D4" Ref="C806"  Part="1" 
F 0 "C806" V 6129 2750 50  0000 C CNN
F 1 "1UF" V 6038 2750 50  0000 C CNN
F 2 "Capacitor_SMD:C_0603_1608Metric" H 5900 2750 50  0001 C CNN
F 3 "~" H 5900 2750 50  0001 C CNN
F 4 "CVCC" V 5900 2750 50  0001 C CNN "Note"
	1    5900 2750
	0    -1   -1   0   
$EndComp
Wire Wire Line
	5950 2900 5950 2850
Wire Wire Line
	5950 2850 6100 2850
Wire Wire Line
	6100 2850 6100 2750
Wire Wire Line
	6100 2750 6000 2750
Wire Wire Line
	5850 2850 5850 2900
Wire Wire Line
	5850 2850 5700 2850
Wire Wire Line
	5700 2850 5700 2750
Wire Wire Line
	5700 2750 5800 2750
Wire Wire Line
	5700 2700 5700 2750
Connection ~ 5700 2750
$Comp
L power:VCC #PWR?
U 1 1 5DBDC4E6
P 5300 3850
AR Path="/5C7CA963/5DBDC4E6" Ref="#PWR?"  Part="1" 
AR Path="/5C7CA963/5DBC7C47/5DBDC4E6" Ref="#PWR0803"  Part="1" 
F 0 "#PWR0803" H 5300 3700 50  0001 C CNN
F 1 "VCC" H 5250 4000 50  0000 C CNN
F 2 "" H 5300 3850 50  0001 C CNN
F 3 "" H 5300 3850 50  0001 C CNN
	1    5300 3850
	1    0    0    1   
$EndComp
$Comp
L Device:R_Small R?
U 1 1 5DBDC4EC
P 5550 3800
AR Path="/5C7CA963/5DBDC4EC" Ref="R?"  Part="1" 
AR Path="/5C7CA963/5DBC7C47/5DBDC4EC" Ref="R803"  Part="1" 
F 0 "R803" V 5650 3700 50  0000 L CNN
F 1 "0" V 5750 3750 50  0000 L CNN
F 2 "Resistor_SMD:R_0402_1005Metric" H 5550 3800 50  0001 C CNN
F 3 "~" H 5550 3800 50  0001 C CNN
	1    5550 3800
	0    -1   1    0   
$EndComp
Wire Wire Line
	5750 3700 5750 3800
Wire Wire Line
	5750 3800 5650 3800
NoConn ~ 5950 3700
$Comp
L Device:R_Small R?
U 1 1 5DBDC4FA
P 6700 3800
AR Path="/5C7CA963/5DBDC4FA" Ref="R?"  Part="1" 
AR Path="/5C7CA963/5DBC7C47/5DBDC4FA" Ref="R805"  Part="1" 
F 0 "R805" V 6600 3900 50  0000 L CNN
F 1 "88.7K" V 6800 3900 50  0000 L CNN
F 2 "Resistor_SMD:R_0402_1005Metric" H 6700 3800 50  0001 C CNN
F 3 "~" H 6700 3800 50  0001 C CNN
F 4 "RFREQ" V 6700 3800 50  0001 C CNN "Note"
	1    6700 3800
	0    -1   1    0   
$EndComp
Wire Wire Line
	6600 3800 5850 3800
Wire Wire Line
	5850 3800 5850 3700
$Comp
L Device:C_Small C?
U 1 1 5DBDC504
P 5300 3650
AR Path="/5C7CA963/5DBDC504" Ref="C?"  Part="1" 
AR Path="/5C7CA963/5DBC7C47/5DBDC504" Ref="C805"  Part="1" 
F 0 "C805" H 5208 3696 50  0000 R CNN
F 1 "1UF" H 5208 3605 50  0000 R CNN
F 2 "Capacitor_SMD:C_0603_1608Metric" H 5300 3650 50  0001 C CNN
F 3 "~" H 5300 3650 50  0001 C CNN
F 4 "CVCC2" H 5300 3650 50  0001 C CNN "Note"
	1    5300 3650
	1    0    0    -1  
$EndComp
Wire Wire Line
	5300 3550 5300 3500
Wire Wire Line
	5300 3800 5300 3750
Wire Wire Line
	5300 3800 5450 3800
Wire Wire Line
	4650 3400 4550 3400
$Comp
L Device:L_Small L?
U 1 1 5DBDC50F
P 4900 3650
AR Path="/5C7CA963/5DBDC50F" Ref="L?"  Part="1" 
AR Path="/5C7CA963/5DBC7C47/5DBDC50F" Ref="L802"  Part="1" 
F 0 "L802" H 4947 3696 50  0000 L CNN
F 1 "1UH" H 4947 3605 50  0000 L CNN
F 2 "Inductor_SMD:L_0603_1608Metric" H 4900 3650 50  0001 C CNN
F 3 "~" H 4900 3650 50  0001 C CNN
	1    4900 3650
	-1   0    0    -1  
$EndComp
$Comp
L Device:R_Small R?
U 1 1 5DBDC517
P 4600 3650
AR Path="/5C7CA963/5DBDC517" Ref="R?"  Part="1" 
AR Path="/5C7CA963/5DBC7C47/5DBDC517" Ref="R802"  Part="1" 
F 0 "R802" H 4650 3750 50  0000 L CNN
F 1 "1" H 4650 3650 50  0000 L CNN
F 2 "Resistor_SMD:R_0603_1608Metric" H 4600 3650 50  0001 C CNN
F 3 "~" H 4600 3650 50  0001 C CNN
F 4 "RFILT" H 4600 3650 50  0001 C CNN "Note"
	1    4600 3650
	-1   0    0    -1  
$EndComp
Wire Wire Line
	5300 3500 4900 3500
Wire Wire Line
	4600 3500 4600 3550
Connection ~ 5300 3500
Wire Wire Line
	4900 3550 4900 3500
Connection ~ 4900 3500
Wire Wire Line
	4900 3500 4600 3500
Wire Wire Line
	4900 3750 4900 3800
Wire Wire Line
	4900 3800 4600 3800
Wire Wire Line
	4600 3800 4600 3750
$Comp
L Device:C_Small C?
U 1 1 5DBDC527
P 4350 3650
AR Path="/5C7CA963/5DBDC527" Ref="C?"  Part="1" 
AR Path="/5C7CA963/5DBC7C47/5DBDC527" Ref="C803"  Part="1" 
F 0 "C803" H 4250 3650 50  0000 R CNN
F 1 "1UF" H 4250 3550 50  0000 R CNN
F 2 "Capacitor_SMD:C_0603_1608Metric" H 4350 3650 50  0001 C CNN
F 3 "~" H 4350 3650 50  0001 C CNN
	1    4350 3650
	1    0    0    -1  
$EndComp
Wire Wire Line
	4600 3500 4350 3500
Wire Wire Line
	4350 3500 4350 3550
Connection ~ 4600 3500
Wire Wire Line
	5600 2900 5600 2850
Wire Wire Line
	5600 2850 4950 2850
Wire Wire Line
	5300 3400 4950 3400
$Comp
L Device:C_Small C?
U 1 1 5DBDC535
P 4950 3050
AR Path="/5C7CA963/5DBDC535" Ref="C?"  Part="1" 
AR Path="/5C7CA963/5DBC7C47/5DBDC535" Ref="C804"  Part="1" 
F 0 "C804" H 4800 3200 50  0000 R CNN
F 1 "0.01UF" H 4850 3100 50  0000 R CNN
F 2 "Capacitor_SMD:C_0805_2012Metric" H 4950 3050 50  0001 C CNN
F 3 "~" H 4950 3050 50  0001 C CNN
F 4 "CBST" H 4950 3050 50  0001 C CNN "Note"
	1    4950 3050
	1    0    0    -1  
$EndComp
Wire Wire Line
	4950 2850 4950 2950
Wire Wire Line
	4950 3400 4950 3150
Connection ~ 4950 3400
Wire Wire Line
	4950 3400 4850 3400
$Comp
L Device:R_Small R?
U 1 1 5DBDC542
P 6650 2950
AR Path="/5C7CA963/5DBDC542" Ref="R?"  Part="1" 
AR Path="/5C7CA963/5DBC7C47/5DBDC542" Ref="R804"  Part="1" 
F 0 "R804" H 6700 2800 50  0000 L CNN
F 1 "23.2K" H 6700 2900 50  0000 L CNN
F 2 "Resistor_SMD:R_0402_1005Metric" H 6650 2950 50  0001 C CNN
F 3 "~" H 6650 2950 50  0001 C CNN
F 4 "RF1" H 6650 2950 50  0001 C CNN "Note"
	1    6650 2950
	1    0    0    1   
$EndComp
$Comp
L Device:R_Small R?
U 1 1 5DBDC54A
P 7150 3100
AR Path="/5C7CA963/5DBDC54A" Ref="R?"  Part="1" 
AR Path="/5C7CA963/5DBC7C47/5DBDC54A" Ref="R806"  Part="1" 
F 0 "R806" V 7350 3000 50  0000 L CNN
F 1 "34.8K" V 7250 3000 50  0000 L CNN
F 2 "Resistor_SMD:R_0402_1005Metric" H 7150 3100 50  0001 C CNN
F 3 "~" H 7150 3100 50  0001 C CNN
F 4 "RF2" V 7150 3100 50  0001 C CNN "Note"
	1    7150 3100
	0    1    -1   0   
$EndComp
$Comp
L power:GND #PWR?
U 1 1 5DBDC551
P 6650 2800
AR Path="/5C7CA963/5DBDC551" Ref="#PWR?"  Part="1" 
AR Path="/5C7CA963/5DBC7C47/5DBDC551" Ref="#PWR0805"  Part="1" 
F 0 "#PWR0805" H 6650 2550 50  0001 C CNN
F 1 "GND" H 6655 2627 50  0000 C CNN
F 2 "" H 6650 2800 50  0001 C CNN
F 3 "" H 6650 2800 50  0001 C CNN
	1    6650 2800
	1    0    0    1   
$EndComp
Wire Wire Line
	6650 2800 6650 2850
Wire Wire Line
	6400 3100 6650 3100
Wire Wire Line
	6650 3050 6650 3100
Connection ~ 6650 3100
Wire Wire Line
	6650 3100 7050 3100
Wire Wire Line
	7250 3100 7450 3100
$Comp
L Device:R_Small R?
U 1 1 5DBDC55E
P 7300 3300
AR Path="/5C7CA963/5DBDC55E" Ref="R?"  Part="1" 
AR Path="/5C7CA963/5DBC7C47/5DBDC55E" Ref="R807"  Part="1" 
F 0 "R807" V 7500 3200 50  0000 L CNN
F 1 "11.3K" V 7400 3200 50  0000 L CNN
F 2 "Resistor_SMD:R_0402_1005Metric" H 7300 3300 50  0001 C CNN
F 3 "~" H 7300 3300 50  0001 C CNN
F 4 "RC1" V 7300 3300 50  0001 C CNN "Note"
	1    7300 3300
	0    -1   1    0   
$EndComp
$Comp
L Device:C_Small C?
U 1 1 5DBDC566
P 7000 3300
AR Path="/5C7CA963/5DBDC566" Ref="C?"  Part="1" 
AR Path="/5C7CA963/5DBC7C47/5DBDC566" Ref="C807"  Part="1" 
F 0 "C807" V 6750 3250 50  0000 C CNN
F 1 "2700PF" V 6850 3300 50  0000 C CNN
F 2 "Capacitor_SMD:C_0402_1005Metric" H 7000 3300 50  0001 C CNN
F 3 "~" H 7000 3300 50  0001 C CNN
F 4 "CC1" V 7000 3300 50  0001 C CNN "Note"
	1    7000 3300
	0    -1   -1   0   
$EndComp
Wire Wire Line
	6900 3300 6850 3300
Wire Wire Line
	7100 3300 7200 3300
Wire Wire Line
	7400 3300 7450 3300
Wire Wire Line
	7450 3300 7450 3100
$Comp
L Device:C_Small C?
U 1 1 5DBDC574
P 7150 3650
AR Path="/5C7CA963/5DBDC574" Ref="C?"  Part="1" 
AR Path="/5C7CA963/5DBC7C47/5DBDC574" Ref="C808"  Part="1" 
F 0 "C808" V 7050 3500 50  0000 C CNN
F 1 "22PF" V 7050 3850 50  0000 C CNN
F 2 "Capacitor_SMD:C_0402_1005Metric" H 7150 3650 50  0001 C CNN
F 3 "~" H 7150 3650 50  0001 C CNN
F 4 "CC2" V 7150 3650 50  0001 C CNN "Note"
	1    7150 3650
	0    -1   -1   0   
$EndComp
Wire Wire Line
	7050 3650 6850 3650
Wire Wire Line
	6850 3650 6850 3300
Connection ~ 6850 3300
Wire Wire Line
	6850 3300 6400 3300
Wire Wire Line
	7250 3650 7450 3650
Wire Wire Line
	7450 3650 7450 3300
Connection ~ 7450 3300
Wire Wire Line
	6800 3800 7450 3800
Wire Wire Line
	7450 3800 7450 3650
Connection ~ 7450 3650
$Comp
L Device:C_Small C?
U 1 1 5DBDC586
P 7150 4000
AR Path="/5C7CA963/5DBDC586" Ref="C?"  Part="1" 
AR Path="/5C7CA963/5DBC7C47/5DBDC586" Ref="C809"  Part="1" 
F 0 "C809" V 7050 3850 50  0000 C CNN
F 1 "TBD0402 (DNI)" V 7050 4350 50  0000 C CNN
F 2 "Capacitor_SMD:C_0402_1005Metric" H 7150 4000 50  0001 C CNN
F 3 "~" H 7150 4000 50  0001 C CNN
F 4 "CSS" V 7150 4000 50  0001 C CNN "Note"
	1    7150 4000
	0    -1   -1   0   
$EndComp
Wire Wire Line
	5750 3800 5750 4000
Connection ~ 5750 3800
Wire Wire Line
	7250 4000 7450 4000
Wire Wire Line
	7450 4000 7450 3800
Connection ~ 7450 3800
Wire Wire Line
	7050 4000 5750 4000
Connection ~ 4600 3800
$Comp
L Device:R_Small R?
U 1 1 5DBDC594
P 7650 4200
AR Path="/5C7CA963/5DBDC594" Ref="R?"  Part="1" 
AR Path="/5C7CA963/5DBC7C47/5DBDC594" Ref="R808"  Part="1" 
F 0 "R808" V 7450 4100 50  0000 L CNN
F 1 "0" V 7550 4250 50  0000 L CNN
F 2 "Resistor_SMD:R_0603_1608Metric" H 7650 4200 50  0001 C CNN
F 3 "~" H 7650 4200 50  0001 C CNN
	1    7650 4200
	0    -1   1    0   
$EndComp
Wire Wire Line
	7450 4000 7450 4200
Wire Wire Line
	7450 4200 7550 4200
Connection ~ 7450 4000
Wire Wire Line
	7850 4200 7750 4200
$Comp
L Diode:B160-E3 D?
U 1 1 5DBDC59F
P 7450 4400
AR Path="/5C7CA963/5DBDC59F" Ref="D?"  Part="1" 
AR Path="/5C7CA963/5DBC7C47/5DBDC59F" Ref="D801"  Part="1" 
F 0 "D801" V 7450 4700 50  0000 R CNN
F 1 "B160B-13-F" V 7405 4321 50  0001 R CNN
F 2 "Diode_SMD:D_SMB" H 7450 4225 50  0001 C CNN
F 3 "" H 7450 4400 50  0001 C CNN
	1    7450 4400
	0    1    -1   0   
$EndComp
$Comp
L Device:CP_Small C?
U 1 1 5DBDC5A7
P 7150 4400
AR Path="/5C7CA963/5DBDC5A7" Ref="C?"  Part="1" 
AR Path="/5C7CA963/5DBC7C47/5DBDC5A7" Ref="C810"  Part="1" 
F 0 "C810" H 7062 4354 50  0000 R CNN
F 1 "47UF" H 7062 4445 50  0000 R CNN
F 2 "Capacitor_SMD:C_1210_3225Metric" H 7150 4400 50  0001 C CNN
F 3 "~" H 7150 4400 50  0001 C CNN
F 4 "COUT2" H 7150 4400 50  0001 C CNN "Note"
	1    7150 4400
	1    0    0    1   
$EndComp
Wire Wire Line
	7450 4250 7450 4200
Wire Wire Line
	7450 4200 7150 4200
Wire Wire Line
	7150 4200 7150 4300
Wire Wire Line
	7150 4500 7150 4600
Wire Wire Line
	7150 4600 7300 4600
Wire Wire Line
	7450 4600 7450 4550
Connection ~ 7450 4200
$Comp
L power:GND #PWR?
U 1 1 5DBDC5B5
P 7300 4650
AR Path="/5C7CA963/5DBDC5B5" Ref="#PWR?"  Part="1" 
AR Path="/5C7CA963/5DBC7C47/5DBDC5B5" Ref="#PWR0806"  Part="1" 
F 0 "#PWR0806" H 7300 4400 50  0001 C CNN
F 1 "GND" H 7305 4477 50  0000 C CNN
F 2 "" H 7300 4650 50  0001 C CNN
F 3 "" H 7300 4650 50  0001 C CNN
	1    7300 4650
	-1   0    0    -1  
$EndComp
Wire Wire Line
	7300 4650 7300 4600
Connection ~ 7300 4600
Wire Wire Line
	7300 4600 7450 4600
Wire Wire Line
	4600 4200 7150 4200
Wire Wire Line
	4600 3800 4600 4200
Connection ~ 7150 4200
$Comp
L Device:C_Small C?
U 1 1 5DBDC5C2
P 4350 3350
AR Path="/5C7CA963/5DBDC5C2" Ref="C?"  Part="1" 
AR Path="/5C7CA963/5DBC7C47/5DBDC5C2" Ref="C802"  Part="1" 
F 0 "C802" H 4550 3550 50  0000 R CNN
F 1 "4.7UF" H 4300 3550 50  0000 R CNN
F 2 "Capacitor_SMD:C_0603_1608Metric" H 4350 3350 50  0001 C CNN
F 3 "~" H 4350 3350 50  0001 C CNN
F 4 "COUT1" H 4350 3350 50  0001 C CNN "Note"
	1    4350 3350
	1    0    0    -1  
$EndComp
Wire Wire Line
	4350 3450 4350 3500
Connection ~ 4350 3500
Wire Wire Line
	4550 3400 4550 3200
Wire Wire Line
	4550 3200 4350 3200
Wire Wire Line
	4350 3200 4350 3250
Wire Wire Line
	4100 3250 4100 3200
Wire Wire Line
	4100 3200 4350 3200
Connection ~ 4350 3200
Text Label 4000 3750 2    50   ~ 0
4V5_U5
Wire Wire Line
	4350 3850 4000 3850
Wire Wire Line
	4350 3750 4350 3850
Connection ~ 4000 3850
Wire Wire Line
	4000 3750 4000 3850
Text HLabel 7850 4200 2    50   Input ~ 0
-1V0
Text HLabel 3600 3850 0    50   Input ~ 0
4V5
Wire Wire Line
	5300 3800 5300 3850
Connection ~ 5300 3800
Wire Wire Line
	6100 2750 6100 2500
Wire Wire Line
	6100 2500 7450 2500
Wire Wire Line
	7450 2500 7450 3100
Connection ~ 6100 2750
Connection ~ 7450 3100
$EndSCHEMATC
