EESchema Schematic File Version 4
LIBS:usb-smu-cache
EELAYER 26 0
EELAYER END
$Descr A4 11693 8268
encoding utf-8
Sheet 11 17
Title ""
Date ""
Rev ""
Comp ""
Comment1 ""
Comment2 ""
Comment3 ""
Comment4 ""
$EndDescr
$Comp
L usb-smu:ADR381 U?
U 1 1 5DC16B8A
P 5650 3800
AR Path="/5C7CA963/5DC16B8A" Ref="U?"  Part="1" 
AR Path="/5C7CA963/5DC0DA2B/5DC16B8A" Ref="U1101"  Part="1" 
F 0 "U1101" H 5700 4150 50  0000 C CNN
F 1 "ADR381ARTZ" H 5650 4050 50  0000 C CNN
F 2 "Package_TO_SOT_SMD:SOT-23" H 5675 3550 50  0001 L CIN
F 3 "https://www.analog.com/media/en/technical-documentation/data-sheets/ADR380_381.pdf" H 5650 3800 50  0001 C CIN
	1    5650 3800
	-1   0    0    -1  
$EndComp
$Comp
L power:+5V #PWR?
U 1 1 5DC16B91
P 5300 3650
AR Path="/5C7CA963/5DC16B91" Ref="#PWR?"  Part="1" 
AR Path="/5C7CA963/5DC0DA2B/5DC16B91" Ref="#PWR01101"  Part="1" 
F 0 "#PWR01101" H 5300 3500 50  0001 C CNN
F 1 "+5V" H 5315 3823 50  0000 C CNN
F 2 "" H 5300 3650 50  0001 C CNN
F 3 "" H 5300 3650 50  0001 C CNN
	1    5300 3650
	1    0    0    -1  
$EndComp
Wire Wire Line
	5300 3650 5300 3700
Wire Wire Line
	5300 3700 5350 3700
$Comp
L Device:C_Small C?
U 1 1 5DC16B99
P 5300 3900
AR Path="/5C7CA963/5DC16B99" Ref="C?"  Part="1" 
AR Path="/5C7CA963/5DC0DA2B/5DC16B99" Ref="C1101"  Part="1" 
F 0 "C1101" H 5100 3850 50  0000 R CNN
F 1 "0.1UF" H 5150 3950 50  0000 R CNN
F 2 "Capacitor_SMD:C_0402_1005Metric" H 5300 3900 50  0001 C CNN
F 3 "~" H 5300 3900 50  0001 C CNN
	1    5300 3900
	1    0    0    1   
$EndComp
Wire Wire Line
	5300 3800 5300 3700
Connection ~ 5300 3700
Wire Wire Line
	5300 4000 5300 4150
Wire Wire Line
	5300 4150 5650 4150
Wire Wire Line
	5650 4150 5650 4100
$Comp
L Device:C_Small C?
U 1 1 5DC16BA5
P 6000 3900
AR Path="/5C7CA963/5DC16BA5" Ref="C?"  Part="1" 
AR Path="/5C7CA963/5DC0DA2B/5DC16BA5" Ref="C1102"  Part="1" 
F 0 "C1102" H 5950 3800 50  0000 R CNN
F 1 "1UF" H 5950 3700 50  0000 R CNN
F 2 "Capacitor_SMD:C_0603_1608Metric" H 6000 3900 50  0001 C CNN
F 3 "~" H 6000 3900 50  0001 C CNN
	1    6000 3900
	-1   0    0    -1  
$EndComp
Wire Wire Line
	6000 3800 6000 3700
Wire Wire Line
	6000 3700 5950 3700
Wire Wire Line
	6000 4000 6000 4150
Wire Wire Line
	6000 4150 5650 4150
Connection ~ 5650 4150
$Comp
L Device:C_Small C?
U 1 1 5DC16BB1
P 6350 3900
AR Path="/5C7CA963/5DC16BB1" Ref="C?"  Part="1" 
AR Path="/5C7CA963/5DC0DA2B/5DC16BB1" Ref="C1103"  Part="1" 
F 0 "C1103" H 6300 3800 50  0000 R CNN
F 1 "0.1UF" H 6300 3700 50  0000 R CNN
F 2 "Capacitor_SMD:C_0402_1005Metric" H 6350 3900 50  0001 C CNN
F 3 "~" H 6350 3900 50  0001 C CNN
	1    6350 3900
	-1   0    0    -1  
$EndComp
Wire Wire Line
	6350 3800 6350 3700
Wire Wire Line
	6350 3700 6000 3700
Connection ~ 6000 3700
Wire Wire Line
	6350 4000 6350 4150
Wire Wire Line
	6350 4150 6000 4150
Connection ~ 6000 4150
$Comp
L power:GND #PWR?
U 1 1 5DC16BBE
P 5650 4200
AR Path="/5C7CA963/5DC16BBE" Ref="#PWR?"  Part="1" 
AR Path="/5C7CA963/5DC0DA2B/5DC16BBE" Ref="#PWR01102"  Part="1" 
F 0 "#PWR01102" H 5650 3950 50  0001 C CNN
F 1 "GND" H 5655 4027 50  0000 C CNN
F 2 "" H 5650 4200 50  0001 C CNN
F 3 "" H 5650 4200 50  0001 C CNN
	1    5650 4200
	1    0    0    -1  
$EndComp
Wire Wire Line
	5650 4200 5650 4150
$Comp
L power:+2V5 #PWR?
U 1 1 5DC16BC5
P 6350 3650
AR Path="/5C7CA963/5DC16BC5" Ref="#PWR?"  Part="1" 
AR Path="/5C7CA963/5DC0DA2B/5DC16BC5" Ref="#PWR01103"  Part="1" 
F 0 "#PWR01103" H 6350 3500 50  0001 C CNN
F 1 "+2V5" H 6365 3823 50  0000 C CNN
F 2 "" H 6350 3650 50  0001 C CNN
F 3 "" H 6350 3650 50  0001 C CNN
	1    6350 3650
	1    0    0    -1  
$EndComp
Wire Wire Line
	6350 3650 6350 3700
Connection ~ 6350 3700
Text HLabel 4850 3700 0    50   Input ~ 0
5V0
Wire Wire Line
	4850 3700 5300 3700
Text HLabel 6700 3700 2    50   Input ~ 0
2V5
Wire Wire Line
	6700 3700 6350 3700
$EndSCHEMATC
