EESchema Schematic File Version 4
LIBS:usb-smu-cache
EELAYER 26 0
EELAYER END
$Descr A4 11693 8268
encoding utf-8
Sheet 9 17
Title ""
Date ""
Rev ""
Comp ""
Comment1 ""
Comment2 ""
Comment3 ""
Comment4 ""
$EndDescr
$Comp
L usb-smu:ADP7118 U?
U 1 1 5DBEEDA6
P 5700 3550
AR Path="/5C7CA963/5DBEEDA6" Ref="U?"  Part="1" 
AR Path="/5C7CA963/5DBDEB67/5DBEEDA6" Ref="U901"  Part="1" 
F 0 "U901" H 5700 3917 50  0000 C CNN
F 1 "ADP7118ACPZN-3.3" H 5700 3826 50  0000 C CNN
F 2 "usb-smu:LFCSP-6_2x2mm_P0.65mm" H 5700 3150 50  0001 C CIN
F 3 "https://www.analog.com/media/en/technical-documentation/data-sheets/ADP7118.pdf" H 5700 3050 50  0001 C CNN
	1    5700 3550
	1    0    0    -1  
$EndComp
$Comp
L Device:C_Small C?
U 1 1 5DBEEDAD
P 4700 3600
AR Path="/5C7CA963/5DBEEDAD" Ref="C?"  Part="1" 
AR Path="/5C7CA963/5DBDEB67/5DBEEDAD" Ref="C901"  Part="1" 
F 0 "C901" H 4608 3554 50  0000 R CNN
F 1 "0.1UF" H 4608 3645 50  0000 R CNN
F 2 "Capacitor_SMD:C_0402_1005Metric" H 4700 3600 50  0001 C CNN
F 3 "~" H 4700 3600 50  0001 C CNN
	1    4700 3600
	1    0    0    1   
$EndComp
$Comp
L Device:C_Small C?
U 1 1 5DBEEDB4
P 4900 3600
AR Path="/5C7CA963/5DBEEDB4" Ref="C?"  Part="1" 
AR Path="/5C7CA963/5DBDEB67/5DBEEDB4" Ref="C902"  Part="1" 
F 0 "C902" H 4808 3646 50  0000 R CNN
F 1 "4.7UF" H 4808 3555 50  0000 R CNN
F 2 "Capacitor_SMD:C_0603_1608Metric" H 4900 3600 50  0001 C CNN
F 3 "~" H 4900 3600 50  0001 C CNN
	1    4900 3600
	-1   0    0    -1  
$EndComp
Wire Wire Line
	5300 3650 5250 3650
Wire Wire Line
	5250 3650 5250 3450
Wire Wire Line
	5250 3450 5300 3450
Wire Wire Line
	4700 3500 4700 3450
Wire Wire Line
	4700 3450 4900 3450
Connection ~ 5250 3450
Wire Wire Line
	4900 3500 4900 3450
Connection ~ 4900 3450
Wire Wire Line
	4900 3450 5250 3450
Wire Wire Line
	4700 3450 4350 3450
Connection ~ 4700 3450
Wire Wire Line
	5700 3850 4900 3850
Wire Wire Line
	4700 3850 4700 3700
Wire Wire Line
	4900 3700 4900 3850
Connection ~ 4900 3850
Wire Wire Line
	4900 3850 4700 3850
NoConn ~ 6100 3650
Wire Wire Line
	6100 3550 6150 3550
Wire Wire Line
	6150 3550 6150 3450
Wire Wire Line
	6150 3450 6100 3450
Wire Wire Line
	6500 3500 6500 3450
Wire Wire Line
	6700 3500 6700 3450
Wire Wire Line
	6150 3450 6500 3450
Connection ~ 6150 3450
Connection ~ 6500 3450
Wire Wire Line
	6500 3450 6700 3450
Wire Wire Line
	6700 3700 6700 3850
Wire Wire Line
	6700 3850 6500 3850
Connection ~ 5700 3850
Wire Wire Line
	6500 3700 6500 3850
Connection ~ 6500 3850
Wire Wire Line
	6500 3850 5700 3850
$Comp
L power:+3V3 #PWR?
U 1 1 5DBEEDE9
P 6700 3400
AR Path="/5C7CA963/5DBEEDE9" Ref="#PWR?"  Part="1" 
AR Path="/5C7CA963/5DBDEB67/5DBEEDE9" Ref="#PWR0902"  Part="1" 
F 0 "#PWR0902" H 6700 3250 50  0001 C CNN
F 1 "+3V3" H 6715 3573 50  0000 C CNN
F 2 "" H 6700 3400 50  0001 C CNN
F 3 "" H 6700 3400 50  0001 C CNN
	1    6700 3400
	1    0    0    -1  
$EndComp
Wire Wire Line
	6700 3400 6700 3450
Connection ~ 6700 3450
$Comp
L power:GND #PWR?
U 1 1 5DBEEDF1
P 5700 3900
AR Path="/5C7CA963/5DBEEDF1" Ref="#PWR?"  Part="1" 
AR Path="/5C7CA963/5DBDEB67/5DBEEDF1" Ref="#PWR0901"  Part="1" 
F 0 "#PWR0901" H 5700 3650 50  0001 C CNN
F 1 "GND" H 5705 3727 50  0000 C CNN
F 2 "" H 5700 3900 50  0001 C CNN
F 3 "" H 5700 3900 50  0001 C CNN
	1    5700 3900
	1    0    0    -1  
$EndComp
Wire Wire Line
	5700 3900 5700 3850
Text HLabel 4350 3450 0    50   Input ~ 0
VUSB
Text HLabel 7050 3450 2    50   Input ~ 0
3V3
Wire Wire Line
	7050 3450 6700 3450
$Comp
L Device:C_Small C?
U 1 1 5C828066
P 6500 3600
AR Path="/5C7CA963/5C828066" Ref="C?"  Part="1" 
AR Path="/5C7CA963/5DBDEB67/5C828066" Ref="C903"  Part="1" 
F 0 "C903" H 6408 3554 50  0000 R CNN
F 1 "0.1UF" H 6408 3645 50  0000 R CNN
F 2 "Capacitor_SMD:C_0402_1005Metric" H 6500 3600 50  0001 C CNN
F 3 "~" H 6500 3600 50  0001 C CNN
	1    6500 3600
	1    0    0    1   
$EndComp
$Comp
L Device:C_Small C?
U 1 1 5C82806C
P 6700 3600
AR Path="/5C7CA963/5C82806C" Ref="C?"  Part="1" 
AR Path="/5C7CA963/5DBDEB67/5C82806C" Ref="C904"  Part="1" 
F 0 "C904" H 6608 3646 50  0000 R CNN
F 1 "4.7UF" H 6608 3555 50  0000 R CNN
F 2 "Capacitor_SMD:C_0603_1608Metric" H 6700 3600 50  0001 C CNN
F 3 "~" H 6700 3600 50  0001 C CNN
	1    6700 3600
	-1   0    0    -1  
$EndComp
$EndSCHEMATC
