EESchema Schematic File Version 4
LIBS:usb-smu-cache
EELAYER 26 0
EELAYER END
$Descr A4 11693 8268
encoding utf-8
Sheet 10 17
Title ""
Date ""
Rev ""
Comp ""
Comment1 ""
Comment2 ""
Comment3 ""
Comment4 ""
$EndDescr
$Comp
L usb-smu:ADM117 U?
U 1 1 5DC0B8E8
P 5700 4100
AR Path="/5C7CA963/5DC0B8E8" Ref="U?"  Part="1" 
AR Path="/5C7CA963/5DBFFA18/5DC0B8E8" Ref="U1001"  Part="1" 
F 0 "U1001" H 5400 4450 50  0000 C CNN
F 1 "ADM1177-1ARMZ" H 6200 4450 50  0000 C CNN
F 2 "Package_SO:MSOP-10_3x3mm_P0.5mm" H 5700 3600 50  0001 C CNN
F 3 "https://www.analog.com/media/en/technical-documentation/data-sheets/ADM1177.pdf" H 5650 3200 50  0001 C CNN
	1    5700 4100
	1    0    0    -1  
$EndComp
$Comp
L Transistor_FET:CSD16301Q2 Q?
U 1 1 5DC0B8EF
P 6650 3550
AR Path="/5C7CA963/5DC0B8EF" Ref="Q?"  Part="1" 
AR Path="/5C7CA963/5DBFFA18/5DC0B8EF" Ref="Q1001"  Part="1" 
F 0 "Q1001" V 7000 3450 50  0000 L CNN
F 1 "SI3456DDV-T1-GE3" V 6900 3150 50  0000 L CNN
F 2 "usb-smu:TSOP-6_SI3456DDV" H 6850 3475 50  0001 L CIN
F 3 "https://www.vishay.com/docs/69075/si3456dd.pdf" V 6650 3550 50  0001 L CNN
	1    6650 3550
	0    -1   -1   0   
$EndComp
Wire Wire Line
	6200 3900 6650 3900
Wire Wire Line
	6650 3900 6650 3750
$Comp
L Device:R_Small R?
U 1 1 5DC0B8F8
P 5750 3450
AR Path="/5C7CA963/5DC0B8F8" Ref="R?"  Part="1" 
AR Path="/5C7CA963/5DBFFA18/5DC0B8F8" Ref="R1001"  Part="1" 
F 0 "R1001" V 5550 3350 50  0000 L CNN
F 1 "0.1" V 5650 3350 50  0000 L CNN
F 2 "Resistor_SMD:R_0402_1005Metric" H 5750 3450 50  0001 C CNN
F 3 "~" H 5750 3450 50  0001 C CNN
	1    5750 3450
	0    1    1    0   
$EndComp
Wire Wire Line
	5700 3700 5700 3650
Wire Wire Line
	5700 3650 5600 3650
Wire Wire Line
	5600 3650 5600 3450
Wire Wire Line
	5600 3450 5650 3450
Wire Wire Line
	5850 3450 5900 3450
Wire Wire Line
	5900 3450 5900 3650
Wire Wire Line
	5900 3650 5800 3650
Wire Wire Line
	5800 3650 5800 3700
Wire Wire Line
	6450 3450 5900 3450
Connection ~ 5900 3450
Wire Wire Line
	4350 3450 5600 3450
Connection ~ 5600 3450
Wire Wire Line
	4350 3900 5250 3900
$Comp
L Device:C_Small C?
U 1 1 5DC0B90C
P 5000 4350
AR Path="/5C7CA963/5DC0B90C" Ref="C?"  Part="1" 
AR Path="/5C7CA963/5DBFFA18/5DC0B90C" Ref="C1002"  Part="1" 
F 0 "C1002" H 4908 4304 50  0000 R CNN
F 1 "100NF" H 4908 4395 50  0000 R CNN
F 2 "Capacitor_SMD:C_0402_1005Metric" H 5000 4350 50  0001 C CNN
F 3 "~" H 5000 4350 50  0001 C CNN
	1    5000 4350
	-1   0    0    1   
$EndComp
Wire Wire Line
	5000 4250 5000 4150
Wire Wire Line
	5000 4150 5250 4150
Wire Wire Line
	5000 4500 5000 4450
Wire Wire Line
	5000 4500 5700 4500
Wire Wire Line
	5700 4500 5700 4450
$Comp
L power:GND #PWR?
U 1 1 5DC0B918
P 5700 4550
AR Path="/5C7CA963/5DC0B918" Ref="#PWR?"  Part="1" 
AR Path="/5C7CA963/5DBFFA18/5DC0B918" Ref="#PWR01001"  Part="1" 
F 0 "#PWR01001" H 5700 4300 50  0001 C CNN
F 1 "GND" H 5705 4377 50  0000 C CNN
F 2 "" H 5700 4550 50  0001 C CNN
F 3 "" H 5700 4550 50  0001 C CNN
	1    5700 4550
	1    0    0    -1  
$EndComp
Wire Wire Line
	5700 4550 5700 4500
Connection ~ 5700 4500
$Comp
L Device:C_Small C?
U 1 1 5DC0B920
P 4800 4350
AR Path="/5C7CA963/5DC0B920" Ref="C?"  Part="1" 
AR Path="/5C7CA963/5DBFFA18/5DC0B920" Ref="C1001"  Part="1" 
F 0 "C1001" H 4708 4304 50  0000 R CNN
F 1 "0.01UF" H 4708 4395 50  0000 R CNN
F 2 "Capacitor_SMD:C_0402_1005Metric" H 4800 4350 50  0001 C CNN
F 3 "~" H 4800 4350 50  0001 C CNN
	1    4800 4350
	1    0    0    1   
$EndComp
Wire Wire Line
	4800 4250 4800 4050
Wire Wire Line
	4800 4050 5250 4050
Wire Wire Line
	4800 4450 4800 4500
Wire Wire Line
	4800 4500 5000 4500
Connection ~ 5000 4500
Wire Wire Line
	6200 4250 6250 4250
Wire Wire Line
	6250 4250 6250 4500
Wire Wire Line
	6250 4500 5700 4500
Text Label 6300 4050 0    50   ~ 0
SDA
Text Label 6300 4150 0    50   ~ 0
SCL
Wire Wire Line
	6300 4150 6200 4150
Wire Wire Line
	6200 4050 6300 4050
$Comp
L Device:C_Small C?
U 1 1 5DC0B933
P 7050 3600
AR Path="/5C7CA963/5DC0B933" Ref="C?"  Part="1" 
AR Path="/5C7CA963/5DBFFA18/5DC0B933" Ref="C1003"  Part="1" 
F 0 "C1003" H 6950 3650 50  0000 R CNN
F 1 "1UF" H 6950 3750 50  0000 R CNN
F 2 "Capacitor_SMD:C_0603_1608Metric" H 7050 3600 50  0001 C CNN
F 3 "~" H 7050 3600 50  0001 C CNN
	1    7050 3600
	1    0    0    1   
$EndComp
$Comp
L Device:C_Small C?
U 1 1 5DC0B93A
P 7250 3600
AR Path="/5C7CA963/5DC0B93A" Ref="C?"  Part="1" 
AR Path="/5C7CA963/5DBFFA18/5DC0B93A" Ref="C1004"  Part="1" 
F 0 "C1004" H 7150 3550 50  0000 R CNN
F 1 "10UF" H 7150 3450 50  0000 R CNN
F 2 "Capacitor_SMD:C_0805_2012Metric" H 7250 3600 50  0001 C CNN
F 3 "~" H 7250 3600 50  0001 C CNN
	1    7250 3600
	-1   0    0    -1  
$EndComp
Wire Wire Line
	7250 3700 7250 3750
Wire Wire Line
	7250 3750 7150 3750
Wire Wire Line
	7050 3750 7050 3700
Wire Wire Line
	7050 3500 7050 3450
Wire Wire Line
	7050 3450 7250 3450
Wire Wire Line
	7250 3450 7250 3500
Wire Wire Line
	6850 3450 7050 3450
Connection ~ 7050 3450
$Comp
L power:GND #PWR?
U 1 1 5DC0B949
P 7150 3800
AR Path="/5C7CA963/5DC0B949" Ref="#PWR?"  Part="1" 
AR Path="/5C7CA963/5DBFFA18/5DC0B949" Ref="#PWR01002"  Part="1" 
F 0 "#PWR01002" H 7150 3550 50  0001 C CNN
F 1 "GND" H 7155 3627 50  0000 C CNN
F 2 "" H 7150 3800 50  0001 C CNN
F 3 "" H 7150 3800 50  0001 C CNN
	1    7150 3800
	1    0    0    -1  
$EndComp
Wire Wire Line
	7150 3800 7150 3750
Connection ~ 7150 3750
Wire Wire Line
	7150 3750 7050 3750
Connection ~ 7250 3450
Wire Wire Line
	7600 3450 7250 3450
Text HLabel 4350 3900 0    50   Input ~ 0
PWR_ENABLE
Text HLabel 7600 3450 2    50   Input ~ 0
4V5
Text HLabel 4350 3450 0    50   Input ~ 0
VUSB
$EndSCHEMATC
