EESchema Schematic File Version 4
LIBS:usb-smu-cache
EELAYER 26 0
EELAYER END
$Descr A4 11693 8268
encoding utf-8
Sheet 12 17
Title ""
Date ""
Rev ""
Comp ""
Comment1 ""
Comment2 ""
Comment3 ""
Comment4 ""
$EndDescr
$Comp
L usb-smu:ADP7118 U?
U 1 1 5DC1A11C
P 5700 3700
AR Path="/5C7CA963/5DC1A11C" Ref="U?"  Part="1" 
AR Path="/5C7CA963/5DC172A8/5DC1A11C" Ref="U1201"  Part="1" 
F 0 "U1201" H 5700 4067 50  0000 C CNN
F 1 "ADP7118ACPZN-5.0" H 5700 3976 50  0000 C CNN
F 2 "usb-smu:LFCSP-6_2x2mm_P0.65mm" H 5700 3300 50  0001 C CIN
F 3 "https://www.analog.com/media/en/technical-documentation/data-sheets/ADP7118.pdf" H 5700 3200 50  0001 C CNN
	1    5700 3700
	1    0    0    -1  
$EndComp
$Comp
L power:+6V #PWR?
U 1 1 5DC1A123
P 5100 3500
AR Path="/5C7CA963/5DC1A123" Ref="#PWR?"  Part="1" 
AR Path="/5C7CA963/5DC172A8/5DC1A123" Ref="#PWR01201"  Part="1" 
F 0 "#PWR01201" H 5100 3350 50  0001 C CNN
F 1 "+6V" H 5115 3673 50  0000 C CNN
F 2 "" H 5100 3500 50  0001 C CNN
F 3 "" H 5100 3500 50  0001 C CNN
	1    5100 3500
	1    0    0    -1  
$EndComp
Wire Wire Line
	5100 3500 5100 3600
Wire Wire Line
	5100 3600 5250 3600
$Comp
L Device:C_Small C?
U 1 1 5DC1A12B
P 5100 3800
AR Path="/5C7CA963/5DC1A12B" Ref="C?"  Part="1" 
AR Path="/5C7CA963/5DC172A8/5DC1A12B" Ref="C1201"  Part="1" 
F 0 "C1201" H 5000 3900 50  0000 R CNN
F 1 "2.2UF" H 5000 4000 50  0000 R CNN
F 2 "Capacitor_SMD:C_0603_1608Metric" H 5100 3800 50  0001 C CNN
F 3 "~" H 5100 3800 50  0001 C CNN
	1    5100 3800
	1    0    0    1   
$EndComp
Wire Wire Line
	5300 3800 5250 3800
Wire Wire Line
	5250 3800 5250 3600
Connection ~ 5250 3600
Wire Wire Line
	5250 3600 5300 3600
Wire Wire Line
	5100 3700 5100 3600
Connection ~ 5100 3600
Wire Wire Line
	5700 4000 5700 4050
Wire Wire Line
	5700 4050 5100 4050
Wire Wire Line
	5100 4050 5100 3900
$Comp
L Device:C_Small C?
U 1 1 5DC1A13B
P 6600 3750
AR Path="/5C7CA963/5DC1A13B" Ref="C?"  Part="1" 
AR Path="/5C7CA963/5DC172A8/5DC1A13B" Ref="C1203"  Part="1" 
F 0 "C1203" H 6650 3650 50  0000 L CNN
F 1 "2.2UF" H 6650 3550 50  0000 L CNN
F 2 "Capacitor_SMD:C_0603_1608Metric" H 6600 3750 50  0001 C CNN
F 3 "~" H 6600 3750 50  0001 C CNN
	1    6600 3750
	1    0    0    -1  
$EndComp
Wire Wire Line
	6600 3850 6600 4050
Wire Wire Line
	6600 4050 6250 4050
Connection ~ 5700 4050
Wire Wire Line
	6600 3650 6600 3600
Wire Wire Line
	6600 3550 6600 3600
Connection ~ 6600 3600
$Comp
L Device:C_Small C?
U 1 1 5DC1A14F
P 6250 3900
AR Path="/5C7CA963/5DC1A14F" Ref="C?"  Part="1" 
AR Path="/5C7CA963/5DC172A8/5DC1A14F" Ref="C1202"  Part="1" 
F 0 "C1202" H 6200 3800 50  0000 R CNN
F 1 "0.01UF" H 6550 3800 50  0000 R CNN
F 2 "Capacitor_SMD:C_0402_1005Metric" H 6250 3900 50  0001 C CNN
F 3 "~" H 6250 3900 50  0001 C CNN
	1    6250 3900
	-1   0    0    -1  
$EndComp
Wire Wire Line
	6100 3800 6250 3800
Wire Wire Line
	6250 4000 6250 4050
Connection ~ 6250 4050
Wire Wire Line
	6250 4050 5700 4050
$Comp
L power:GND #PWR?
U 1 1 5DC1A15E
P 5700 4100
AR Path="/5C7CA963/5DC1A15E" Ref="#PWR?"  Part="1" 
AR Path="/5C7CA963/5DC172A8/5DC1A15E" Ref="#PWR01202"  Part="1" 
F 0 "#PWR01202" H 5700 3850 50  0001 C CNN
F 1 "GND" H 5705 3927 50  0000 C CNN
F 2 "" H 5700 4100 50  0001 C CNN
F 3 "" H 5700 4100 50  0001 C CNN
	1    5700 4100
	1    0    0    -1  
$EndComp
Wire Wire Line
	5700 4100 5700 4050
Text HLabel 4650 3600 0    50   Input ~ 0
6V0
Text HLabel 6950 3600 2    50   Input ~ 0
5V0
Wire Wire Line
	6950 3600 6600 3600
Wire Wire Line
	5100 3600 4650 3600
Wire Wire Line
	6100 3700 6150 3700
Wire Wire Line
	6150 3700 6150 3600
Wire Wire Line
	6150 3600 6100 3600
Wire Wire Line
	6600 3600 6150 3600
Connection ~ 6150 3600
$Comp
L power:+5V #PWR?
U 1 1 5DC1A147
P 6600 3550
AR Path="/5C7CA963/5DC1A147" Ref="#PWR?"  Part="1" 
AR Path="/5C7CA963/5DC172A8/5DC1A147" Ref="#PWR01203"  Part="1" 
F 0 "#PWR01203" H 6600 3400 50  0001 C CNN
F 1 "+5V" H 6615 3723 50  0000 C CNN
F 2 "" H 6600 3550 50  0001 C CNN
F 3 "" H 6600 3550 50  0001 C CNN
	1    6600 3550
	1    0    0    -1  
$EndComp
$EndSCHEMATC
