EESchema Schematic File Version 4
LIBS:usb-smu-cache
EELAYER 26 0
EELAYER END
$Descr A4 11693 8268
encoding utf-8
Sheet 13 17
Title ""
Date ""
Rev ""
Comp ""
Comment1 ""
Comment2 ""
Comment3 ""
Comment4 ""
$EndDescr
$Comp
L usb-smu:ADM7171 U?
U 1 1 5DC202AD
P 5850 3650
AR Path="/5C7CA963/5DC202AD" Ref="U?"  Part="1" 
AR Path="/5C7CA963/5DC1D8FF/5DC202AD" Ref="U1301"  Part="1" 
F 0 "U1301" H 5850 4050 50  0000 C CNN
F 1 "ADM7171ACPZ" H 5850 3950 50  0000 C CNN
F 2 "Package_CSP:LFCSP-8-1EP_3x2mm_P0.5mm_EP1.6x1.65mm" H 5850 3650 50  0001 C CNN
F 3 "https://www.analog.com/media/en/technical-documentation/data-sheets/ADM7171.pdf" H 5850 3650 50  0001 C CNN
	1    5850 3650
	1    0    0    -1  
$EndComp
Wire Wire Line
	5400 3500 5450 3500
Wire Wire Line
	5450 3600 5400 3600
Wire Wire Line
	5400 3600 5400 3500
Wire Wire Line
	4850 3500 5250 3500
Connection ~ 5400 3500
Wire Wire Line
	6250 3600 6300 3600
Wire Wire Line
	6300 3600 6300 3500
Wire Wire Line
	6300 3500 6250 3500
$Comp
L Device:R_Small R?
U 1 1 5DC202BF
P 6500 3650
AR Path="/5C7CA963/5DC202BF" Ref="R?"  Part="1" 
AR Path="/5C7CA963/5DC1D8FF/5DC202BF" Ref="R1301"  Part="1" 
F 0 "R1301" H 6559 3696 50  0000 L CNN
F 1 "1K" H 6559 3605 50  0000 L CNN
F 2 "Resistor_SMD:R_0402_1005Metric" H 6500 3650 50  0001 C CNN
F 3 "~" H 6500 3650 50  0001 C CNN
	1    6500 3650
	1    0    0    -1  
$EndComp
Wire Wire Line
	6500 3550 6500 3500
Wire Wire Line
	6500 3500 6300 3500
Connection ~ 6300 3500
Wire Wire Line
	6500 3750 6500 3800
Wire Wire Line
	6500 3800 6250 3800
Wire Wire Line
	6250 3800 6250 3700
$Comp
L Device:C_Small C?
U 1 1 5DC202CC
P 6300 4050
AR Path="/5C7CA963/5DC202CC" Ref="C?"  Part="1" 
AR Path="/5C7CA963/5DC1D8FF/5DC202CC" Ref="C1302"  Part="1" 
F 0 "C1302" H 6650 4050 50  0000 R CNN
F 1 "0.01UF" H 6650 3950 50  0000 R CNN
F 2 "Capacitor_SMD:C_0402_1005Metric" H 6300 4050 50  0001 C CNN
F 3 "~" H 6300 4050 50  0001 C CNN
	1    6300 4050
	-1   0    0    -1  
$EndComp
Wire Wire Line
	6300 3950 6300 3900
Wire Wire Line
	6300 3900 6250 3900
Wire Wire Line
	6300 4150 6300 4200
$Comp
L Device:R_Small R?
U 1 1 5DC202D6
P 6500 3950
AR Path="/5C7CA963/5DC202D6" Ref="R?"  Part="1" 
AR Path="/5C7CA963/5DC1D8FF/5DC202D6" Ref="R1302"  Part="1" 
F 0 "R1302" H 6559 3996 50  0000 L CNN
F 1 "5K" H 6559 3905 50  0000 L CNN
F 2 "Resistor_SMD:R_1206_3216Metric" H 6500 3950 50  0001 C CNN
F 3 "~" H 6500 3950 50  0001 C CNN
	1    6500 3950
	1    0    0    -1  
$EndComp
Wire Wire Line
	6500 3850 6500 3800
Connection ~ 6500 3800
Wire Wire Line
	6500 4050 6500 4200
Wire Wire Line
	6500 4200 6300 4200
Connection ~ 6300 4200
$Comp
L Device:C_Small C?
U 1 1 5DC202E2
P 5250 3700
AR Path="/5C7CA963/5DC202E2" Ref="C?"  Part="1" 
AR Path="/5C7CA963/5DC1D8FF/5DC202E2" Ref="C1301"  Part="1" 
F 0 "C1301" H 5158 3654 50  0000 R CNN
F 1 "2.2UF" H 5158 3745 50  0000 R CNN
F 2 "Capacitor_SMD:C_0603_1608Metric" H 5250 3700 50  0001 C CNN
F 3 "~" H 5250 3700 50  0001 C CNN
	1    5250 3700
	1    0    0    1   
$EndComp
Wire Wire Line
	5250 3600 5250 3500
Connection ~ 5250 3500
Wire Wire Line
	5250 3500 5400 3500
Wire Wire Line
	5250 3900 5250 3800
Wire Wire Line
	5250 3900 5450 3900
Wire Wire Line
	5250 4200 5250 3900
Wire Wire Line
	5250 4200 6300 4200
Connection ~ 5250 3900
$Comp
L power:+6V #PWR?
U 1 1 5DC202F1
P 6500 3450
AR Path="/5C7CA963/5DC202F1" Ref="#PWR?"  Part="1" 
AR Path="/5C7CA963/5DC1D8FF/5DC202F1" Ref="#PWR01302"  Part="1" 
F 0 "#PWR01302" H 6500 3300 50  0001 C CNN
F 1 "+6V" H 6515 3623 50  0000 C CNN
F 2 "" H 6500 3450 50  0001 C CNN
F 3 "" H 6500 3450 50  0001 C CNN
	1    6500 3450
	1    0    0    -1  
$EndComp
Wire Wire Line
	6500 3450 6500 3500
Connection ~ 6500 3500
$Comp
L power:GND #PWR?
U 1 1 5DC202F9
P 5250 4250
AR Path="/5C7CA963/5DC202F9" Ref="#PWR?"  Part="1" 
AR Path="/5C7CA963/5DC1D8FF/5DC202F9" Ref="#PWR01301"  Part="1" 
F 0 "#PWR01301" H 5250 4000 50  0001 C CNN
F 1 "GND" H 5255 4077 50  0000 C CNN
F 2 "" H 5250 4250 50  0001 C CNN
F 3 "" H 5250 4250 50  0001 C CNN
	1    5250 4250
	1    0    0    -1  
$EndComp
Wire Wire Line
	5250 4250 5250 4200
Connection ~ 5250 4200
Text HLabel 4850 3500 0    50   Input ~ 0
6V5
Text HLabel 7250 3500 2    50   Input ~ 0
6V0
Wire Wire Line
	7250 3500 6900 3500
Wire Wire Line
	5450 3750 5400 3750
Wire Wire Line
	5400 3750 5400 3600
Connection ~ 5400 3600
$Comp
L Device:C_Small C1303
U 1 1 5C8472A4
P 6900 3800
F 0 "C1303" H 6992 3846 50  0000 L CNN
F 1 "4.7UF" H 6992 3755 50  0000 L CNN
F 2 "Capacitor_SMD:C_0603_1608Metric" H 6900 3800 50  0001 C CNN
F 3 "~" H 6900 3800 50  0001 C CNN
	1    6900 3800
	1    0    0    -1  
$EndComp
Wire Wire Line
	6900 3700 6900 3500
Connection ~ 6900 3500
Wire Wire Line
	6900 3500 6500 3500
Wire Wire Line
	6900 3900 6900 4200
Wire Wire Line
	6900 4200 6500 4200
Connection ~ 6500 4200
$EndSCHEMATC
