EESchema Schematic File Version 4
LIBS:usb-smu-cache
EELAYER 26 0
EELAYER END
$Descr A4 11693 8268
encoding utf-8
Sheet 14 17
Title ""
Date ""
Rev ""
Comp ""
Comment1 ""
Comment2 ""
Comment3 ""
Comment4 ""
$EndDescr
$Comp
L usb-smu:ADP1614 U?
U 1 1 5DC22B7D
P 5450 3850
AR Path="/5C7CA963/5DC22B7D" Ref="U?"  Part="1" 
AR Path="/5C7CA963/5DC22759/5DC22B7D" Ref="U1401"  Part="1" 
F 0 "U1401" H 5650 3500 50  0000 R CNN
F 1 "ADP1614ACPZ-1.3" H 5700 4200 50  0000 R CNN
F 2 "usb-smu:LFCSP-10_3x3mm_P0.5mm" H 5500 3500 50  0001 L CNN
F 3 "https://www.analog.com/media/en/technical-documentation/data-sheets/ADP1614.pdf" H 5250 4450 50  0001 C CNN
	1    5450 3850
	1    0    0    -1  
$EndComp
$Comp
L Device:R_Small R?
U 1 1 5DC22B84
P 5000 3000
AR Path="/5C7CA963/5DC22B84" Ref="R?"  Part="1" 
AR Path="/5C7CA963/5DC22759/5DC22B84" Ref="R1403"  Part="1" 
F 0 "R1403" V 4800 2900 50  0000 L CNN
F 1 "0" V 4900 2900 50  0000 L CNN
F 2 "Resistor_SMD:R_0201_0603Metric" H 5000 3000 50  0001 C CNN
F 3 "~" H 5000 3000 50  0001 C CNN
	1    5000 3000
	0    1    1    0   
$EndComp
Wire Wire Line
	4150 3000 4900 3000
Wire Wire Line
	5800 3800 5850 3800
Wire Wire Line
	5850 3800 5850 3700
Wire Wire Line
	5850 3700 5800 3700
Wire Wire Line
	4900 3750 4850 3750
Wire Wire Line
	4850 3750 4850 3650
Wire Wire Line
	4850 3650 4900 3650
Wire Wire Line
	5350 4250 5350 4300
Wire Wire Line
	5250 4300 5250 4250
$Comp
L Device:R_Small R?
U 1 1 5DC22B94
P 5150 3150
AR Path="/5C7CA963/5DC22B94" Ref="R?"  Part="1" 
AR Path="/5C7CA963/5DC22759/5DC22B94" Ref="R1404"  Part="1" 
F 0 "R1404" H 5209 3196 50  0000 L CNN
F 1 "1" H 5209 3105 50  0000 L CNN
F 2 "Resistor_SMD:R_0402_1005Metric" H 5150 3150 50  0001 C CNN
F 3 "~" H 5150 3150 50  0001 C CNN
	1    5150 3150
	1    0    0    -1  
$EndComp
$Comp
L Device:C_Small C?
U 1 1 5DC22B9B
P 5350 3350
AR Path="/5C7CA963/5DC22B9B" Ref="C?"  Part="1" 
AR Path="/5C7CA963/5DC22759/5DC22B9B" Ref="C1402"  Part="1" 
F 0 "C1402" V 5500 3400 50  0000 C CNN
F 1 "1UF" V 5400 3500 50  0000 C CNN
F 2 "Capacitor_SMD:C_0603_1608Metric" H 5350 3350 50  0001 C CNN
F 3 "~" H 5350 3350 50  0001 C CNN
	1    5350 3350
	0    1    -1   0   
$EndComp
Wire Wire Line
	5150 3350 5150 3300
Wire Wire Line
	5150 3050 5150 3000
Wire Wire Line
	5150 3000 5100 3000
$Comp
L Device:L_Small L?
U 1 1 5DC22BA5
P 5650 3000
AR Path="/5C7CA963/5DC22BA5" Ref="L?"  Part="1" 
AR Path="/5C7CA963/5DC22759/5DC22BA5" Ref="L1401"  Part="1" 
F 0 "L1401" V 5835 3000 50  0000 C CNN
F 1 "4.7UH" V 5744 3000 50  0000 C CNN
F 2 "Inductor_SMD:L_Coilcraft_XxL4030" H 5650 3000 50  0001 C CNN
F 3 "~" H 5650 3000 50  0001 C CNN
	1    5650 3000
	0    -1   -1   0   
$EndComp
Wire Wire Line
	5550 3000 5150 3000
Connection ~ 5150 3000
$Comp
L Diode:B240 D?
U 1 1 5DC22BAE
P 6100 3000
AR Path="/5C7CA963/5DC22BAE" Ref="D?"  Part="1" 
AR Path="/5C7CA963/5DC22759/5DC22BAE" Ref="D1401"  Part="1" 
F 0 "D1401" H 6100 3200 50  0000 C CNN
F 1 "B240" H 6100 3100 50  0000 C CNN
F 2 "Diode_SMD:D_SMB" H 6100 2825 50  0001 C CNN
F 3 "http://www.jameco.com/Jameco/Products/ProdDS/1538777.pdf" H 6100 3000 50  0001 C CNN
	1    6100 3000
	-1   0    0    -1  
$EndComp
$Comp
L Device:C_Small C?
U 1 1 5DC22BB5
P 6350 3150
AR Path="/5C7CA963/5DC22BB5" Ref="C?"  Part="1" 
AR Path="/5C7CA963/5DC22759/5DC22BB5" Ref="C1405"  Part="1" 
F 0 "C1405" H 6258 3196 50  0000 R CNN
F 1 "1UF" H 6258 3105 50  0000 R CNN
F 2 "Capacitor_SMD:C_0805_2012Metric" H 6350 3150 50  0001 C CNN
F 3 "~" H 6350 3150 50  0001 C CNN
	1    6350 3150
	-1   0    0    -1  
$EndComp
Wire Wire Line
	5750 3000 5850 3000
Wire Wire Line
	6350 3000 6350 3050
Wire Wire Line
	6850 3000 6850 3050
Wire Wire Line
	6850 3250 6850 3300
Wire Wire Line
	6350 3300 6350 3250
$Comp
L power:GND #PWR?
U 1 1 5DC22BCB
P 5700 3300
AR Path="/5C7CA963/5DC22BCB" Ref="#PWR?"  Part="1" 
AR Path="/5C7CA963/5DC22759/5DC22BCB" Ref="#PWR01402"  Part="1" 
F 0 "#PWR01402" H 5700 3050 50  0001 C CNN
F 1 "GND" H 5705 3127 50  0000 C CNN
F 2 "" H 5700 3300 50  0001 C CNN
F 3 "" H 5700 3300 50  0001 C CNN
	1    5700 3300
	1    0    0    1   
$EndComp
$Comp
L Device:R_Small R?
U 1 1 5DC22BD1
P 7300 3150
AR Path="/5C7CA963/5DC22BD1" Ref="R?"  Part="1" 
AR Path="/5C7CA963/5DC22759/5DC22BD1" Ref="R1406"  Part="1" 
F 0 "R1406" H 7359 3196 50  0000 L CNN
F 1 "53.6K" H 7359 3105 50  0000 L CNN
F 2 "Resistor_SMD:R_0603_1608Metric" H 7300 3150 50  0001 C CNN
F 3 "~" H 7300 3150 50  0001 C CNN
	1    7300 3150
	1    0    0    -1  
$EndComp
$Comp
L Device:R_Small R?
U 1 1 5DC22BD8
P 7300 3500
AR Path="/5C7CA963/5DC22BD8" Ref="R?"  Part="1" 
AR Path="/5C7CA963/5DC22759/5DC22BD8" Ref="R1407"  Part="1" 
F 0 "R1407" H 7242 3454 50  0000 R CNN
F 1 "12.7K" H 7242 3545 50  0000 R CNN
F 2 "Resistor_SMD:R_0402_1005Metric" H 7300 3500 50  0001 C CNN
F 3 "~" H 7300 3500 50  0001 C CNN
	1    7300 3500
	1    0    0    1   
$EndComp
Wire Wire Line
	7300 3250 7300 3350
Wire Wire Line
	6850 3000 7300 3000
Wire Wire Line
	7300 3000 7300 3050
Wire Wire Line
	7650 3000 7300 3000
Connection ~ 7300 3000
Wire Wire Line
	6850 3300 6600 3300
Wire Wire Line
	7300 3600 7300 3650
Wire Wire Line
	6600 3350 6600 3300
Connection ~ 6600 3300
Wire Wire Line
	6600 3300 6350 3300
$Comp
L power:GND #PWR?
U 1 1 5DC22BEB
P 6600 3350
AR Path="/5C7CA963/5DC22BEB" Ref="#PWR?"  Part="1" 
AR Path="/5C7CA963/5DC22759/5DC22BEB" Ref="#PWR01403"  Part="1" 
F 0 "#PWR01403" H 6600 3100 50  0001 C CNN
F 1 "GND" H 6605 3177 50  0000 C CNN
F 2 "" H 6600 3350 50  0001 C CNN
F 3 "" H 6600 3350 50  0001 C CNN
	1    6600 3350
	-1   0    0    -1  
$EndComp
$Comp
L power:GND #PWR?
U 1 1 5DC22BF2
P 7300 3650
AR Path="/5C7CA963/5DC22BF2" Ref="#PWR?"  Part="1" 
AR Path="/5C7CA963/5DC22759/5DC22BF2" Ref="#PWR01404"  Part="1" 
F 0 "#PWR01404" H 7300 3400 50  0001 C CNN
F 1 "GND" H 7305 3477 50  0000 C CNN
F 2 "" H 7300 3650 50  0001 C CNN
F 3 "" H 7300 3650 50  0001 C CNN
	1    7300 3650
	-1   0    0    -1  
$EndComp
$Comp
L power:GND #PWR?
U 1 1 5DC22BF8
P 5250 4350
AR Path="/5C7CA963/5DC22BF8" Ref="#PWR?"  Part="1" 
AR Path="/5C7CA963/5DC22759/5DC22BF8" Ref="#PWR01401"  Part="1" 
F 0 "#PWR01401" H 5250 4100 50  0001 C CNN
F 1 "GND" H 5255 4177 50  0000 C CNN
F 2 "" H 5250 4350 50  0001 C CNN
F 3 "" H 5250 4350 50  0001 C CNN
	1    5250 4350
	-1   0    0    -1  
$EndComp
Wire Wire Line
	5850 3000 5850 3700
Connection ~ 5850 3700
Wire Wire Line
	5150 3300 4850 3300
Wire Wire Line
	4850 3300 4850 3650
Connection ~ 5150 3300
Wire Wire Line
	5150 3300 5150 3250
Connection ~ 4850 3650
$Comp
L Device:R_Small R?
U 1 1 5DC22C07
P 4450 3800
AR Path="/5C7CA963/5DC22C07" Ref="R?"  Part="1" 
AR Path="/5C7CA963/5DC22759/5DC22C07" Ref="R1401"  Part="1" 
F 0 "R1401" H 4391 3846 50  0000 R CNN
F 1 "0" H 4391 3755 50  0000 R CNN
F 2 "Resistor_SMD:R_0603_1608Metric" H 4450 3800 50  0001 C CNN
F 3 "~" H 4450 3800 50  0001 C CNN
F 4 "DNI" H 4450 3800 50  0001 C CNN "Note"
	1    4450 3800
	1    0    0    -1  
$EndComp
$Comp
L Device:R_Small R?
U 1 1 5DC22C0E
P 4450 4100
AR Path="/5C7CA963/5DC22C0E" Ref="R?"  Part="1" 
AR Path="/5C7CA963/5DC22759/5DC22C0E" Ref="R1402"  Part="1" 
F 0 "R1402" H 4391 4146 50  0000 R CNN
F 1 "50K" H 4391 4055 50  0000 R CNN
F 2 "Resistor_SMD:R_0603_1608Metric" H 4450 4100 50  0001 C CNN
F 3 "~" H 4450 4100 50  0001 C CNN
	1    4450 4100
	1    0    0    -1  
$EndComp
Wire Wire Line
	4450 3900 4450 3950
$Comp
L Device:C_Small C?
U 1 1 5DC22C16
P 4850 4100
AR Path="/5C7CA963/5DC22C16" Ref="C?"  Part="1" 
AR Path="/5C7CA963/5DC22759/5DC22C16" Ref="C1401"  Part="1" 
F 0 "C1401" H 5150 4100 50  0000 R CNN
F 1 "0.01UF" H 5150 4000 50  0000 R CNN
F 2 "Capacitor_SMD:C_0402_1005Metric" H 4850 4100 50  0001 C CNN
F 3 "~" H 4850 4100 50  0001 C CNN
	1    4850 4100
	-1   0    0    -1  
$EndComp
Wire Wire Line
	4850 4200 4850 4300
Wire Wire Line
	4850 4300 5250 4300
Connection ~ 5250 4300
Wire Wire Line
	4850 4000 4850 3950
Wire Wire Line
	4850 3950 4900 3950
Wire Wire Line
	5250 4300 5350 4300
Wire Wire Line
	5250 4300 5250 4350
Wire Wire Line
	4450 3700 4450 3650
Wire Wire Line
	4450 3650 4850 3650
Wire Wire Line
	4450 4200 4450 4300
Wire Wire Line
	4450 4300 4850 4300
Connection ~ 4850 4300
Wire Wire Line
	4900 3850 4650 3850
Wire Wire Line
	4650 3850 4650 3950
Wire Wire Line
	4650 3950 4450 3950
Connection ~ 4450 3950
Wire Wire Line
	4450 3950 4450 4000
Wire Wire Line
	5800 3900 6900 3900
Wire Wire Line
	6900 3900 6900 3350
Wire Wire Line
	6900 3350 7300 3350
Connection ~ 7300 3350
Wire Wire Line
	7300 3350 7300 3400
$Comp
L Device:C_Small C?
U 1 1 5DC22C33
P 5850 4150
AR Path="/5C7CA963/5DC22C33" Ref="C?"  Part="1" 
AR Path="/5C7CA963/5DC22759/5DC22C33" Ref="C1403"  Part="1" 
F 0 "C1403" H 6100 4250 50  0000 R CNN
F 1 "10PF" H 6100 4050 50  0000 R CNN
F 2 "Capacitor_SMD:C_0805_2012Metric" H 5850 4150 50  0001 C CNN
F 3 "~" H 5850 4150 50  0001 C CNN
	1    5850 4150
	1    0    0    -1  
$EndComp
$Comp
L Device:C_Small C?
U 1 1 5DC22C3A
P 6250 4150
AR Path="/5C7CA963/5DC22C3A" Ref="C?"  Part="1" 
AR Path="/5C7CA963/5DC22759/5DC22C3A" Ref="C1404"  Part="1" 
F 0 "C1404" H 6500 4250 50  0000 R CNN
F 1 "0.082UF" H 6600 4050 50  0000 R CNN
F 2 "Capacitor_SMD:C_0603_1608Metric" H 6250 4150 50  0001 C CNN
F 3 "~" H 6250 4150 50  0001 C CNN
	1    6250 4150
	1    0    0    -1  
$EndComp
Wire Wire Line
	5800 4000 5850 4000
Wire Wire Line
	5850 4000 5850 4050
Wire Wire Line
	5850 4250 5850 4300
Wire Wire Line
	5850 4300 5350 4300
Connection ~ 5350 4300
$Comp
L Device:R_Small R?
U 1 1 5DC22C46
P 6050 4400
AR Path="/5C7CA963/5DC22C46" Ref="R?"  Part="1" 
AR Path="/5C7CA963/5DC22759/5DC22C46" Ref="R1405"  Part="1" 
F 0 "R1405" V 6150 4350 50  0000 C CNN
F 1 "10.5K" V 6250 4400 50  0000 C CNN
F 2 "Resistor_SMD:R_0402_1005Metric" H 6050 4400 50  0001 C CNN
F 3 "~" H 6050 4400 50  0001 C CNN
	1    6050 4400
	0    1    1    0   
$EndComp
Wire Wire Line
	6250 4250 6250 4400
Wire Wire Line
	6250 4400 6150 4400
Wire Wire Line
	5950 4400 5850 4400
Wire Wire Line
	5850 4400 5850 4300
Connection ~ 5850 4300
Wire Wire Line
	6250 4050 6250 4000
Wire Wire Line
	6250 4000 5850 4000
Connection ~ 5850 4000
Wire Wire Line
	5250 3350 5150 3350
Wire Wire Line
	5700 3350 5700 3300
Wire Wire Line
	5450 3350 5700 3350
Text HLabel 7650 3000 2    50   Input ~ 0
6V5
Text HLabel 4150 3000 0    50   Input ~ 0
4V5
$Comp
L Device:L_Small L?
U 1 1 5C83E622
P 6600 3000
AR Path="/5C7CA963/5C83E622" Ref="L?"  Part="1" 
AR Path="/5C7CA963/5DC22759/5C83E622" Ref="L1402"  Part="1" 
F 0 "L1402" V 6785 3000 50  0000 C CNN
F 1 "110NH" V 6694 3000 50  0000 C CNN
F 2 "Inductor_SMD:L_0805_2012Metric" H 6600 3000 50  0001 C CNN
F 3 "~" H 6600 3000 50  0001 C CNN
	1    6600 3000
	0    -1   -1   0   
$EndComp
Wire Wire Line
	5950 3000 5850 3000
Connection ~ 5850 3000
Wire Wire Line
	6500 3000 6350 3000
Wire Wire Line
	6850 3000 6700 3000
Connection ~ 6850 3000
Wire Wire Line
	6350 3000 6250 3000
Connection ~ 6350 3000
$Comp
L Device:CP_Small CC1401
U 1 1 5C850BC3
P 6850 3150
F 0 "CC1401" H 6938 3196 50  0000 L CNN
F 1 "220UF" H 6938 3105 50  0000 L CNN
F 2 "Capacitor_SMD:C_2816_7142Metric" H 6850 3150 50  0001 C CNN
F 3 "~" H 6850 3150 50  0001 C CNN
	1    6850 3150
	1    0    0    -1  
$EndComp
$EndSCHEMATC
