EESchema Schematic File Version 4
LIBS:usb-smu-cache
EELAYER 26 0
EELAYER END
$Descr A4 11693 8268
encoding utf-8
Sheet 6 17
Title ""
Date ""
Rev ""
Comp ""
Comment1 ""
Comment2 ""
Comment3 ""
Comment4 ""
$EndDescr
$Comp
L usb-smu:AD7682 U?
U 1 1 5DBAEE50
P 5900 4150
AR Path="/5C7CA958/5DBAEE50" Ref="U?"  Part="1" 
AR Path="/5C7CA958/5DBAA221/5DBAEE50" Ref="U401"  Part="1" 
AR Path="/5C7CA958/5DBB01BF/5DBAEE50" Ref="U?"  Part="1" 
AR Path="/5C7CA958/5DBB5F0F/5DBAEE50" Ref="U?"  Part="1" 
AR Path="/5C7CA958/5E22697A/5DBAEE50" Ref="U601"  Part="1" 
F 0 "U601" H 6100 4850 50  0000 C CNN
F 1 "AD7682BCPZ" H 6200 4750 50  0000 C CNN
F 2 "Package_CSP:LFCSP-20-1EP_4x4mm_P0.5mm_EP2.1x2.1mm" H 5900 4150 50  0001 C CNN
F 3 "https://www.analog.com/media/en/technical-documentation/data-sheets/AD7682_7689.pdf" H 6250 3600 50  0001 C CNN
	1    5900 4150
	1    0    0    -1  
$EndComp
$Comp
L power:+3V3 #PWR?
U 1 1 5DBAEE5D
P 5300 3850
AR Path="/5C7CA958/5DBAEE5D" Ref="#PWR?"  Part="1" 
AR Path="/5C7CA958/5DBAA221/5DBAEE5D" Ref="#PWR0402"  Part="1" 
AR Path="/5C7CA958/5DBB01BF/5DBAEE5D" Ref="#PWR?"  Part="1" 
AR Path="/5C7CA958/5DBB5F0F/5DBAEE5D" Ref="#PWR?"  Part="1" 
AR Path="/5C7CA958/5E22697A/5DBAEE5D" Ref="#PWR0602"  Part="1" 
F 0 "#PWR0602" H 5300 3700 50  0001 C CNN
F 1 "+3V3" H 5315 4023 50  0000 C CNN
F 2 "" H 5300 3850 50  0001 C CNN
F 3 "" H 5300 3850 50  0001 C CNN
	1    5300 3850
	1    0    0    -1  
$EndComp
$Comp
L Device:C_Small C?
U 1 1 5DBAEE63
P 5100 3750
AR Path="/5C7CA958/5DBAEE63" Ref="C?"  Part="1" 
AR Path="/5C7CA958/5DBAA221/5DBAEE63" Ref="C401"  Part="1" 
AR Path="/5C7CA958/5DBB01BF/5DBAEE63" Ref="C?"  Part="1" 
AR Path="/5C7CA958/5DBB5F0F/5DBAEE63" Ref="C?"  Part="1" 
AR Path="/5C7CA958/5E22697A/5DBAEE63" Ref="C601"  Part="1" 
F 0 "C601" H 4900 3550 50  0000 R CNN
F 1 "0.1UF" H 5050 3650 50  0000 R CNN
F 2 "Capacitor_SMD:C_0402_1005Metric" H 5100 3750 50  0001 C CNN
F 3 "~" H 5100 3750 50  0001 C CNN
	1    5100 3750
	1    0    0    1   
$EndComp
Wire Wire Line
	5400 3900 5300 3900
Wire Wire Line
	5100 3900 5100 3850
Wire Wire Line
	5300 3850 5300 3900
Connection ~ 5300 3900
Wire Wire Line
	5300 3900 5100 3900
Wire Wire Line
	5600 3500 5600 3250
$Comp
L Device:C_Small C?
U 1 1 5DBAEE70
P 5350 3250
AR Path="/5C7CA958/5DBAEE70" Ref="C?"  Part="1" 
AR Path="/5C7CA958/5DBAA221/5DBAEE70" Ref="C403"  Part="1" 
AR Path="/5C7CA958/5DBB01BF/5DBAEE70" Ref="C?"  Part="1" 
AR Path="/5C7CA958/5DBB5F0F/5DBAEE70" Ref="C?"  Part="1" 
AR Path="/5C7CA958/5E22697A/5DBAEE70" Ref="C603"  Part="1" 
F 0 "C603" V 5200 3150 50  0000 C CNN
F 1 "0.1UF" V 5100 3200 50  0000 C CNN
F 2 "Capacitor_SMD:C_0402_1005Metric" H 5350 3250 50  0001 C CNN
F 3 "~" H 5350 3250 50  0001 C CNN
	1    5350 3250
	0    1    -1   0   
$EndComp
$Comp
L Device:C_Small C?
U 1 1 5DBAEE77
P 5350 3050
AR Path="/5C7CA958/5DBAEE77" Ref="C?"  Part="1" 
AR Path="/5C7CA958/5DBAA221/5DBAEE77" Ref="C402"  Part="1" 
AR Path="/5C7CA958/5DBB01BF/5DBAEE77" Ref="C?"  Part="1" 
AR Path="/5C7CA958/5DBB5F0F/5DBAEE77" Ref="C?"  Part="1" 
AR Path="/5C7CA958/5E22697A/5DBAEE77" Ref="C602"  Part="1" 
F 0 "C602" V 5100 3150 50  0000 C CNN
F 1 "1UF" V 5200 3100 50  0000 C CNN
F 2 "Capacitor_SMD:C_0603_1608Metric" H 5350 3050 50  0001 C CNN
F 3 "~" H 5350 3050 50  0001 C CNN
	1    5350 3050
	0    -1   1    0   
$EndComp
Wire Wire Line
	5450 3050 5600 3050
Connection ~ 5600 3050
Wire Wire Line
	5450 3250 5600 3250
Connection ~ 5600 3250
Wire Wire Line
	5600 3250 5600 3050
Wire Wire Line
	5250 3050 5100 3050
Wire Wire Line
	5100 3050 5100 3250
Wire Wire Line
	5250 3250 5100 3250
Connection ~ 5100 3250
Wire Wire Line
	5100 3250 5100 3650
$Comp
L Device:C_Small C?
U 1 1 5DBAEE89
P 5800 3200
AR Path="/5C7CA958/5DBAEE89" Ref="C?"  Part="1" 
AR Path="/5C7CA958/5DBAA221/5DBAEE89" Ref="C404"  Part="1" 
AR Path="/5C7CA958/5DBB01BF/5DBAEE89" Ref="C?"  Part="1" 
AR Path="/5C7CA958/5DBB5F0F/5DBAEE89" Ref="C?"  Part="1" 
AR Path="/5C7CA958/5E22697A/5DBAEE89" Ref="C604"  Part="1" 
F 0 "C604" H 5800 2900 50  0000 R CNN
F 1 "0.1UF" H 5800 3000 50  0000 R CNN
F 2 "Capacitor_SMD:C_0402_1005Metric" H 5800 3200 50  0001 C CNN
F 3 "~" H 5800 3200 50  0001 C CNN
	1    5800 3200
	-1   0    0    1   
$EndComp
$Comp
L Device:C_Small C?
U 1 1 5DBAEE90
P 6150 3200
AR Path="/5C7CA958/5DBAEE90" Ref="C?"  Part="1" 
AR Path="/5C7CA958/5DBAA221/5DBAEE90" Ref="C405"  Part="1" 
AR Path="/5C7CA958/5DBB01BF/5DBAEE90" Ref="C?"  Part="1" 
AR Path="/5C7CA958/5DBB5F0F/5DBAEE90" Ref="C?"  Part="1" 
AR Path="/5C7CA958/5E22697A/5DBAEE90" Ref="C605"  Part="1" 
F 0 "C605" H 6200 2900 50  0000 R CNN
F 1 "10UF" H 6200 3000 50  0000 R CNN
F 2 "Capacitor_SMD:C_0805_2012Metric" H 6150 3200 50  0001 C CNN
F 3 "~" H 6150 3200 50  0001 C CNN
	1    6150 3200
	-1   0    0    1   
$EndComp
Wire Wire Line
	5800 3300 5800 3500
Wire Wire Line
	5900 3500 5900 3350
Wire Wire Line
	5900 3350 6150 3350
Wire Wire Line
	6150 3350 6150 3300
Wire Wire Line
	5800 3100 5800 3050
Wire Wire Line
	5800 3050 6150 3050
Wire Wire Line
	6150 3050 6150 3100
$Comp
L power:GND #PWR?
U 1 1 5DBAEE9E
P 6350 3100
AR Path="/5C7CA958/5DBAEE9E" Ref="#PWR?"  Part="1" 
AR Path="/5C7CA958/5DBAA221/5DBAEE9E" Ref="#PWR0404"  Part="1" 
AR Path="/5C7CA958/5DBB01BF/5DBAEE9E" Ref="#PWR?"  Part="1" 
AR Path="/5C7CA958/5DBB5F0F/5DBAEE9E" Ref="#PWR?"  Part="1" 
AR Path="/5C7CA958/5E22697A/5DBAEE9E" Ref="#PWR0604"  Part="1" 
F 0 "#PWR0604" H 6350 2850 50  0001 C CNN
F 1 "GND" H 6355 2927 50  0000 C CNN
F 2 "" H 6350 3100 50  0001 C CNN
F 3 "" H 6350 3100 50  0001 C CNN
	1    6350 3100
	1    0    0    -1  
$EndComp
Wire Wire Line
	6350 3100 6350 3050
Wire Wire Line
	6350 3050 6150 3050
Connection ~ 6150 3050
Text HLabel 6450 3700 2    50   Input ~ 0
VSENSE-A
Text HLabel 6450 3900 2    50   Input ~ 0
VSENSE-B
Text HLabel 6450 4200 2    50   Input ~ 0
ISENSE-A
Text HLabel 6450 4400 2    50   Input ~ 0
ISENSE-B
Wire Wire Line
	6450 4400 6400 4400
Wire Wire Line
	6400 4200 6450 4200
Wire Wire Line
	6450 3900 6400 3900
Wire Wire Line
	6400 3700 6450 3700
Wire Wire Line
	5400 4500 5350 4500
Wire Wire Line
	5350 4500 5350 4600
Wire Wire Line
	5350 4600 5400 4600
Connection ~ 5350 4600
Text HLabel 4500 4100 0    50   Input ~ 0
SCK
Text HLabel 4500 4200 0    50   Input ~ 0
TX
$Comp
L Device:R_Small R?
U 1 1 5DBAEEB5
P 4700 4100
AR Path="/5C7CA958/5DBAEEB5" Ref="R?"  Part="1" 
AR Path="/5C7CA958/5DBAA221/5DBAEEB5" Ref="R401"  Part="1" 
AR Path="/5C7CA958/5DBB01BF/5DBAEEB5" Ref="R?"  Part="1" 
AR Path="/5C7CA958/5DBB5F0F/5DBAEEB5" Ref="R?"  Part="1" 
AR Path="/5C7CA958/5E22697A/5DBAEEB5" Ref="R601"  Part="1" 
F 0 "R601" V 4400 4050 50  0000 C CNN
F 1 "33" V 4500 4050 50  0000 C CNN
F 2 "Resistor_SMD:R_0402_1005Metric" H 4700 4100 50  0001 C CNN
F 3 "~" H 4700 4100 50  0001 C CNN
	1    4700 4100
	0    1    1    0   
$EndComp
$Comp
L Device:R_Small R?
U 1 1 5DBAEEBC
P 4950 4200
AR Path="/5C7CA958/5DBAEEBC" Ref="R?"  Part="1" 
AR Path="/5C7CA958/5DBAA221/5DBAEEBC" Ref="R403"  Part="1" 
AR Path="/5C7CA958/5DBB01BF/5DBAEEBC" Ref="R?"  Part="1" 
AR Path="/5C7CA958/5DBB5F0F/5DBAEEBC" Ref="R?"  Part="1" 
AR Path="/5C7CA958/5E22697A/5DBAEEBC" Ref="R603"  Part="1" 
F 0 "R603" V 5150 4150 50  0000 C CNN
F 1 "33" V 5050 4200 50  0000 C CNN
F 2 "Resistor_SMD:R_0402_1005Metric" H 4950 4200 50  0001 C CNN
F 3 "~" H 4950 4200 50  0001 C CNN
	1    4950 4200
	0    1    1    0   
$EndComp
Wire Wire Line
	4500 4200 4850 4200
Wire Wire Line
	4500 4100 4600 4100
Wire Wire Line
	4800 4100 5400 4100
Wire Wire Line
	5050 4200 5400 4200
$Comp
L Device:R_Small R?
U 1 1 5DBAEEC7
P 4950 4000
AR Path="/5C7CA958/5DBAEEC7" Ref="R?"  Part="1" 
AR Path="/5C7CA958/5DBAA221/5DBAEEC7" Ref="R402"  Part="1" 
AR Path="/5C7CA958/5DBB01BF/5DBAEEC7" Ref="R?"  Part="1" 
AR Path="/5C7CA958/5DBB5F0F/5DBAEEC7" Ref="R?"  Part="1" 
AR Path="/5C7CA958/5E22697A/5DBAEEC7" Ref="R602"  Part="1" 
F 0 "R602" V 4750 3950 50  0000 C CNN
F 1 "33" V 4845 4000 50  0000 C CNN
F 2 "Resistor_SMD:R_0402_1005Metric" H 4950 4000 50  0001 C CNN
F 3 "~" H 4950 4000 50  0001 C CNN
	1    4950 4000
	0    1    1    0   
$EndComp
Text HLabel 5350 4300 0    50   Input ~ 0
CNV
Wire Wire Line
	5350 4300 5400 4300
Wire Wire Line
	5050 4000 5400 4000
Text HLabel 4500 4000 0    50   Input ~ 0
RX
Wire Wire Line
	4500 4000 4850 4000
$Comp
L power:GND #PWR?
U 1 1 5DBAEED3
P 5900 4850
AR Path="/5C7CA958/5DBAEED3" Ref="#PWR?"  Part="1" 
AR Path="/5C7CA958/5DBAA221/5DBAEED3" Ref="#PWR0403"  Part="1" 
AR Path="/5C7CA958/5DBB01BF/5DBAEED3" Ref="#PWR?"  Part="1" 
AR Path="/5C7CA958/5DBB5F0F/5DBAEED3" Ref="#PWR?"  Part="1" 
AR Path="/5C7CA958/5E22697A/5DBAEED3" Ref="#PWR0603"  Part="1" 
F 0 "#PWR0603" H 5900 4600 50  0001 C CNN
F 1 "GND" H 5905 4677 50  0000 C CNN
F 2 "" H 5900 4850 50  0001 C CNN
F 3 "" H 5900 4850 50  0001 C CNN
	1    5900 4850
	1    0    0    -1  
$EndComp
Wire Wire Line
	5350 4800 5900 4800
Wire Wire Line
	6450 4800 6450 4600
Wire Wire Line
	6450 4600 6400 4600
Wire Wire Line
	5350 4600 5350 4800
Wire Wire Line
	5900 4850 5900 4800
Connection ~ 5900 4800
Wire Wire Line
	5900 4800 6450 4800
$Comp
L power:GND #PWR?
U 1 1 5DBAEEE0
P 4950 3100
AR Path="/5C7CA958/5DBAEEE0" Ref="#PWR?"  Part="1" 
AR Path="/5C7CA958/5DBAA221/5DBAEEE0" Ref="#PWR0401"  Part="1" 
AR Path="/5C7CA958/5DBB01BF/5DBAEEE0" Ref="#PWR?"  Part="1" 
AR Path="/5C7CA958/5DBB5F0F/5DBAEEE0" Ref="#PWR?"  Part="1" 
AR Path="/5C7CA958/5E22697A/5DBAEEE0" Ref="#PWR0601"  Part="1" 
F 0 "#PWR0601" H 4950 2850 50  0001 C CNN
F 1 "GND" H 4955 2927 50  0000 C CNN
F 2 "" H 4950 3100 50  0001 C CNN
F 3 "" H 4950 3100 50  0001 C CNN
	1    4950 3100
	1    0    0    -1  
$EndComp
Wire Wire Line
	4950 3100 4950 3050
Connection ~ 5100 3050
Wire Wire Line
	4950 3050 5100 3050
Text HLabel 5650 2750 2    50   Input ~ 0
5V0
Wire Wire Line
	5600 2750 5650 2750
Wire Wire Line
	5600 2750 5600 3050
$EndSCHEMATC
