EESchema Schematic File Version 4
LIBS:usb-smu-cache
EELAYER 26 0
EELAYER END
$Descr A4 11693 8268
encoding utf-8
Sheet 2 17
Title ""
Date ""
Rev ""
Comp ""
Comment1 ""
Comment2 ""
Comment3 ""
Comment4 ""
$EndDescr
$Comp
L usb-smu:AD8210 U?
U 1 1 5C7CA9D8
P 6300 3850
AR Path="/5C7CA9D8" Ref="U?"  Part="1" 
AR Path="/5C7CA938/5C7CA9D8" Ref="U206"  Part="1" 
AR Path="/5C7CA93F/5C7CA9D8" Ref="U?"  Part="1" 
AR Path="/5DF8C17D/5C7CA9D8" Ref="U?"  Part="1" 
AR Path="/5DF94C12/5C7CA9D8" Ref="U1706"  Part="1" 
F 0 "U206" H 6050 3500 50  0000 C CNN
F 1 "AD8210" H 6500 3500 50  0000 C CNN
F 2 "Package_SO:SOIC-8_3.9x4.9mm_P1.27mm" H 6300 3850 50  0001 C CNN
F 3 "http://www.analog.com/media/en/technical-documentation/data-sheets/AD8210.pdf" H 6950 3150 50  0001 C CNN
	1    6300 3850
	1    0    0    -1  
$EndComp
$Comp
L Device:Opamp_Dual_Generic U203
U 1 1 5C7CB888
P 4700 3400
AR Path="/5C7CA938/5C7CB888" Ref="U203"  Part="1" 
AR Path="/5C7CA93F/5C7CB888" Ref="U?"  Part="1" 
AR Path="/5DF8C17D/5C7CB888" Ref="U?"  Part="1" 
AR Path="/5DF94C12/5C7CB888" Ref="U1703"  Part="1" 
F 0 "U203" H 4650 3700 50  0000 L CNN
F 1 "AD8018ARZ" H 4650 3600 50  0000 L CNN
F 2 "Package_SO:SOIC-8_3.9x4.9mm_P1.27mm" H 4700 3400 50  0001 C CNN
F 3 "https://www.analog.com/media/en/technical-documentation/data-sheets/AD8018.pdf" H 4700 3400 50  0001 C CNN
	1    4700 3400
	1    0    0    -1  
$EndComp
$Comp
L usb-smu:ADG719 U201
U 1 1 5C7CC004
P 2100 3550
AR Path="/5C7CA938/5C7CC004" Ref="U201"  Part="1" 
AR Path="/5C7CA93F/5C7CC004" Ref="U?"  Part="1" 
AR Path="/5C7CC004" Ref="U?"  Part="1" 
AR Path="/5DF8C17D/5C7CC004" Ref="U?"  Part="1" 
AR Path="/5DF94C12/5C7CC004" Ref="U1701"  Part="1" 
F 0 "U201" H 2400 3300 50  0000 C CNN
F 1 "ADG719BRTZ" H 2550 3200 50  0000 C CNN
F 2 "Package_TO_SOT_SMD:SOT-23-6" H 2100 3250 50  0001 C CNN
F 3 "https://www.analog.com/media/en/technical-documentation/data-sheets/ADG719.pdf" H 2100 3550 50  0001 C CNN
	1    2100 3550
	1    0    0    -1  
$EndComp
$Comp
L usb-smu:AD5122 U205
U 1 1 5C7E1C17
P 4850 2050
AR Path="/5C7CA938/5C7E1C17" Ref="U205"  Part="1" 
AR Path="/5C7CA93F/5C7E1C17" Ref="U?"  Part="1" 
AR Path="/5DF8C17D/5C7E1C17" Ref="U?"  Part="1" 
AR Path="/5DF94C12/5C7E1C17" Ref="U1705"  Part="1" 
F 0 "U205" H 4500 2600 50  0000 C CNN
F 1 "AD5122ABCPZ10" H 5250 2600 50  0000 C CNN
F 2 "Package_CSP:LFCSP-16-1EP_3x3mm_P0.5mm_EP1.854x1.854mm" H 4850 1350 50  0001 C CNN
F 3 "https://www.analog.com/media/en/technical-documentation/data-sheets/AD5122_5142.pdf" H 4950 1950 50  0001 C CNN
	1    4850 2050
	1    0    0    -1  
$EndComp
$Comp
L usb-smu:ADG1611 U204
U 1 1 5C7E2D8C
P 4700 6300
AR Path="/5C7CA938/5C7E2D8C" Ref="U204"  Part="1" 
AR Path="/5C7CA93F/5C7E2D8C" Ref="U?"  Part="1" 
AR Path="/5DF8C17D/5C7E2D8C" Ref="U?"  Part="1" 
AR Path="/5DF94C12/5C7E2D8C" Ref="U1704"  Part="1" 
F 0 "U204" H 4650 7050 50  0000 C CNN
F 1 "ADG1611BCPZ" H 4700 6950 50  0000 C CNN
F 2 "Package_CSP:LFCSP-16-1EP_4x4mm_P0.65mm_EP2.1x2.1mm" H 4700 6200 50  0001 C CNN
F 3 "https://www.analog.com/media/en/technical-documentation/data-sheets/ADG1611_1612_1613.pdf" H 4700 6300 50  0001 C CNN
F 4 "https://github.com/analogdevicesinc/m1k-cad/issues/4" V 4700 6300 50  0001 C CNN "Issue"
	1    4700 6300
	1    0    0    -1  
$EndComp
$Comp
L Device:Opamp_Dual_Generic U202
U 3 1 5C7EBB36
P 2400 6700
AR Path="/5C7CA938/5C7EBB36" Ref="U202"  Part="3" 
AR Path="/5C7CA93F/5C7EBB36" Ref="U?"  Part="3" 
AR Path="/5DF8C17D/5C7EBB36" Ref="U?"  Part="3" 
AR Path="/5DF94C12/5C7EBB36" Ref="U1702"  Part="3" 
F 0 "U202" V 2400 6700 50  0000 C CNN
F 1 "ADA4661" V 2150 6700 50  0001 C CNN
F 2 "Package_SO:MSOP-8_3x3mm_P0.65mm" H 2400 6700 50  0001 C CNN
F 3 "https://www.analog.com/media/en/technical-documentation/data-sheets/ADA4661-2.pdf" H 2400 6700 50  0001 C CNN
	3    2400 6700
	0    -1   -1   0   
$EndComp
$Comp
L Device:Opamp_Dual_Generic U202
U 2 1 5C7EBC06
P 2500 6350
AR Path="/5C7CA938/5C7EBC06" Ref="U202"  Part="2" 
AR Path="/5C7CA93F/5C7EBC06" Ref="U?"  Part="2" 
AR Path="/5DF8C17D/5C7EBC06" Ref="U?"  Part="2" 
AR Path="/5DF94C12/5C7EBC06" Ref="U1702"  Part="2" 
F 0 "U202" H 2600 6600 50  0000 C CNN
F 1 "ADA4661" H 2650 6500 50  0000 C CNN
F 2 "Package_SO:MSOP-8_3x3mm_P0.65mm" H 2500 6350 50  0001 C CNN
F 3 "https://www.analog.com/media/en/technical-documentation/data-sheets/ADA4661-2.pdf" H 2500 6350 50  0001 C CNN
	2    2500 6350
	-1   0    0    1   
$EndComp
$Comp
L Device:Opamp_Dual_Generic U202
U 1 1 5C7EC53B
P 3250 3300
AR Path="/5C7CA938/5C7EC53B" Ref="U202"  Part="1" 
AR Path="/5C7CA93F/5C7EC53B" Ref="U?"  Part="1" 
AR Path="/5DF8C17D/5C7EC53B" Ref="U?"  Part="1" 
AR Path="/5DF94C12/5C7EC53B" Ref="U1702"  Part="1" 
F 0 "U202" H 3400 3550 50  0000 C CNN
F 1 "ADA4661" H 3450 3450 50  0000 C CNN
F 2 "Package_SO:MSOP-8_3x3mm_P0.65mm" H 3250 3300 50  0001 C CNN
F 3 "https://www.analog.com/media/en/technical-documentation/data-sheets/ADA4661-2.pdf" H 3250 3300 50  0001 C CNN
	1    3250 3300
	1    0    0    -1  
$EndComp
$Comp
L Device:Opamp_Dual_Generic U203
U 2 1 5C7ED3FD
P 9350 5700
AR Path="/5C7CA938/5C7ED3FD" Ref="U203"  Part="2" 
AR Path="/5C7CA93F/5C7ED3FD" Ref="U?"  Part="2" 
AR Path="/5DF8C17D/5C7ED3FD" Ref="U?"  Part="2" 
AR Path="/5DF94C12/5C7ED3FD" Ref="U1703"  Part="2" 
F 0 "U203" H 9350 5950 50  0000 L CNN
F 1 "AD8018ARZ" H 9350 5850 50  0000 L CNN
F 2 "Package_SO:SOIC-8_3.9x4.9mm_P1.27mm" H 9350 5700 50  0001 C CNN
F 3 "https://www.analog.com/media/en/technical-documentation/data-sheets/AD8018.pdf" H 9350 5700 50  0001 C CNN
	2    9350 5700
	1    0    0    -1  
$EndComp
$Comp
L Device:Opamp_Dual_Generic U203
U 3 1 5C7ED4AF
P 9500 5350
AR Path="/5C7CA938/5C7ED4AF" Ref="U203"  Part="3" 
AR Path="/5C7CA93F/5C7ED4AF" Ref="U?"  Part="3" 
AR Path="/5DF8C17D/5C7ED4AF" Ref="U?"  Part="3" 
AR Path="/5DF94C12/5C7ED4AF" Ref="U1703"  Part="3" 
F 0 "U203" V 9500 5250 50  0000 L CNN
F 1 "AD8018ARZ" V 9250 5150 50  0001 L CNN
F 2 "Package_SO:SOIC-8_3.9x4.9mm_P1.27mm" H 9500 5350 50  0001 C CNN
F 3 "https://www.analog.com/media/en/technical-documentation/data-sheets/AD8018.pdf" H 9500 5350 50  0001 C CNN
	3    9500 5350
	0    -1   1    0   
$EndComp
Text HLabel 1800 3750 0    50   Input ~ 0
SWMODE
Wire Wire Line
	1800 3750 1850 3750
Text HLabel 4500 1200 0    50   Input ~ 0
5V0
Text HLabel 5200 1200 2    50   Input ~ 0
3V3
$Comp
L Device:C_Small C207
U 1 1 5DC2AB0F
P 4700 1200
AR Path="/5C7CA938/5DC2AB0F" Ref="C207"  Part="1" 
AR Path="/5C7CA93F/5DC2AB0F" Ref="C?"  Part="1" 
AR Path="/5DF8C17D/5DC2AB0F" Ref="C?"  Part="1" 
AR Path="/5DF94C12/5DC2AB0F" Ref="C1707"  Part="1" 
F 0 "C207" V 4471 1200 50  0000 C CNN
F 1 "0.1UF" V 4562 1200 50  0000 C CNN
F 2 "Capacitor_SMD:C_0402_1005Metric" H 4700 1200 50  0001 C CNN
F 3 "~" H 4700 1200 50  0001 C CNN
	1    4700 1200
	0    1    1    0   
$EndComp
$Comp
L power:GND #PWR0207
U 1 1 5DC2ACE6
P 4850 1250
AR Path="/5C7CA938/5DC2ACE6" Ref="#PWR0207"  Part="1" 
AR Path="/5C7CA93F/5DC2ACE6" Ref="#PWR?"  Part="1" 
AR Path="/5DF8C17D/5DC2ACE6" Ref="#PWR?"  Part="1" 
AR Path="/5DF94C12/5DC2ACE6" Ref="#PWR01707"  Part="1" 
F 0 "#PWR0207" H 4850 1000 50  0001 C CNN
F 1 "GND" H 4850 1350 50  0000 C CNN
F 2 "" H 4850 1250 50  0001 C CNN
F 3 "" H 4850 1250 50  0001 C CNN
	1    4850 1250
	1    0    0    -1  
$EndComp
$Comp
L Device:C_Small C209
U 1 1 5DC2AD7A
P 5000 1200
AR Path="/5C7CA938/5DC2AD7A" Ref="C209"  Part="1" 
AR Path="/5C7CA93F/5DC2AD7A" Ref="C?"  Part="1" 
AR Path="/5DF8C17D/5DC2AD7A" Ref="C?"  Part="1" 
AR Path="/5DF94C12/5DC2AD7A" Ref="C1709"  Part="1" 
F 0 "C209" V 4771 1200 50  0000 C CNN
F 1 "0.1UF" V 4862 1200 50  0000 C CNN
F 2 "Capacitor_SMD:C_0402_1005Metric" H 5000 1200 50  0001 C CNN
F 3 "~" H 5000 1200 50  0001 C CNN
	1    5000 1200
	0    1    1    0   
$EndComp
Wire Wire Line
	4800 1200 4850 1200
Wire Wire Line
	4850 1250 4850 1200
Connection ~ 4850 1200
Wire Wire Line
	4850 1200 4900 1200
Wire Wire Line
	4500 1200 4550 1200
Wire Wire Line
	5100 1200 5150 1200
Wire Wire Line
	4800 1450 4800 1400
Wire Wire Line
	4800 1400 4550 1400
Wire Wire Line
	4550 1400 4550 1200
Connection ~ 4550 1200
Wire Wire Line
	4550 1200 4600 1200
Wire Wire Line
	4900 1450 4900 1400
Wire Wire Line
	4900 1400 5150 1400
Wire Wire Line
	5150 1400 5150 1200
Connection ~ 5150 1200
Wire Wire Line
	5150 1200 5200 1200
NoConn ~ 4350 2300
Text HLabel 4300 1800 0    50   Input ~ 0
3V3
Wire Wire Line
	4300 1800 4350 1800
Text HLabel 4300 1900 0    50   Input ~ 0
SCL
Wire Wire Line
	4300 1900 4350 1900
Text HLabel 4300 2100 0    50   Input ~ 0
3V3
Wire Wire Line
	4350 2000 4300 2000
Wire Wire Line
	4350 2100 4300 2100
Text HLabel 4300 2000 0    50   Input ~ 0
SDA
$Comp
L power:GND #PWR0205
U 1 1 5DC2BDCE
P 4300 2750
AR Path="/5C7CA938/5DC2BDCE" Ref="#PWR0205"  Part="1" 
AR Path="/5C7CA93F/5DC2BDCE" Ref="#PWR?"  Part="1" 
AR Path="/5DF8C17D/5DC2BDCE" Ref="#PWR?"  Part="1" 
AR Path="/5DF94C12/5DC2BDCE" Ref="#PWR01705"  Part="1" 
F 0 "#PWR0205" H 4300 2500 50  0001 C CNN
F 1 "GND" H 4305 2577 50  0000 C CNN
F 2 "" H 4300 2750 50  0001 C CNN
F 3 "" H 4300 2750 50  0001 C CNN
	1    4300 2750
	1    0    0    -1  
$EndComp
Wire Wire Line
	4300 2200 4350 2200
Wire Wire Line
	4900 2650 4900 2700
Wire Wire Line
	4900 2700 4800 2700
Wire Wire Line
	4800 2700 4800 2650
Wire Wire Line
	4800 2700 4300 2700
Wire Wire Line
	4300 2700 4300 2200
Connection ~ 4800 2700
Wire Wire Line
	4300 2700 4300 2750
Connection ~ 4300 2700
Wire Wire Line
	5350 2150 5400 2150
Wire Wire Line
	5400 2150 5400 2050
Wire Wire Line
	5400 1950 5350 1950
Wire Wire Line
	5350 2350 5400 2350
Wire Wire Line
	5400 2350 5400 2250
Wire Wire Line
	5400 2250 5350 2250
Wire Wire Line
	5350 1850 5400 1850
Wire Wire Line
	5400 1850 5400 1750
Wire Wire Line
	5400 1750 5350 1750
Text HLabel 4350 5850 0    50   Input ~ 0
SW0
Text HLabel 4350 6100 0    50   Input ~ 0
SW1
Text HLabel 4350 6350 0    50   Input ~ 0
SW2
Text HLabel 4350 6600 0    50   Input ~ 0
SW3
Wire Wire Line
	5050 5800 5100 5800
Wire Wire Line
	5100 5800 5100 6050
Wire Wire Line
	5100 6550 5050 6550
Wire Wire Line
	5050 6300 5100 6300
Connection ~ 5100 6300
Wire Wire Line
	5100 6300 5100 6550
Wire Wire Line
	5050 6050 5100 6050
Connection ~ 5100 6050
Wire Wire Line
	5100 6050 5100 6300
$Comp
L Device:R_Small R208
U 1 1 5DC2EF1D
P 5300 5850
AR Path="/5C7CA938/5DC2EF1D" Ref="R208"  Part="1" 
AR Path="/5C7CA93F/5DC2EF1D" Ref="R?"  Part="1" 
AR Path="/5DF8C17D/5DC2EF1D" Ref="R?"  Part="1" 
AR Path="/5DF94C12/5DC2EF1D" Ref="R1708"  Part="1" 
F 0 "R208" V 5104 5850 50  0000 C CNN
F 1 "49.9" V 5195 5850 50  0000 C CNN
F 2 "Resistor_SMD:R_0805_2012Metric" H 5300 5850 50  0001 C CNN
F 3 "~" H 5300 5850 50  0001 C CNN
	1    5300 5850
	0    1    1    0   
$EndComp
$Comp
L Device:R_Small R209
U 1 1 5DC2F16C
P 5300 6150
AR Path="/5C7CA938/5DC2F16C" Ref="R209"  Part="1" 
AR Path="/5C7CA93F/5DC2F16C" Ref="R?"  Part="1" 
AR Path="/5DF8C17D/5DC2F16C" Ref="R?"  Part="1" 
AR Path="/5DF94C12/5DC2F16C" Ref="R1709"  Part="1" 
F 0 "R209" V 5104 6150 50  0000 C CNN
F 1 "49.9" V 5195 6150 50  0000 C CNN
F 2 "Resistor_SMD:R_1206_3216Metric" H 5300 6150 50  0001 C CNN
F 3 "~" H 5300 6150 50  0001 C CNN
	1    5300 6150
	0    1    1    0   
$EndComp
$Comp
L Device:R_Small R210
U 1 1 5DC2F7F8
P 5300 6450
AR Path="/5C7CA938/5DC2F7F8" Ref="R210"  Part="1" 
AR Path="/5C7CA93F/5DC2F7F8" Ref="R?"  Part="1" 
AR Path="/5DF8C17D/5DC2F7F8" Ref="R?"  Part="1" 
AR Path="/5DF94C12/5DC2F7F8" Ref="R1710"  Part="1" 
F 0 "R210" V 5104 6450 50  0000 C CNN
F 1 "100" V 5195 6450 50  0000 C CNN
F 2 "Resistor_SMD:R_0603_1608Metric" H 5300 6450 50  0001 C CNN
F 3 "~" H 5300 6450 50  0001 C CNN
	1    5300 6450
	0    1    1    0   
$EndComp
$Comp
L power:GND #PWR0208
U 1 1 5DC2F95A
P 5450 6150
AR Path="/5C7CA938/5DC2F95A" Ref="#PWR0208"  Part="1" 
AR Path="/5C7CA93F/5DC2F95A" Ref="#PWR?"  Part="1" 
AR Path="/5DF8C17D/5DC2F95A" Ref="#PWR?"  Part="1" 
AR Path="/5DF94C12/5DC2F95A" Ref="#PWR01708"  Part="1" 
F 0 "#PWR0208" H 5450 5900 50  0001 C CNN
F 1 "GND" V 5455 6022 50  0000 R CNN
F 2 "" H 5450 6150 50  0001 C CNN
F 3 "" H 5450 6150 50  0001 C CNN
	1    5450 6150
	0    -1   -1   0   
$EndComp
Wire Wire Line
	5450 6150 5400 6150
Wire Wire Line
	5200 6450 5150 6450
Wire Wire Line
	5150 6450 5150 6400
Wire Wire Line
	5150 6400 5050 6400
Wire Wire Line
	5200 6150 5050 6150
Wire Wire Line
	5200 5850 5150 5850
Wire Wire Line
	5150 5850 5150 5900
Wire Wire Line
	5150 5900 5050 5900
$Comp
L Connector_Generic:Conn_01x01 J201
U 1 1 5DC31CB5
P 5850 6100
AR Path="/5C7CA938/5DC31CB5" Ref="J201"  Part="1" 
AR Path="/5C7CA93F/5DC31CB5" Ref="J?"  Part="1" 
AR Path="/5DF8C17D/5DC31CB5" Ref="J?"  Part="1" 
AR Path="/5DF94C12/5DC31CB5" Ref="J1701"  Part="1" 
F 0 "J201" V 5816 6012 50  0000 R CNN
F 1 "EXT-IN(NEXT_TO_ANALOG_HEADER)" V 5725 6012 50  0000 R CNN
F 2 "" H 5850 6100 50  0001 C CNN
F 3 "~" H 5850 6100 50  0001 C CNN
	1    5850 6100
	0    -1   -1   0   
$EndComp
Wire Wire Line
	5850 6300 5850 6450
Wire Wire Line
	5850 6450 5400 6450
Wire Wire Line
	4350 5850 4400 5850
Text Label 5950 6450 0    50   ~ 0
V_BUFFER_IN
Wire Wire Line
	5950 6450 5850 6450
Connection ~ 5850 6450
Text HLabel 6600 6550 2    50   Input ~ 0
CH_IN
Wire Wire Line
	6600 6550 5100 6550
Connection ~ 5100 6550
Wire Wire Line
	5500 5850 5400 5850
$Comp
L Device:C_Small C206
U 1 1 5DC3B6F4
P 4650 7200
AR Path="/5C7CA938/5DC3B6F4" Ref="C206"  Part="1" 
AR Path="/5C7CA93F/5DC3B6F4" Ref="C?"  Part="1" 
AR Path="/5DF8C17D/5DC3B6F4" Ref="C?"  Part="1" 
AR Path="/5DF94C12/5DC3B6F4" Ref="C1706"  Part="1" 
F 0 "C206" H 4850 7400 50  0000 R CNN
F 1 "1UF" H 4800 7500 50  0000 R CNN
F 2 "Capacitor_SMD:C_0603_1608Metric" H 4650 7200 50  0001 C CNN
F 3 "~" H 4650 7200 50  0001 C CNN
	1    4650 7200
	-1   0    0    1   
$EndComp
$Comp
L Device:C_Small C205
U 1 1 5DC3B90B
P 4450 7200
AR Path="/5C7CA938/5DC3B90B" Ref="C205"  Part="1" 
AR Path="/5C7CA93F/5DC3B90B" Ref="C?"  Part="1" 
AR Path="/5DF8C17D/5DC3B90B" Ref="C?"  Part="1" 
AR Path="/5DF94C12/5DC3B90B" Ref="C1705"  Part="1" 
F 0 "C205" H 4358 7154 50  0000 R CNN
F 1 "0.1UF" H 4358 7245 50  0000 R CNN
F 2 "Capacitor_SMD:C_0402_1005Metric" H 4450 7200 50  0001 C CNN
F 3 "~" H 4450 7200 50  0001 C CNN
	1    4450 7200
	1    0    0    1   
$EndComp
Wire Wire Line
	4650 7300 4650 7350
Wire Wire Line
	4650 7350 4450 7350
Wire Wire Line
	4450 7350 4450 7300
Wire Wire Line
	4450 7100 4450 7050
Wire Wire Line
	4450 7050 4650 7050
Wire Wire Line
	4650 7050 4650 7100
$Comp
L power:GND #PWR0206
U 1 1 5DC3EF38
P 4750 7400
AR Path="/5C7CA938/5DC3EF38" Ref="#PWR0206"  Part="1" 
AR Path="/5C7CA93F/5DC3EF38" Ref="#PWR?"  Part="1" 
AR Path="/5DF8C17D/5DC3EF38" Ref="#PWR?"  Part="1" 
AR Path="/5DF94C12/5DC3EF38" Ref="#PWR01706"  Part="1" 
F 0 "#PWR0206" H 4750 7150 50  0001 C CNN
F 1 "GND" H 4755 7227 50  0000 C CNN
F 2 "" H 4750 7400 50  0001 C CNN
F 3 "" H 4750 7400 50  0001 C CNN
	1    4750 7400
	1    0    0    -1  
$EndComp
Wire Wire Line
	4750 7400 4750 7350
Wire Wire Line
	4650 7350 4750 7350
Connection ~ 4650 7350
Connection ~ 4750 7350
Wire Wire Line
	4750 7350 4750 7000
Wire Wire Line
	4650 7000 4650 7050
Connection ~ 4650 7050
$Comp
L Device:C_Small C208
U 1 1 5DC42581
P 4850 7200
AR Path="/5C7CA938/5DC42581" Ref="C208"  Part="1" 
AR Path="/5C7CA93F/5DC42581" Ref="C?"  Part="1" 
AR Path="/5DF8C17D/5DC42581" Ref="C?"  Part="1" 
AR Path="/5DF94C12/5DC42581" Ref="C1708"  Part="1" 
F 0 "C208" H 5050 7400 50  0000 R CNN
F 1 "0.1UF" H 5100 7500 50  0000 R CNN
F 2 "Capacitor_SMD:C_0402_1005Metric" H 4850 7200 50  0001 C CNN
F 3 "~" H 4850 7200 50  0001 C CNN
	1    4850 7200
	1    0    0    1   
$EndComp
$Comp
L Device:C_Small C210
U 1 1 5DC42587
P 5050 7200
AR Path="/5C7CA938/5DC42587" Ref="C210"  Part="1" 
AR Path="/5C7CA93F/5DC42587" Ref="C?"  Part="1" 
AR Path="/5DF8C17D/5DC42587" Ref="C?"  Part="1" 
AR Path="/5DF94C12/5DC42587" Ref="C1710"  Part="1" 
F 0 "C210" H 4958 7154 50  0000 R CNN
F 1 "1UF" H 4958 7245 50  0000 R CNN
F 2 "Capacitor_SMD:C_0603_1608Metric" H 5050 7200 50  0001 C CNN
F 3 "~" H 5050 7200 50  0001 C CNN
	1    5050 7200
	-1   0    0    1   
$EndComp
Wire Wire Line
	4850 7300 4850 7350
Wire Wire Line
	4850 7350 5050 7350
Wire Wire Line
	5050 7350 5050 7300
Wire Wire Line
	5050 7100 5050 7050
Wire Wire Line
	5050 7050 4850 7050
Wire Wire Line
	4850 7050 4850 7100
Wire Wire Line
	4850 7350 4750 7350
Connection ~ 4850 7350
Wire Wire Line
	4850 7000 4850 7050
Connection ~ 4850 7050
Text HLabel 4050 7050 0    50   Input ~ 0
-1V0
Wire Wire Line
	4050 7050 4450 7050
Connection ~ 4450 7050
Text Label 5950 6650 0    50   ~ 0
I_BUFFER_IN
Wire Wire Line
	5950 6650 5050 6650
Text HLabel 5450 7050 2    50   Input ~ 0
6V0
Wire Wire Line
	5450 7050 5050 7050
Connection ~ 5050 7050
Text HLabel 9050 4800 0    50   Input ~ 0
6V0
Text HLabel 9950 4800 2    50   Input ~ 0
-1V0
Wire Wire Line
	9850 5250 9800 5250
Wire Wire Line
	9200 5250 9150 5250
Wire Wire Line
	9150 5250 9150 4800
Text HLabel 8900 5600 0    50   Input ~ 0
OUT_V
Wire Wire Line
	8900 5600 9050 5600
$Comp
L Device:R_Small R217
U 1 1 5DC6891D
P 9950 5700
AR Path="/5C7CA938/5DC6891D" Ref="R217"  Part="1" 
AR Path="/5C7CA93F/5DC6891D" Ref="R?"  Part="1" 
AR Path="/5DF8C17D/5DC6891D" Ref="R?"  Part="1" 
AR Path="/5DF94C12/5DC6891D" Ref="R1717"  Part="1" 
F 0 "R217" V 9754 5700 50  0000 C CNN
F 1 "2" V 9845 5700 50  0000 C CNN
F 2 "Resistor_SMD:R_0805_2012Metric" H 9950 5700 50  0001 C CNN
F 3 "~" H 9950 5700 50  0001 C CNN
	1    9950 5700
	0    1    1    0   
$EndComp
Wire Wire Line
	9850 5700 9650 5700
$Comp
L Device:R_Small R216
U 1 1 5DC6AC20
P 9600 6000
AR Path="/5C7CA938/5DC6AC20" Ref="R216"  Part="1" 
AR Path="/5C7CA93F/5DC6AC20" Ref="R?"  Part="1" 
AR Path="/5DF8C17D/5DC6AC20" Ref="R?"  Part="1" 
AR Path="/5DF94C12/5DC6AC20" Ref="R1716"  Part="1" 
F 0 "R216" V 9404 6000 50  0000 C CNN
F 1 "24.9K" V 9495 6000 50  0000 C CNN
F 2 "Resistor_SMD:R_0603_1608Metric" H 9600 6000 50  0001 C CNN
F 3 "~" H 9600 6000 50  0001 C CNN
	1    9600 6000
	0    1    1    0   
$EndComp
$Comp
L Device:R_Small R215
U 1 1 5DC6ACD4
P 9350 6150
AR Path="/5C7CA938/5DC6ACD4" Ref="R215"  Part="1" 
AR Path="/5C7CA93F/5DC6ACD4" Ref="R?"  Part="1" 
AR Path="/5DF8C17D/5DC6ACD4" Ref="R?"  Part="1" 
AR Path="/5DF94C12/5DC6ACD4" Ref="R1715"  Part="1" 
F 0 "R215" V 9450 6100 50  0000 C CNN
F 1 "100" V 9550 6150 50  0000 C CNN
F 2 "Resistor_SMD:R_0603_1608Metric" H 9350 6150 50  0001 C CNN
F 3 "~" H 9350 6150 50  0001 C CNN
F 4 "DNI" V 9350 6150 50  0001 C CNN "Note"
	1    9350 6150
	0    1    1    0   
$EndComp
$Comp
L Device:C_Small C217
U 1 1 5DC6AFCC
P 9950 6150
AR Path="/5C7CA938/5DC6AFCC" Ref="C217"  Part="1" 
AR Path="/5C7CA93F/5DC6AFCC" Ref="C?"  Part="1" 
AR Path="/5DF8C17D/5DC6AFCC" Ref="C?"  Part="1" 
AR Path="/5DF94C12/5DC6AFCC" Ref="C1717"  Part="1" 
F 0 "C217" V 9800 6100 50  0000 C CNN
F 1 "10PF" V 9700 6150 50  0000 C CNN
F 2 "Capacitor_SMD:C_0402_1005Metric" H 9950 6150 50  0001 C CNN
F 3 "~" H 9950 6150 50  0001 C CNN
F 4 "DNI" V 9950 6150 50  0001 C CNN "Note"
	1    9950 6150
	0    1    -1   0   
$EndComp
Wire Wire Line
	10100 5700 10100 6000
Wire Wire Line
	10100 6150 10050 6150
Wire Wire Line
	9850 6150 9450 6150
Wire Wire Line
	9250 6150 9000 6150
Wire Wire Line
	9000 5800 9050 5800
Wire Wire Line
	9500 6000 9000 6000
Wire Wire Line
	9700 6000 10100 6000
Connection ~ 10100 6000
Wire Wire Line
	10100 6000 10100 6150
Text HLabel 10200 5700 2    50   Input ~ 0
OUT_V_BUFFERED
$Comp
L Device:C_Small C215
U 1 1 5DC91B12
P 9500 4700
AR Path="/5C7CA938/5DC91B12" Ref="C215"  Part="1" 
AR Path="/5C7CA93F/5DC91B12" Ref="C?"  Part="1" 
AR Path="/5DF8C17D/5DC91B12" Ref="C?"  Part="1" 
AR Path="/5DF94C12/5DC91B12" Ref="C1715"  Part="1" 
F 0 "C215" V 9250 4800 50  0000 R CNN
F 1 "10UF" V 9350 4800 50  0000 R CNN
F 2 "Capacitor_SMD:C_0805_2012Metric" H 9500 4700 50  0001 C CNN
F 3 "~" H 9500 4700 50  0001 C CNN
	1    9500 4700
	0    -1   1    0   
$EndComp
$Comp
L Device:C_Small C216
U 1 1 5DC91B18
P 9500 4900
AR Path="/5C7CA938/5DC91B18" Ref="C216"  Part="1" 
AR Path="/5C7CA93F/5DC91B18" Ref="C?"  Part="1" 
AR Path="/5DF8C17D/5DC91B18" Ref="C?"  Part="1" 
AR Path="/5DF94C12/5DC91B18" Ref="C1716"  Part="1" 
F 0 "C216" V 9350 5000 50  0000 R CNN
F 1 "0.1UF" V 9250 5000 50  0000 R CNN
F 2 "Capacitor_SMD:C_0402_1005Metric" H 9500 4900 50  0001 C CNN
F 3 "~" H 9500 4900 50  0001 C CNN
	1    9500 4900
	0    -1   -1   0   
$EndComp
Wire Wire Line
	9600 4900 9650 4900
Wire Wire Line
	9650 4900 9650 4800
Wire Wire Line
	9650 4700 9600 4700
Wire Wire Line
	9400 4700 9350 4700
Wire Wire Line
	9350 4700 9350 4800
Wire Wire Line
	9350 4900 9400 4900
Wire Wire Line
	9350 4800 9150 4800
Connection ~ 9350 4800
Wire Wire Line
	9350 4800 9350 4900
Connection ~ 9150 4800
Wire Wire Line
	9650 4800 9850 4800
Connection ~ 9650 4800
Wire Wire Line
	9650 4800 9650 4700
Connection ~ 9850 4800
Wire Wire Line
	9850 4800 9850 5250
Wire Wire Line
	9950 4800 9850 4800
Wire Wire Line
	9050 4800 9150 4800
$Comp
L Device:C_Small C212
U 1 1 5DCB7480
P 5900 4300
AR Path="/5C7CA938/5DCB7480" Ref="C212"  Part="1" 
AR Path="/5C7CA93F/5DCB7480" Ref="C?"  Part="1" 
AR Path="/5DF8C17D/5DCB7480" Ref="C?"  Part="1" 
AR Path="/5DF94C12/5DCB7480" Ref="C1712"  Part="1" 
F 0 "C212" V 5650 4250 50  0000 R CNN
F 1 "0.1UF" V 5750 4400 50  0000 R CNN
F 2 "Capacitor_SMD:C_0402_1005Metric" H 5900 4300 50  0001 C CNN
F 3 "~" H 5900 4300 50  0001 C CNN
	1    5900 4300
	0    1    -1   0   
$EndComp
Wire Wire Line
	6000 4300 6300 4300
Wire Wire Line
	6300 4300 6300 4250
Wire Wire Line
	5800 4300 5750 4300
Wire Wire Line
	5750 4300 5750 4050
Wire Wire Line
	5750 4050 5900 4050
$Comp
L power:GND #PWR0209
U 1 1 5DCD0536
P 6300 4350
AR Path="/5C7CA938/5DCD0536" Ref="#PWR0209"  Part="1" 
AR Path="/5C7CA93F/5DCD0536" Ref="#PWR?"  Part="1" 
AR Path="/5DF8C17D/5DCD0536" Ref="#PWR?"  Part="1" 
AR Path="/5DF94C12/5DCD0536" Ref="#PWR01709"  Part="1" 
F 0 "#PWR0209" H 6300 4100 50  0001 C CNN
F 1 "GND" H 6305 4177 50  0000 C CNN
F 2 "" H 6300 4350 50  0001 C CNN
F 3 "" H 6300 4350 50  0001 C CNN
	1    6300 4350
	1    0    0    -1  
$EndComp
Wire Wire Line
	6300 4350 6300 4300
Connection ~ 6300 4300
Text HLabel 5700 4050 0    50   Input ~ 0
5V0
Wire Wire Line
	5700 4050 5750 4050
Connection ~ 5750 4050
Text HLabel 5700 3950 0    50   Input ~ 0
2V5
Wire Wire Line
	5700 3950 5900 3950
$Comp
L Device:C_Small C213
U 1 1 5DCDAA69
P 6700 4300
AR Path="/5C7CA938/5DCDAA69" Ref="C213"  Part="1" 
AR Path="/5C7CA93F/5DCDAA69" Ref="C?"  Part="1" 
AR Path="/5DF8C17D/5DCDAA69" Ref="C?"  Part="1" 
AR Path="/5DF94C12/5DCDAA69" Ref="C1713"  Part="1" 
F 0 "C213" V 6450 4250 50  0000 R CNN
F 1 "0.1UF" V 6550 4400 50  0000 R CNN
F 2 "Capacitor_SMD:C_0402_1005Metric" H 6700 4300 50  0001 C CNN
F 3 "~" H 6700 4300 50  0001 C CNN
	1    6700 4300
	0    -1   -1   0   
$EndComp
Wire Wire Line
	6600 4300 6300 4300
Wire Wire Line
	6800 4300 6850 4300
Wire Wire Line
	6850 3950 6700 3950
Wire Wire Line
	6850 3950 6850 4300
Text Label 6550 3250 0    50   ~ 0
I_BUFFER_IN
$Comp
L Device:R_Small R211
U 1 1 5DCF0C11
P 5800 3250
AR Path="/5C7CA938/5DCF0C11" Ref="R211"  Part="1" 
AR Path="/5C7CA93F/5DCF0C11" Ref="R?"  Part="1" 
AR Path="/5DF8C17D/5DCF0C11" Ref="R?"  Part="1" 
AR Path="/5DF94C12/5DCF0C11" Ref="R1711"  Part="1" 
F 0 "R211" V 5604 3250 50  0000 C CNN
F 1 "0.5" V 5695 3250 50  0000 C CNN
F 2 "Capacitor_SMD:C_0805_2012Metric" H 5800 3250 50  0001 C CNN
F 3 "~" H 5800 3250 50  0001 C CNN
	1    5800 3250
	0    1    1    0   
$EndComp
$Comp
L Device:R_Small R212
U 1 1 5DCF4A04
P 5800 3400
AR Path="/5C7CA938/5DCF4A04" Ref="R212"  Part="1" 
AR Path="/5C7CA93F/5DCF4A04" Ref="R?"  Part="1" 
AR Path="/5DF8C17D/5DCF4A04" Ref="R?"  Part="1" 
AR Path="/5DF94C12/5DCF4A04" Ref="R1712"  Part="1" 
F 0 "R212" V 5700 3450 50  0000 C CNN
F 1 "0" V 5600 3450 50  0000 C CNN
F 2 "Resistor_SMD:R_0402_1005Metric" H 5800 3400 50  0001 C CNN
F 3 "~" H 5800 3400 50  0001 C CNN
	1    5800 3400
	0    -1   -1   0   
$EndComp
Wire Wire Line
	5700 3400 5650 3400
Wire Wire Line
	5650 3400 5650 3250
Wire Wire Line
	5650 3250 5700 3250
$Comp
L Device:R_Small R213
U 1 1 5DD27840
P 7000 3850
AR Path="/5C7CA938/5DD27840" Ref="R213"  Part="1" 
AR Path="/5C7CA93F/5DD27840" Ref="R?"  Part="1" 
AR Path="/5DF8C17D/5DD27840" Ref="R?"  Part="1" 
AR Path="/5DF94C12/5DD27840" Ref="R1713"  Part="1" 
F 0 "R213" V 6804 3850 50  0000 C CNN
F 1 "150" V 6895 3850 50  0000 C CNN
F 2 "Resistor_SMD:R_0402_1005Metric" H 7000 3850 50  0001 C CNN
F 3 "~" H 7000 3850 50  0001 C CNN
	1    7000 3850
	0    1    1    0   
$EndComp
Wire Wire Line
	6900 3850 6700 3850
$Comp
L Device:C_Small C214
U 1 1 5DD2BDC4
P 7200 4000
AR Path="/5C7CA938/5DD2BDC4" Ref="C214"  Part="1" 
AR Path="/5C7CA93F/5DD2BDC4" Ref="C?"  Part="1" 
AR Path="/5DF8C17D/5DD2BDC4" Ref="C?"  Part="1" 
AR Path="/5DF94C12/5DD2BDC4" Ref="C1714"  Part="1" 
F 0 "C214" H 7108 3954 50  0000 R CNN
F 1 "0.01UF" H 7108 4045 50  0000 R CNN
F 2 "Capacitor_SMD:C_0402_1005Metric" H 7200 4000 50  0001 C CNN
F 3 "~" H 7200 4000 50  0001 C CNN
	1    7200 4000
	-1   0    0    1   
$EndComp
$Comp
L Device:R_Small R214
U 1 1 5DD306A6
P 7700 4000
AR Path="/5C7CA938/5DD306A6" Ref="R214"  Part="1" 
AR Path="/5C7CA93F/5DD306A6" Ref="R?"  Part="1" 
AR Path="/5DF8C17D/5DD306A6" Ref="R?"  Part="1" 
AR Path="/5DF94C12/5DD306A6" Ref="R1714"  Part="1" 
F 0 "R214" H 7759 4046 50  0000 L CNN
F 1 "604" H 7759 3955 50  0000 L CNN
F 2 "Resistor_SMD:R_0603_1608Metric" H 7700 4000 50  0001 C CNN
F 3 "~" H 7700 4000 50  0001 C CNN
	1    7700 4000
	1    0    0    -1  
$EndComp
$Comp
L power:GND #PWR0210
U 1 1 5DD30880
P 7450 4200
AR Path="/5C7CA938/5DD30880" Ref="#PWR0210"  Part="1" 
AR Path="/5C7CA93F/5DD30880" Ref="#PWR?"  Part="1" 
AR Path="/5DF8C17D/5DD30880" Ref="#PWR?"  Part="1" 
AR Path="/5DF94C12/5DD30880" Ref="#PWR01710"  Part="1" 
F 0 "#PWR0210" H 7450 3950 50  0001 C CNN
F 1 "GND" H 7455 4027 50  0000 C CNN
F 2 "" H 7450 4200 50  0001 C CNN
F 3 "" H 7450 4200 50  0001 C CNN
	1    7450 4200
	1    0    0    -1  
$EndComp
Wire Wire Line
	7700 4100 7700 4150
Wire Wire Line
	7700 4150 7450 4150
Wire Wire Line
	7200 4150 7200 4100
Wire Wire Line
	7450 4200 7450 4150
Connection ~ 7450 4150
Wire Wire Line
	7450 4150 7200 4150
Wire Wire Line
	7100 3850 7200 3850
Wire Wire Line
	7700 3850 7700 3900
Wire Wire Line
	7200 3900 7200 3850
Connection ~ 7200 3850
Wire Wire Line
	7200 3850 7700 3850
Text HLabel 7950 3850 2    50   Input ~ 0
ISENSE
Wire Wire Line
	7950 3850 7700 3850
Connection ~ 7700 3850
$Comp
L Device:R_Small R207
U 1 1 5DD4CD14
P 5250 3400
AR Path="/5C7CA938/5DD4CD14" Ref="R207"  Part="1" 
AR Path="/5C7CA93F/5DD4CD14" Ref="R?"  Part="1" 
AR Path="/5DF8C17D/5DD4CD14" Ref="R?"  Part="1" 
AR Path="/5DF94C12/5DD4CD14" Ref="R1707"  Part="1" 
F 0 "R207" V 5054 3400 50  0000 C CNN
F 1 "150" V 5145 3400 50  0000 C CNN
F 2 "Capacitor_SMD:C_0805_2012Metric" H 5250 3400 50  0001 C CNN
F 3 "~" H 5250 3400 50  0001 C CNN
	1    5250 3400
	0    1    1    0   
$EndComp
Wire Wire Line
	5150 3400 5000 3400
Wire Wire Line
	5900 3400 6100 3400
Wire Wire Line
	6100 3400 6100 3450
Wire Wire Line
	5900 3250 6500 3250
Wire Wire Line
	6500 3250 6500 3450
Wire Wire Line
	6550 3250 6500 3250
Connection ~ 6500 3250
Wire Wire Line
	5650 3400 5400 3400
Connection ~ 5650 3400
Wire Wire Line
	5400 2350 5400 3400
Connection ~ 5400 2350
Connection ~ 5400 3400
Wire Wire Line
	5400 3400 5350 3400
Connection ~ 10100 5700
Connection ~ 9000 6000
Wire Wire Line
	9000 6000 9000 5800
Wire Wire Line
	9000 6150 9000 6000
Wire Wire Line
	10200 5700 10100 5700
Wire Wire Line
	10050 5700 10100 5700
$Comp
L Device:R_Small R206
U 1 1 5DD8CECE
P 4950 3700
AR Path="/5C7CA938/5DD8CECE" Ref="R206"  Part="1" 
AR Path="/5C7CA93F/5DD8CECE" Ref="R?"  Part="1" 
AR Path="/5DF8C17D/5DD8CECE" Ref="R?"  Part="1" 
AR Path="/5DF94C12/5DD8CECE" Ref="R1706"  Part="1" 
F 0 "R206" V 4754 3700 50  0000 C CNN
F 1 "750" V 4845 3700 50  0000 C CNN
F 2 "Resistor_SMD:R_0402_1005Metric" H 4950 3700 50  0001 C CNN
F 3 "~" H 4950 3700 50  0001 C CNN
	1    4950 3700
	0    1    1    0   
$EndComp
$Comp
L Device:R_Small R205
U 1 1 5DD8CED4
P 4600 3850
AR Path="/5C7CA938/5DD8CED4" Ref="R205"  Part="1" 
AR Path="/5C7CA93F/5DD8CED4" Ref="R?"  Part="1" 
AR Path="/5DF8C17D/5DD8CED4" Ref="R?"  Part="1" 
AR Path="/5DF94C12/5DD8CED4" Ref="R1705"  Part="1" 
F 0 "R205" V 4700 3800 50  0000 C CNN
F 1 "100" V 4800 3850 50  0000 C CNN
F 2 "Resistor_SMD:R_0402_1005Metric" H 4600 3850 50  0001 C CNN
F 3 "~" H 4600 3850 50  0001 C CNN
F 4 "not populated" V 4600 3850 50  0001 C CNN "Note"
	1    4600 3850
	0    1    1    0   
$EndComp
$Comp
L Device:C_Small C211
U 1 1 5DD8CEDA
P 5200 3850
AR Path="/5C7CA938/5DD8CEDA" Ref="C211"  Part="1" 
AR Path="/5C7CA93F/5DD8CEDA" Ref="C?"  Part="1" 
AR Path="/5DF8C17D/5DD8CEDA" Ref="C?"  Part="1" 
AR Path="/5DF94C12/5DD8CEDA" Ref="C1711"  Part="1" 
F 0 "C211" V 5050 3800 50  0000 C CNN
F 1 "33pf" V 4950 3850 50  0000 C CNN
F 2 "Capacitor_SMD:C_0402_1005Metric" H 5200 3850 50  0001 C CNN
F 3 "~" H 5200 3850 50  0001 C CNN
F 4 "not populated" V 5200 3850 50  0001 C CNN "Note"
	1    5200 3850
	0    1    -1   0   
$EndComp
Wire Wire Line
	5400 3400 5400 3700
Wire Wire Line
	5400 3850 5300 3850
Wire Wire Line
	5100 3850 4700 3850
Wire Wire Line
	5050 3700 5400 3700
Connection ~ 5400 3700
Wire Wire Line
	5400 3700 5400 3850
Wire Wire Line
	4850 3700 4350 3700
Wire Wire Line
	4350 3700 4350 3500
Wire Wire Line
	4350 3500 4400 3500
Wire Wire Line
	4500 3850 4350 3850
Wire Wire Line
	4350 3850 4350 3700
Connection ~ 4350 3700
$Comp
L Device:R_Small R204
U 1 1 5DDF8381
P 4150 3500
AR Path="/5C7CA938/5DDF8381" Ref="R204"  Part="1" 
AR Path="/5C7CA93F/5DDF8381" Ref="R?"  Part="1" 
AR Path="/5DF8C17D/5DDF8381" Ref="R?"  Part="1" 
AR Path="/5DF94C12/5DDF8381" Ref="R1704"  Part="1" 
F 0 "R204" V 4050 3550 50  0000 C CNN
F 1 "750" V 3950 3550 50  0000 C CNN
F 2 "Resistor_SMD:R_0402_1005Metric" H 4150 3500 50  0001 C CNN
F 3 "~" H 4150 3500 50  0001 C CNN
	1    4150 3500
	0    -1   -1   0   
$EndComp
Wire Wire Line
	4250 3500 4350 3500
Connection ~ 4350 3500
Wire Wire Line
	3550 3300 4400 3300
$Comp
L Device:C_Small C204
U 1 1 5DE134DF
P 3900 3650
AR Path="/5C7CA938/5DE134DF" Ref="C204"  Part="1" 
AR Path="/5C7CA93F/5DE134DF" Ref="C?"  Part="1" 
AR Path="/5DF8C17D/5DE134DF" Ref="C?"  Part="1" 
AR Path="/5DF94C12/5DE134DF" Ref="C1704"  Part="1" 
F 0 "C204" H 3700 3600 50  0000 R CNN
F 1 "0.1UF" H 3808 3695 50  0000 R CNN
F 2 "Capacitor_SMD:C_0402_1005Metric" H 3900 3650 50  0001 C CNN
F 3 "~" H 3900 3650 50  0001 C CNN
	1    3900 3650
	1    0    0    1   
$EndComp
Wire Wire Line
	4050 3500 3900 3500
Wire Wire Line
	3900 3500 3900 3550
$Comp
L power:GND #PWR0204
U 1 1 5DE1A8C8
P 3900 3800
AR Path="/5C7CA938/5DE1A8C8" Ref="#PWR0204"  Part="1" 
AR Path="/5C7CA93F/5DE1A8C8" Ref="#PWR?"  Part="1" 
AR Path="/5DF8C17D/5DE1A8C8" Ref="#PWR?"  Part="1" 
AR Path="/5DF94C12/5DE1A8C8" Ref="#PWR01704"  Part="1" 
F 0 "#PWR0204" H 3900 3550 50  0001 C CNN
F 1 "GND" H 3905 3627 50  0000 C CNN
F 2 "" H 3900 3800 50  0001 C CNN
F 3 "" H 3900 3800 50  0001 C CNN
	1    3900 3800
	1    0    0    -1  
$EndComp
Wire Wire Line
	3900 3800 3900 3750
Text HLabel 3550 3500 0    50   Input ~ 0
2V5
Wire Wire Line
	3550 3500 3900 3500
Connection ~ 3900 3500
Text HLabel 2900 3200 0    50   Input ~ 0
VSETPOINT
Wire Wire Line
	2900 3200 2950 3200
Wire Wire Line
	2350 3400 2950 3400
$Comp
L power:GND #PWR0202
U 1 1 5DE4E5DB
P 2100 4150
AR Path="/5C7CA938/5DE4E5DB" Ref="#PWR0202"  Part="1" 
AR Path="/5C7CA93F/5DE4E5DB" Ref="#PWR?"  Part="1" 
AR Path="/5DF8C17D/5DE4E5DB" Ref="#PWR?"  Part="1" 
AR Path="/5DF94C12/5DE4E5DB" Ref="#PWR01702"  Part="1" 
F 0 "#PWR0202" H 2100 3900 50  0001 C CNN
F 1 "GND" H 2105 3977 50  0000 C CNN
F 2 "" H 2100 4150 50  0001 C CNN
F 3 "" H 2100 4150 50  0001 C CNN
	1    2100 4150
	1    0    0    -1  
$EndComp
Wire Wire Line
	2100 4150 2100 4100
Text HLabel 2000 2950 0    50   Input ~ 0
5V0
Wire Wire Line
	2000 2950 2100 2950
Wire Wire Line
	2100 2950 2100 3050
Text HLabel 5500 5850 2    50   Input ~ 0
2V5
Text HLabel 1950 7250 0    50   Input ~ 0
6V0
Text HLabel 2850 7250 2    50   Input ~ 0
-1V0
Wire Wire Line
	2050 6800 2050 7250
$Comp
L Device:C_Small C203
U 1 1 5DE664FF
P 2400 7350
AR Path="/5C7CA938/5DE664FF" Ref="C203"  Part="1" 
AR Path="/5C7CA93F/5DE664FF" Ref="C?"  Part="1" 
AR Path="/5DF8C17D/5DE664FF" Ref="C?"  Part="1" 
AR Path="/5DF94C12/5DE664FF" Ref="C1703"  Part="1" 
F 0 "C203" V 2150 7450 50  0000 R CNN
F 1 "10UF" V 2250 7450 50  0000 R CNN
F 2 "Capacitor_SMD:C_0805_2012Metric" H 2400 7350 50  0001 C CNN
F 3 "~" H 2400 7350 50  0001 C CNN
	1    2400 7350
	0    -1   -1   0   
$EndComp
$Comp
L Device:C_Small C202
U 1 1 5DE66505
P 2400 7150
AR Path="/5C7CA938/5DE66505" Ref="C202"  Part="1" 
AR Path="/5C7CA93F/5DE66505" Ref="C?"  Part="1" 
AR Path="/5DF8C17D/5DE66505" Ref="C?"  Part="1" 
AR Path="/5DF94C12/5DE66505" Ref="C1702"  Part="1" 
F 0 "C202" V 2250 7250 50  0000 R CNN
F 1 "0.1UF" V 2150 7250 50  0000 R CNN
F 2 "Capacitor_SMD:C_0402_1005Metric" H 2400 7150 50  0001 C CNN
F 3 "~" H 2400 7150 50  0001 C CNN
	1    2400 7150
	0    -1   1    0   
$EndComp
Wire Wire Line
	2500 7150 2550 7150
Wire Wire Line
	2550 7150 2550 7250
Wire Wire Line
	2550 7350 2500 7350
Wire Wire Line
	2300 7350 2250 7350
Wire Wire Line
	2250 7350 2250 7250
Wire Wire Line
	2250 7150 2300 7150
Wire Wire Line
	2250 7250 2050 7250
Connection ~ 2250 7250
Wire Wire Line
	2250 7250 2250 7150
Connection ~ 2050 7250
Wire Wire Line
	2550 7250 2750 7250
Connection ~ 2550 7250
Wire Wire Line
	2550 7250 2550 7350
Connection ~ 2750 7250
Wire Wire Line
	2750 7250 2750 6800
Wire Wire Line
	2850 7250 2750 7250
Wire Wire Line
	1950 7250 2050 7250
Wire Wire Line
	2050 6800 2100 6800
Wire Wire Line
	2750 6800 2700 6800
Text Label 3000 6450 0    50   ~ 0
V_BUFFER_IN
$Comp
L Device:R_Small R203
U 1 1 5DE91B08
P 2900 6650
AR Path="/5C7CA938/5DE91B08" Ref="R203"  Part="1" 
AR Path="/5C7CA93F/5DE91B08" Ref="R?"  Part="1" 
AR Path="/5DF8C17D/5DE91B08" Ref="R?"  Part="1" 
AR Path="/5DF94C12/5DE91B08" Ref="R1703"  Part="1" 
F 0 "R203" H 2959 6696 50  0000 L CNN
F 1 "1MEG" H 2959 6605 50  0000 L CNN
F 2 "Resistor_SMD:R_0603_1608Metric" H 2900 6650 50  0001 C CNN
F 3 "~" H 2900 6650 50  0001 C CNN
	1    2900 6650
	1    0    0    -1  
$EndComp
Wire Wire Line
	3000 6450 2900 6450
Wire Wire Line
	2900 6550 2900 6450
Connection ~ 2900 6450
Wire Wire Line
	2900 6450 2800 6450
$Comp
L power:GND #PWR0203
U 1 1 5DECE097
P 2900 6800
AR Path="/5C7CA938/5DECE097" Ref="#PWR0203"  Part="1" 
AR Path="/5C7CA93F/5DECE097" Ref="#PWR?"  Part="1" 
AR Path="/5DF8C17D/5DECE097" Ref="#PWR?"  Part="1" 
AR Path="/5DF94C12/5DECE097" Ref="#PWR01703"  Part="1" 
F 0 "#PWR0203" H 2900 6550 50  0001 C CNN
F 1 "GND" H 2905 6627 50  0000 C CNN
F 2 "" H 2900 6800 50  0001 C CNN
F 3 "" H 2900 6800 50  0001 C CNN
	1    2900 6800
	1    0    0    -1  
$EndComp
Wire Wire Line
	2900 6800 2900 6750
$Comp
L Device:R_Small R202
U 1 1 5DEDBEAB
P 2000 6350
AR Path="/5C7CA938/5DEDBEAB" Ref="R202"  Part="1" 
AR Path="/5C7CA93F/5DEDBEAB" Ref="R?"  Part="1" 
AR Path="/5DF8C17D/5DEDBEAB" Ref="R?"  Part="1" 
AR Path="/5DF94C12/5DEDBEAB" Ref="R1702"  Part="1" 
F 0 "R202" V 1804 6350 50  0000 C CNN
F 1 "150" V 1895 6350 50  0000 C CNN
F 2 "Resistor_SMD:R_0402_1005Metric" H 2000 6350 50  0001 C CNN
F 3 "~" H 2000 6350 50  0001 C CNN
	1    2000 6350
	0    -1   1    0   
$EndComp
$Comp
L Device:C_Small C201
U 1 1 5DEDBEB1
P 1800 6500
AR Path="/5C7CA938/5DEDBEB1" Ref="C201"  Part="1" 
AR Path="/5C7CA93F/5DEDBEB1" Ref="C?"  Part="1" 
AR Path="/5DF8C17D/5DEDBEB1" Ref="C?"  Part="1" 
AR Path="/5DF94C12/5DEDBEB1" Ref="C1701"  Part="1" 
F 0 "C201" H 1708 6454 50  0000 R CNN
F 1 "0.01UF" H 1708 6545 50  0000 R CNN
F 2 "Capacitor_SMD:C_0402_1005Metric" H 1800 6500 50  0001 C CNN
F 3 "~" H 1800 6500 50  0001 C CNN
	1    1800 6500
	1    0    0    1   
$EndComp
$Comp
L Device:R_Small R201
U 1 1 5DEDBEB7
P 1300 6500
AR Path="/5C7CA938/5DEDBEB7" Ref="R201"  Part="1" 
AR Path="/5C7CA93F/5DEDBEB7" Ref="R?"  Part="1" 
AR Path="/5DF8C17D/5DEDBEB7" Ref="R?"  Part="1" 
AR Path="/5DF94C12/5DEDBEB7" Ref="R1701"  Part="1" 
F 0 "R201" H 1359 6546 50  0000 L CNN
F 1 "604" H 1359 6455 50  0000 L CNN
F 2 "Resistor_SMD:R_0603_1608Metric" H 1300 6500 50  0001 C CNN
F 3 "~" H 1300 6500 50  0001 C CNN
F 4 "DNI" H 1300 6500 50  0001 C CNN "Note"
	1    1300 6500
	-1   0    0    -1  
$EndComp
$Comp
L power:GND #PWR0201
U 1 1 5DEDBEBD
P 1550 6700
AR Path="/5C7CA938/5DEDBEBD" Ref="#PWR0201"  Part="1" 
AR Path="/5C7CA93F/5DEDBEBD" Ref="#PWR?"  Part="1" 
AR Path="/5DF8C17D/5DEDBEBD" Ref="#PWR?"  Part="1" 
AR Path="/5DF94C12/5DEDBEBD" Ref="#PWR01701"  Part="1" 
F 0 "#PWR0201" H 1550 6450 50  0001 C CNN
F 1 "GND" H 1555 6527 50  0000 C CNN
F 2 "" H 1550 6700 50  0001 C CNN
F 3 "" H 1550 6700 50  0001 C CNN
	1    1550 6700
	-1   0    0    -1  
$EndComp
Wire Wire Line
	1300 6600 1300 6650
Wire Wire Line
	1300 6650 1550 6650
Wire Wire Line
	1800 6650 1800 6600
Wire Wire Line
	1550 6700 1550 6650
Connection ~ 1550 6650
Wire Wire Line
	1550 6650 1800 6650
Wire Wire Line
	1900 6350 1800 6350
Wire Wire Line
	1300 6350 1300 6400
Wire Wire Line
	1800 6400 1800 6350
Connection ~ 1800 6350
Wire Wire Line
	1800 6350 1300 6350
Wire Wire Line
	1050 6350 1300 6350
Connection ~ 1300 6350
Wire Wire Line
	2200 6350 2150 6350
Text HLabel 1050 6350 0    50   Input ~ 0
VSENSE
Wire Wire Line
	2800 6250 2850 6250
Wire Wire Line
	2850 6250 2850 6050
Wire Wire Line
	2850 6050 2150 6050
Wire Wire Line
	2150 6050 2150 6350
Connection ~ 2150 6350
Wire Wire Line
	2150 6350 2100 6350
Wire Wire Line
	4350 6350 4400 6350
Wire Wire Line
	4350 6100 4400 6100
Wire Wire Line
	4350 6600 4400 6600
Text Label 1800 3300 2    50   ~ 0
POT_COM
Wire Wire Line
	1800 3500 1850 3500
Wire Wire Line
	1850 3300 1800 3300
Wire Wire Line
	5450 2050 5400 2050
Connection ~ 5400 2050
Wire Wire Line
	5400 2050 5400 1950
Text Label 1800 3500 2    50   ~ 0
V_BUFFER_IN
Text Label 5450 2050 0    50   ~ 0
POT_COM
Text HLabel 6950 4300 2    50   Input ~ 0
2V5
Wire Wire Line
	6950 4300 6850 4300
Connection ~ 6850 4300
$EndSCHEMATC
