EESchema Schematic File Version 4
LIBS:usb-smu-cache
EELAYER 26 0
EELAYER END
$Descr A4 11693 8268
encoding utf-8
Sheet 3 17
Title ""
Date ""
Rev ""
Comp ""
Comment1 ""
Comment2 ""
Comment3 ""
Comment4 ""
$EndDescr
Text HLabel 5250 2600 0    50   Input ~ 0
SCK0
Text HLabel 5250 3000 0    50   Input ~ 0
~SYNC
Text HLabel 5250 2700 0    50   Input ~ 0
TX0
Text HLabel 5250 2900 0    50   Input ~ 0
~LDAC
Text HLabel 5250 2800 0    50   Input ~ 0
~CLR
Text HLabel 6750 2550 2    50   Input ~ 0
VSETPOINT-A
Text HLabel 6750 2850 2    50   Input ~ 0
VSETPOINT-B
$Sheet
S 5300 3300 950  800 
U 5DBAA221
F0 "ADC1" 50
F1 "ADC.sch" 50
F2 "VSENSE-A" I R 6250 3450 50 
F3 "VSENSE-B" I R 6250 3600 50 
F4 "ISENSE-A" I R 6250 3800 50 
F5 "ISENSE-B" I R 6250 3950 50 
F6 "SCK" I L 5300 3550 50 
F7 "TX" I L 5300 3700 50 
F8 "CNV" I L 5300 4000 50 
F9 "RX" I L 5300 3850 50 
F10 "5V0" I L 5300 3400 50 
$EndSheet
Text HLabel 5250 3550 0    50   Input ~ 0
SCK1
Text HLabel 5250 3700 0    50   Input ~ 0
TX1
Text HLabel 5250 3850 0    50   Input ~ 0
RX1
Text HLabel 5250 4000 0    50   Input ~ 0
CNV
Wire Wire Line
	5250 3550 5300 3550
Wire Wire Line
	5250 3700 5300 3700
Wire Wire Line
	5300 3850 5250 3850
Wire Wire Line
	5250 4000 5300 4000
$Sheet
S 5300 2400 950  700 
U 5DBB78BB
F0 "DAC" 50
F1 "DAC.sch" 50
F2 "~SYNC" I L 5300 3000 50 
F3 "~LDAC" I L 5300 2900 50 
F4 "~CLR" I L 5300 2800 50 
F5 "VSETPOINT-A" I R 6250 2550 50 
F6 "VSETPOINT-B" I R 6250 2850 50 
F7 "SCK" I L 5300 2600 50 
F8 "TX" I L 5300 2700 50 
F9 "5V0" I L 5300 2500 50 
$EndSheet
Wire Wire Line
	6750 2850 6250 2850
Wire Wire Line
	6250 2550 6750 2550
Wire Wire Line
	5250 2600 5300 2600
Wire Wire Line
	5300 2700 5250 2700
Wire Wire Line
	5250 2800 5300 2800
Wire Wire Line
	5250 2900 5300 2900
Wire Wire Line
	5250 3000 5300 3000
Wire Wire Line
	6250 3450 6350 3450
Wire Wire Line
	6350 3450 6350 4450
Wire Wire Line
	6350 4450 6250 4450
Wire Wire Line
	6250 3600 6450 3600
Wire Wire Line
	6450 3600 6450 4600
Wire Wire Line
	6450 4600 6250 4600
Wire Wire Line
	6250 3800 6550 3800
Wire Wire Line
	6550 3800 6550 4800
Wire Wire Line
	6550 4800 6250 4800
Wire Wire Line
	6250 3950 6650 3950
Wire Wire Line
	6650 3950 6650 4950
Wire Wire Line
	6650 4950 6250 4950
Text HLabel 6750 3450 2    50   Input ~ 0
VSENSE-A
Text HLabel 6750 3600 2    50   Input ~ 0
VSENSE-B
Text HLabel 6750 3800 2    50   Input ~ 0
ISENSE-A
Text HLabel 6750 3950 2    50   Input ~ 0
ISENSE-B
Wire Wire Line
	6750 3950 6650 3950
Connection ~ 6650 3950
Wire Wire Line
	6750 3800 6550 3800
Connection ~ 6550 3800
Wire Wire Line
	6750 3600 6450 3600
Connection ~ 6450 3600
Wire Wire Line
	6750 3450 6350 3450
Connection ~ 6350 3450
Text HLabel 5250 2500 0    50   Input ~ 0
5V0
Wire Wire Line
	5300 2500 5250 2500
Text HLabel 5250 3400 0    50   Input ~ 0
5V0
Wire Wire Line
	5250 3400 5300 3400
$Sheet
S 5300 4300 950  800 
U 5E22697A
F0 "ADC2" 50
F1 "ADC.sch" 50
F2 "VSENSE-A" I R 6250 4450 50 
F3 "VSENSE-B" I R 6250 4600 50 
F4 "ISENSE-A" I R 6250 4800 50 
F5 "ISENSE-B" I R 6250 4950 50 
F6 "SCK" I L 5300 4550 50 
F7 "TX" I L 5300 4700 50 
F8 "CNV" I L 5300 5000 50 
F9 "RX" I L 5300 4850 50 
F10 "5V0" I L 5300 4400 50 
$EndSheet
Text HLabel 5250 4550 0    50   Input ~ 0
SCK2
Text HLabel 5250 4700 0    50   Input ~ 0
TX2
Text HLabel 5250 4850 0    50   Input ~ 0
RX2
Text HLabel 5250 5000 0    50   Input ~ 0
CNV
Wire Wire Line
	5250 4550 5300 4550
Wire Wire Line
	5250 4700 5300 4700
Wire Wire Line
	5300 4850 5250 4850
Wire Wire Line
	5250 5000 5300 5000
Text HLabel 5250 4400 0    50   Input ~ 0
5V0
Wire Wire Line
	5250 4400 5300 4400
$EndSCHEMATC
