EESchema Schematic File Version 4
LIBS:usb-smu-cache
EELAYER 26 0
EELAYER END
$Descr A4 11693 8268
encoding utf-8
Sheet 5 17
Title ""
Date ""
Rev ""
Comp ""
Comment1 ""
Comment2 ""
Comment3 ""
Comment4 ""
$EndDescr
$Comp
L usb-smu:AD5663 U?
U 1 1 5DBB7B70
P 4800 3600
AR Path="/5C7CA958/5DBB7B70" Ref="U?"  Part="1" 
AR Path="/5C7CA958/5DBB78BB/5DBB7B70" Ref="U501"  Part="1" 
F 0 "U501" H 4300 4200 50  0000 C CNN
F 1 "AD5663RBRMZ" H 4450 4100 50  0000 C CNN
F 2 "Package_SO:MSOP-10_3x3mm_P0.5mm" H 4800 3600 50  0001 C CNN
F 3 "https://www.analog.com/media/en/technical-documentation/data-sheets/AD5663.pdf" H 4800 3600 50  0001 C CNN
	1    4800 3600
	1    0    0    -1  
$EndComp
Text HLabel 3700 3250 0    50   Input ~ 0
SCK
Text HLabel 4300 3350 0    50   Input ~ 0
~SYNC
Text HLabel 3700 3450 0    50   Input ~ 0
TX
Text HLabel 4300 3650 0    50   Input ~ 0
~LDAC
Text HLabel 4300 3750 0    50   Input ~ 0
~CLR
$Comp
L Device:R_Small R?
U 1 1 5DBB7B7C
P 3900 3250
AR Path="/5C7CA958/5DBB7B7C" Ref="R?"  Part="1" 
AR Path="/5C7CA958/5DBB78BB/5DBB7B7C" Ref="R501"  Part="1" 
F 0 "R501" V 3700 3200 50  0000 C CNN
F 1 "33" V 3795 3250 50  0000 C CNN
F 2 "Resistor_SMD:R_0402_1005Metric" H 3900 3250 50  0001 C CNN
F 3 "~" H 3900 3250 50  0001 C CNN
	1    3900 3250
	0    1    1    0   
$EndComp
$Comp
L Device:R_Small R?
U 1 1 5DBB7B83
P 3900 3450
AR Path="/5C7CA958/5DBB7B83" Ref="R?"  Part="1" 
AR Path="/5C7CA958/5DBB78BB/5DBB7B83" Ref="R502"  Part="1" 
F 0 "R502" V 4100 3350 50  0000 C CNN
F 1 "33" V 4000 3450 50  0000 C CNN
F 2 "Resistor_SMD:R_0402_1005Metric" H 3900 3450 50  0001 C CNN
F 3 "~" H 3900 3450 50  0001 C CNN
	1    3900 3450
	0    1    1    0   
$EndComp
Wire Wire Line
	3700 3450 3800 3450
Wire Wire Line
	3700 3250 3800 3250
Wire Wire Line
	4000 3250 4400 3250
Wire Wire Line
	4000 3450 4400 3450
Wire Wire Line
	4300 3350 4400 3350
Wire Wire Line
	4400 3650 4300 3650
Wire Wire Line
	4300 3750 4400 3750
$Comp
L power:GND #PWR?
U 1 1 5DBB7B91
P 4850 4250
AR Path="/5C7CA958/5DBB7B91" Ref="#PWR?"  Part="1" 
AR Path="/5C7CA958/5DBB78BB/5DBB7B91" Ref="#PWR0501"  Part="1" 
F 0 "#PWR0501" H 4850 4000 50  0001 C CNN
F 1 "GND" H 4855 4077 50  0000 C CNN
F 2 "" H 4850 4250 50  0001 C CNN
F 3 "" H 4850 4250 50  0001 C CNN
	1    4850 4250
	1    0    0    -1  
$EndComp
Wire Wire Line
	4850 4200 4850 4150
$Comp
L Device:C_Small C?
U 1 1 5DBB7B98
P 5250 3100
AR Path="/5C7CA958/5DBB7B98" Ref="C?"  Part="1" 
AR Path="/5C7CA958/5DBB78BB/5DBB7B98" Ref="C501"  Part="1" 
F 0 "C501" H 5342 3146 50  0000 L CNN
F 1 "0.1UF" H 5342 3055 50  0000 L CNN
F 2 "Capacitor_SMD:C_0402_1005Metric" H 5250 3100 50  0001 C CNN
F 3 "~" H 5250 3100 50  0001 C CNN
	1    5250 3100
	1    0    0    -1  
$EndComp
$Comp
L power:GND #PWR?
U 1 1 5DBB7B9F
P 6100 3300
AR Path="/5C7CA958/5DBB7B9F" Ref="#PWR?"  Part="1" 
AR Path="/5C7CA958/5DBB78BB/5DBB7B9F" Ref="#PWR0502"  Part="1" 
F 0 "#PWR0502" H 6100 3050 50  0001 C CNN
F 1 "GND" H 6105 3127 50  0000 C CNN
F 2 "" H 6100 3300 50  0001 C CNN
F 3 "" H 6100 3300 50  0001 C CNN
	1    6100 3300
	1    0    0    -1  
$EndComp
Wire Wire Line
	5000 3000 5000 3050
$Comp
L Device:C_Small C?
U 1 1 5DBB7BA6
P 5700 3100
AR Path="/5C7CA958/5DBB7BA6" Ref="C?"  Part="1" 
AR Path="/5C7CA958/5DBB78BB/5DBB7BA6" Ref="C503"  Part="1" 
F 0 "C503" H 5792 3146 50  0000 L CNN
F 1 "0.1UF" H 5792 3055 50  0000 L CNN
F 2 "Capacitor_SMD:C_0402_1005Metric" H 5700 3100 50  0001 C CNN
F 3 "~" H 5700 3100 50  0001 C CNN
	1    5700 3100
	1    0    0    -1  
$EndComp
$Comp
L Device:C_Small C?
U 1 1 5DBB7BAD
P 6100 3100
AR Path="/5C7CA958/5DBB7BAD" Ref="C?"  Part="1" 
AR Path="/5C7CA958/5DBB78BB/5DBB7BAD" Ref="C505"  Part="1" 
F 0 "C505" H 6192 3146 50  0000 L CNN
F 1 "10UF" H 6192 3055 50  0000 L CNN
F 2 "Capacitor_SMD:C_0805_2012Metric" H 6100 3100 50  0001 C CNN
F 3 "~" H 6100 3100 50  0001 C CNN
	1    6100 3100
	1    0    0    -1  
$EndComp
Wire Wire Line
	6100 3200 6100 3250
Wire Wire Line
	6100 3250 5700 3250
Wire Wire Line
	5250 3250 5250 3200
Wire Wire Line
	5700 3200 5700 3250
Connection ~ 5700 3250
Wire Wire Line
	5700 3250 5250 3250
Wire Wire Line
	6100 3000 6100 2950
Wire Wire Line
	6100 2950 5700 2950
Wire Wire Line
	5700 2950 5700 3000
Wire Wire Line
	5250 3000 5000 3000
Wire Wire Line
	4850 3050 4850 2950
Wire Wire Line
	4850 2950 5700 2950
Connection ~ 5700 2950
$Comp
L Device:R_Small R?
U 1 1 5DBB7BC9
P 5350 3550
AR Path="/5C7CA958/5DBB7BC9" Ref="R?"  Part="1" 
AR Path="/5C7CA958/5DBB78BB/5DBB7BC9" Ref="R503"  Part="1" 
F 0 "R503" V 5150 3500 50  0000 C CNN
F 1 "150" V 5245 3550 50  0000 C CNN
F 2 "Resistor_SMD:R_0402_1005Metric" H 5350 3550 50  0001 C CNN
F 3 "~" H 5350 3550 50  0001 C CNN
	1    5350 3550
	0    1    1    0   
$EndComp
$Comp
L Device:R_Small R?
U 1 1 5DBB7BD0
P 6300 3550
AR Path="/5C7CA958/5DBB7BD0" Ref="R?"  Part="1" 
AR Path="/5C7CA958/5DBB78BB/5DBB7BD0" Ref="R505"  Part="1" 
F 0 "R505" V 6100 3600 50  0000 C CNN
F 1 "150" V 6195 3550 50  0000 C CNN
F 2 "Resistor_SMD:R_0402_1005Metric" H 6300 3550 50  0001 C CNN
F 3 "~" H 6300 3550 50  0001 C CNN
	1    6300 3550
	0    1    1    0   
$EndComp
$Comp
L Device:R_Small R?
U 1 1 5DBB7BD7
P 5350 3750
AR Path="/5C7CA958/5DBB7BD7" Ref="R?"  Part="1" 
AR Path="/5C7CA958/5DBB78BB/5DBB7BD7" Ref="R504"  Part="1" 
F 0 "R504" V 5150 3700 50  0000 C CNN
F 1 "150" V 5245 3750 50  0000 C CNN
F 2 "Resistor_SMD:R_0402_1005Metric" H 5350 3750 50  0001 C CNN
F 3 "~" H 5350 3750 50  0001 C CNN
	1    5350 3750
	0    1    -1   0   
$EndComp
$Comp
L Device:R_Small R?
U 1 1 5DBB7BDE
P 6300 3750
AR Path="/5C7CA958/5DBB7BDE" Ref="R?"  Part="1" 
AR Path="/5C7CA958/5DBB78BB/5DBB7BDE" Ref="R506"  Part="1" 
F 0 "R506" V 6200 3750 50  0000 C CNN
F 1 "150" V 6100 3800 50  0000 C CNN
F 2 "Resistor_SMD:R_0402_1005Metric" H 6300 3750 50  0001 C CNN
F 3 "~" H 6300 3750 50  0001 C CNN
	1    6300 3750
	0    1    -1   0   
$EndComp
Wire Wire Line
	5200 3550 5250 3550
Wire Wire Line
	5250 3750 5200 3750
Text HLabel 7050 3550 2    50   Input ~ 0
VSETPOINT-A
Text HLabel 7050 3750 2    50   Input ~ 0
VSETPOINT-B
$Comp
L Device:C_Small C?
U 1 1 5DBB7BE9
P 6550 3900
AR Path="/5C7CA958/5DBB7BE9" Ref="C?"  Part="1" 
AR Path="/5C7CA958/5DBB78BB/5DBB7BE9" Ref="C506"  Part="1" 
F 0 "C506" H 6642 3946 50  0000 L CNN
F 1 "0.01UF" H 6642 3855 50  0000 L CNN
F 2 "Capacitor_SMD:C_0402_1005Metric" H 6550 3900 50  0001 C CNN
F 3 "~" H 6550 3900 50  0001 C CNN
	1    6550 3900
	1    0    0    -1  
$EndComp
$Comp
L Device:C_Small C?
U 1 1 5DBB7BF0
P 6950 4050
AR Path="/5C7CA958/5DBB7BF0" Ref="C?"  Part="1" 
AR Path="/5C7CA958/5DBB78BB/5DBB7BF0" Ref="C507"  Part="1" 
F 0 "C507" H 7042 4096 50  0000 L CNN
F 1 "0.01UF" H 7042 4005 50  0000 L CNN
F 2 "Capacitor_SMD:C_0402_1005Metric" H 6950 4050 50  0001 C CNN
F 3 "~" H 6950 4050 50  0001 C CNN
	1    6950 4050
	1    0    0    -1  
$EndComp
Wire Wire Line
	7050 3750 6950 3750
Wire Wire Line
	6950 3750 6950 3950
Wire Wire Line
	7050 3550 6550 3550
Wire Wire Line
	6550 3550 6550 3800
Wire Wire Line
	6950 4150 6950 4200
Wire Wire Line
	6950 4200 6550 4200
Wire Wire Line
	6550 4200 6550 4000
$Comp
L Device:C_Small C?
U 1 1 5DBB7BFE
P 5550 3900
AR Path="/5C7CA958/5DBB7BFE" Ref="C?"  Part="1" 
AR Path="/5C7CA958/5DBB78BB/5DBB7BFE" Ref="C502"  Part="1" 
F 0 "C502" H 5642 3946 50  0000 L CNN
F 1 "0.01UF" H 5642 3855 50  0000 L CNN
F 2 "Capacitor_SMD:C_0402_1005Metric" H 5550 3900 50  0001 C CNN
F 3 "~" H 5550 3900 50  0001 C CNN
	1    5550 3900
	1    0    0    -1  
$EndComp
$Comp
L Device:C_Small C?
U 1 1 5DBB7C05
P 5950 4050
AR Path="/5C7CA958/5DBB7C05" Ref="C?"  Part="1" 
AR Path="/5C7CA958/5DBB78BB/5DBB7C05" Ref="C504"  Part="1" 
F 0 "C504" H 6042 4096 50  0000 L CNN
F 1 "0.01UF" H 6042 4005 50  0000 L CNN
F 2 "Capacitor_SMD:C_0402_1005Metric" H 5950 4050 50  0001 C CNN
F 3 "~" H 5950 4050 50  0001 C CNN
	1    5950 4050
	1    0    0    -1  
$EndComp
Wire Wire Line
	6550 4200 5950 4200
Wire Wire Line
	5550 4200 5550 4000
Connection ~ 6550 4200
Wire Wire Line
	5950 4150 5950 4200
Connection ~ 5950 4200
Wire Wire Line
	5950 4200 5550 4200
Wire Wire Line
	5450 3750 5950 3750
Wire Wire Line
	5950 3950 5950 3750
Connection ~ 5950 3750
Wire Wire Line
	5950 3750 6200 3750
Wire Wire Line
	6400 3750 6950 3750
Connection ~ 6950 3750
Wire Wire Line
	6550 3550 6400 3550
Connection ~ 6550 3550
Wire Wire Line
	6200 3550 5550 3550
Wire Wire Line
	5550 3800 5550 3550
Connection ~ 5550 3550
Wire Wire Line
	5550 3550 5450 3550
Wire Wire Line
	6100 3300 6100 3250
Connection ~ 6100 3250
Wire Wire Line
	5550 4200 4850 4200
Connection ~ 5550 4200
Wire Wire Line
	4850 4250 4850 4200
Connection ~ 4850 4200
Text HLabel 4800 2950 0    50   Input ~ 0
5V0
Wire Wire Line
	4850 2950 4800 2950
Connection ~ 4850 2950
$EndSCHEMATC
