EESchema Schematic File Version 4
LIBS:usb-smu-cache
EELAYER 26 0
EELAYER END
$Descr A4 11693 8268
encoding utf-8
Sheet 15 17
Title ""
Date ""
Rev ""
Comp ""
Comment1 ""
Comment2 ""
Comment3 ""
Comment4 ""
$EndDescr
$Comp
L Diode:BAT54ADW D?
U 1 1 5C7EB017
P 5050 7100
AR Path="/5C7CC7F8/5C7EB017" Ref="D?"  Part="1" 
AR Path="/5C7CA967/5C7EB017" Ref="D1502"  Part="1" 
F 0 "D1502" H 5050 7315 50  0000 C CNN
F 1 "BAT54ADW" H 5050 7224 50  0000 C CNN
F 2 "Package_TO_SOT_SMD:SOT-363_SC-70-6" H 5050 6925 50  0001 C CNN
F 3 "http://www.diodes.com/datasheets/ds30152.pdf" H 5050 7200 50  0001 C CNN
	1    5050 7100
	1    0    0    -1  
$EndComp
$Comp
L Diode:BAT54ADW D?
U 2 1 5C7EB01E
P 5550 7100
AR Path="/5C7CC7F8/5C7EB01E" Ref="D?"  Part="2" 
AR Path="/5C7CA967/5C7EB01E" Ref="D1502"  Part="2" 
F 0 "D1502" H 5550 6875 50  0000 C CNN
F 1 "BAT54ADW" H 5550 6966 50  0000 C CNN
F 2 "Package_TO_SOT_SMD:SOT-363_SC-70-6" H 5550 6925 50  0001 C CNN
F 3 "http://www.diodes.com/datasheets/ds30152.pdf" H 5550 7200 50  0001 C CNN
	2    5550 7100
	-1   0    0    1   
$EndComp
$Comp
L Diode:BAT54ADW D?
U 3 1 5C7EB025
P 5050 7300
AR Path="/5C7CC7F8/5C7EB025" Ref="D?"  Part="3" 
AR Path="/5C7CA967/5C7EB025" Ref="D1502"  Part="3" 
F 0 "D1502" H 5050 7100 50  0000 C CNN
F 1 "BAT54ADW" H 5050 7200 50  0000 C CNN
F 2 "Package_TO_SOT_SMD:SOT-363_SC-70-6" H 5050 7125 50  0001 C CNN
F 3 "http://www.diodes.com/datasheets/ds30152.pdf" H 5050 7400 50  0001 C CNN
	3    5050 7300
	1    0    0    -1  
$EndComp
$Comp
L Diode:BAT54ADW D?
U 4 1 5C7EB02C
P 5550 7300
AR Path="/5C7CC7F8/5C7EB02C" Ref="D?"  Part="4" 
AR Path="/5C7CA967/5C7EB02C" Ref="D1502"  Part="4" 
F 0 "D1502" H 5550 7500 50  0000 C CNN
F 1 "BAT54ADW" H 5550 7400 50  0000 C CNN
F 2 "Package_TO_SOT_SMD:SOT-363_SC-70-6" H 5550 7125 50  0001 C CNN
F 3 "http://www.diodes.com/datasheets/ds30152.pdf" H 5550 7400 50  0001 C CNN
	4    5550 7300
	-1   0    0    1   
$EndComp
Wire Wire Line
	5700 7100 5750 7100
Wire Wire Line
	5750 7100 5750 7200
Wire Wire Line
	5750 7300 5700 7300
Wire Wire Line
	4900 7300 4850 7300
Wire Wire Line
	4850 7300 4850 7100
Wire Wire Line
	4850 7100 4900 7100
$Comp
L Diode:BAT54ADW D?
U 1 1 5C7EB03B
P 5050 6150
AR Path="/5C7CC7F8/5C7EB03B" Ref="D?"  Part="1" 
AR Path="/5C7CA967/5C7EB03B" Ref="D1501"  Part="1" 
F 0 "D1501" H 5050 6365 50  0000 C CNN
F 1 "BAT54ADW" H 5050 6274 50  0000 C CNN
F 2 "Package_TO_SOT_SMD:SOT-363_SC-70-6" H 5050 5975 50  0001 C CNN
F 3 "http://www.diodes.com/datasheets/ds30152.pdf" H 5050 6250 50  0001 C CNN
	1    5050 6150
	1    0    0    -1  
$EndComp
$Comp
L Diode:BAT54ADW D?
U 2 1 5C7EB042
P 5550 6150
AR Path="/5C7CC7F8/5C7EB042" Ref="D?"  Part="2" 
AR Path="/5C7CA967/5C7EB042" Ref="D1501"  Part="2" 
F 0 "D1501" H 5550 5925 50  0000 C CNN
F 1 "BAT54ADW" H 5550 6016 50  0000 C CNN
F 2 "Package_TO_SOT_SMD:SOT-363_SC-70-6" H 5550 5975 50  0001 C CNN
F 3 "http://www.diodes.com/datasheets/ds30152.pdf" H 5550 6250 50  0001 C CNN
	2    5550 6150
	-1   0    0    1   
$EndComp
$Comp
L Diode:BAT54ADW D?
U 3 1 5C7EB049
P 5050 6350
AR Path="/5C7CC7F8/5C7EB049" Ref="D?"  Part="3" 
AR Path="/5C7CA967/5C7EB049" Ref="D1501"  Part="3" 
F 0 "D1501" H 5050 6150 50  0000 C CNN
F 1 "BAT54ADW" H 5050 6250 50  0000 C CNN
F 2 "Package_TO_SOT_SMD:SOT-363_SC-70-6" H 5050 6175 50  0001 C CNN
F 3 "http://www.diodes.com/datasheets/ds30152.pdf" H 5050 6450 50  0001 C CNN
	3    5050 6350
	1    0    0    -1  
$EndComp
$Comp
L Diode:BAT54ADW D?
U 4 1 5C7EB050
P 5550 6350
AR Path="/5C7CC7F8/5C7EB050" Ref="D?"  Part="4" 
AR Path="/5C7CA967/5C7EB050" Ref="D1501"  Part="4" 
F 0 "D1501" H 5550 6550 50  0000 C CNN
F 1 "BAT54ADW" H 5550 6450 50  0000 C CNN
F 2 "Package_TO_SOT_SMD:SOT-363_SC-70-6" H 5550 6175 50  0001 C CNN
F 3 "http://www.diodes.com/datasheets/ds30152.pdf" H 5550 6450 50  0001 C CNN
	4    5550 6350
	-1   0    0    1   
$EndComp
Wire Wire Line
	5700 6150 5750 6150
Wire Wire Line
	5750 6150 5750 6250
Wire Wire Line
	5750 6350 5700 6350
Wire Wire Line
	4900 6350 4850 6350
Wire Wire Line
	4850 6350 4850 6150
Wire Wire Line
	4850 6150 4900 6150
Wire Wire Line
	5200 7100 5300 7100
Wire Wire Line
	5200 7300 5300 7300
Wire Wire Line
	5200 6150 5300 6150
Wire Wire Line
	5200 6350 5300 6350
$Comp
L power:GND #PWR01512
U 1 1 5C7EED38
P 4700 7150
F 0 "#PWR01512" H 4700 6900 50  0001 C CNN
F 1 "GND" H 4705 6977 50  0000 C CNN
F 2 "" H 4700 7150 50  0001 C CNN
F 3 "" H 4700 7150 50  0001 C CNN
	1    4700 7150
	1    0    0    -1  
$EndComp
$Comp
L power:GND #PWR01511
U 1 1 5C7EED5A
P 4700 6200
F 0 "#PWR01511" H 4700 5950 50  0001 C CNN
F 1 "GND" H 4705 6027 50  0000 C CNN
F 2 "" H 4700 6200 50  0001 C CNN
F 3 "" H 4700 6200 50  0001 C CNN
	1    4700 6200
	1    0    0    -1  
$EndComp
Wire Wire Line
	4700 6200 4700 6150
Wire Wire Line
	4700 6150 4850 6150
Wire Wire Line
	4700 7150 4700 7100
Wire Wire Line
	4700 7100 4850 7100
$Comp
L Connector_Generic:Conn_01x06 J?
U 1 1 5C7EF7D1
P 650 7300
AR Path="/5C7CA950/5C7EF7D1" Ref="J?"  Part="1" 
AR Path="/5C7EF7D1" Ref="J?"  Part="1" 
AR Path="/5C7CC7F8/5C7EF7D1" Ref="J?"  Part="1" 
AR Path="/5C7CA967/5C7EF7D1" Ref="J1501"  Part="1" 
F 0 "J1501" H 650 7650 50  0000 C CNN
F 1 "Conn_01x06" H 500 6900 50  0000 C CNN
F 2 "usb-smu:PinSocket_1x06_P2.54mm_Horizontal_reversed" H 650 7300 50  0001 C CNN
F 3 "~" H 650 7300 50  0001 C CNN
	1    650  7300
	-1   0    0    -1  
$EndComp
$Comp
L Device:R_Small R1505
U 1 1 5C7F0492
P 1950 7100
F 0 "R1505" V 2146 7100 50  0000 C CNN
F 1 "220" V 2055 7100 50  0000 C CNN
F 2 "Resistor_SMD:R_0402_1005Metric" H 1950 7100 50  0001 C CNN
F 3 "~" H 1950 7100 50  0001 C CNN
	1    1950 7100
	0    -1   -1   0   
$EndComp
$Comp
L Device:R_Small R1506
U 1 1 5C7F0517
P 2300 7200
F 0 "R1506" V 2496 7200 50  0000 C CNN
F 1 "220" V 2405 7200 50  0000 C CNN
F 2 "Resistor_SMD:R_0402_1005Metric" H 2300 7200 50  0001 C CNN
F 3 "~" H 2300 7200 50  0001 C CNN
	1    2300 7200
	0    -1   -1   0   
$EndComp
$Comp
L Device:R_Small R1507
U 1 1 5C7F105B
P 2650 7300
F 0 "R1507" V 2454 7300 50  0000 C CNN
F 1 "220" V 2545 7300 50  0000 C CNN
F 2 "Resistor_SMD:R_0402_1005Metric" H 2650 7300 50  0001 C CNN
F 3 "~" H 2650 7300 50  0001 C CNN
	1    2650 7300
	0    1    1    0   
$EndComp
$Comp
L Device:R_Small R1510
U 1 1 5C7F1667
P 3000 7400
F 0 "R1510" V 2804 7400 50  0000 C CNN
F 1 "220" V 2895 7400 50  0000 C CNN
F 2 "Resistor_SMD:R_0402_1005Metric" H 3000 7400 50  0001 C CNN
F 3 "~" H 3000 7400 50  0001 C CNN
	1    3000 7400
	0    1    1    0   
$EndComp
Wire Wire Line
	1050 7600 850  7600
Wire Wire Line
	5300 7650 5300 7300
Connection ~ 5300 7300
Wire Wire Line
	5300 7300 5400 7300
Wire Wire Line
	5300 6800 5300 7100
Connection ~ 5300 7100
Wire Wire Line
	5300 7100 5400 7100
Wire Wire Line
	5300 6650 5300 6350
Connection ~ 5300 6350
Wire Wire Line
	5300 6350 5400 6350
Wire Wire Line
	5300 5850 5300 6150
Connection ~ 5300 6150
Wire Wire Line
	5300 6150 5400 6150
$Comp
L Device:R_Small R1501
U 1 1 5C7FD024
P 900 6950
F 0 "R1501" H 959 6996 50  0000 L CNN
F 1 "470" H 959 6905 50  0000 L CNN
F 2 "Resistor_SMD:R_0402_1005Metric" H 900 6950 50  0001 C CNN
F 3 "~" H 900 6950 50  0001 C CNN
	1    900  6950
	1    0    0    -1  
$EndComp
$Comp
L Device:R_Small R1502
U 1 1 5C800556
P 1200 6700
F 0 "R1502" H 1259 6746 50  0000 L CNN
F 1 "470" H 1259 6655 50  0000 L CNN
F 2 "Resistor_SMD:R_0402_1005Metric" H 1200 6700 50  0001 C CNN
F 3 "~" H 1200 6700 50  0001 C CNN
	1    1200 6700
	1    0    0    -1  
$EndComp
$Comp
L Device:R_Small R1503
U 1 1 5C800596
P 1500 6950
F 0 "R1503" H 1559 6996 50  0000 L CNN
F 1 "470" H 1559 6905 50  0000 L CNN
F 2 "Resistor_SMD:R_0402_1005Metric" H 1500 6950 50  0001 C CNN
F 3 "~" H 1500 6950 50  0001 C CNN
	1    1500 6950
	1    0    0    -1  
$EndComp
$Comp
L Device:R_Small R1504
U 1 1 5C8005D2
P 1800 6700
F 0 "R1504" H 1859 6746 50  0000 L CNN
F 1 "470" H 1859 6655 50  0000 L CNN
F 2 "Resistor_SMD:R_0402_1005Metric" H 1800 6700 50  0001 C CNN
F 3 "~" H 1800 6700 50  0001 C CNN
	1    1800 6700
	1    0    0    -1  
$EndComp
Wire Wire Line
	1800 6800 1800 7400
Connection ~ 1800 7400
Text Label 900  6500 0    50   ~ 0
PA4
Wire Wire Line
	900  6500 900  6850
Text Label 1200 6500 0    50   ~ 0
PA5
Text Label 1500 6500 0    50   ~ 0
PA6
Text Label 4650 6800 2    50   ~ 0
PA2
Wire Wire Line
	1500 6500 1500 6850
Wire Wire Line
	1200 6500 1200 6600
Text Label 4650 5850 2    50   ~ 0
PA0
Text Label 4650 6650 2    50   ~ 0
PA1
Text Label 4650 7650 2    50   ~ 0
PA3
$Comp
L Connector_Generic:Conn_02x05_Odd_Even J1503
U 1 1 5C821CE3
P 8500 5800
F 0 "J1503" H 8550 6217 50  0000 C CNN
F 1 "JTAG" H 8550 6126 50  0000 C CNN
F 2 "Connector_PinHeader_1.27mm:PinHeader_2x05_P1.27mm_Vertical_SMD" H 8500 5800 50  0001 C CNN
F 3 "~" H 8500 5800 50  0001 C CNN
	1    8500 5800
	1    0    0    -1  
$EndComp
$Comp
L Connector:USB_B_Micro J1502
U 1 1 5C822088
P 7450 5450
F 0 "J1502" H 7700 5900 50  0000 R CNN
F 1 "USB_B_Micro" H 7700 5800 50  0000 R CNN
F 2 "Connector_USB:USB_Micro-B_Amphenol_10103594-0001LF_Horizontal" H 7600 5400 50  0001 C CNN
F 3 "https://cdn.amphenol-icc.com/media/wysiwyg/files/drawing/10103592.pdf" H 7600 5400 50  0001 C CNN
	1    7450 5450
	-1   0    0    -1  
$EndComp
$Comp
L usb-smu:SAM3UxC U1501
U 1 1 5C7E3374
P 2850 3400
F 0 "U1501" V 4600 1400 50  0000 L CNN
F 1 "SAM3UxC" V 4600 1700 50  0000 L CNN
F 2 "Package_QFP:LQFP-100_14x14mm_P0.5mm" H 3300 -850 50  0001 C CNN
F 3 "http://ww1.microchip.com/downloads/en/DeviceDoc/Atmel-6430-32-bit-Cortex-M3-Microcontroller-SAM3U4-SAM3U2-SAM3U1_Datasheet.pdf" H 3150 -750 50  0001 C CNN
	1    2850 3400
	0    1    1    0   
$EndComp
Wire Wire Line
	5300 7650 4650 7650
Text Label 1600 5300 2    50   ~ 0
PA0
Text Label 1600 5400 2    50   ~ 0
PA1
Text Label 1600 5500 2    50   ~ 0
PA2
Text Label 1600 5600 2    50   ~ 0
PA3
Text Label 1600 5700 2    50   ~ 0
PA4
Text Label 1600 5800 2    50   ~ 0
PA5
Text Label 1600 5900 2    50   ~ 0
PA6
Text Label 1600 6000 2    50   ~ 0
PA7
Wire Wire Line
	1650 5250 1650 5300
Wire Wire Line
	1650 5300 1600 5300
Wire Wire Line
	1750 5250 1750 5400
Wire Wire Line
	1750 5400 1600 5400
Wire Wire Line
	1850 5250 1850 5500
Wire Wire Line
	1850 5500 1600 5500
Wire Wire Line
	1950 5250 1950 5600
Wire Wire Line
	1950 5600 1600 5600
Wire Wire Line
	2050 5250 2050 5700
Wire Wire Line
	2050 5700 1600 5700
Wire Wire Line
	2150 5250 2150 5800
Wire Wire Line
	2150 5800 1600 5800
Wire Wire Line
	2250 5250 2250 5900
Wire Wire Line
	2250 5900 1600 5900
Wire Wire Line
	2350 5250 2350 6000
Wire Wire Line
	2350 6000 1600 6000
$Comp
L power:+1V8 #PWR01504
U 1 1 5C81CEE6
P 2300 6100
F 0 "#PWR01504" H 2300 5950 50  0001 C CNN
F 1 "+1V8" V 2315 6228 50  0000 L CNN
F 2 "" H 2300 6100 50  0001 C CNN
F 3 "" H 2300 6100 50  0001 C CNN
	1    2300 6100
	0    -1   -1   0   
$EndComp
Wire Wire Line
	2450 5250 2450 6100
Wire Wire Line
	2450 6100 2300 6100
$Comp
L power:GND #PWR01510
U 1 1 5C81F5E2
P 3650 5300
F 0 "#PWR01510" H 3650 5050 50  0001 C CNN
F 1 "GND" H 3655 5127 50  0000 C CNN
F 2 "" H 3650 5300 50  0001 C CNN
F 3 "" H 3650 5300 50  0001 C CNN
	1    3650 5300
	1    0    0    -1  
$EndComp
Wire Wire Line
	3650 5300 3650 5250
Wire Wire Line
	2650 5250 2650 5550
Wire Wire Line
	2650 6300 2300 6300
NoConn ~ 2750 5250
NoConn ~ 3050 5250
NoConn ~ 3450 5250
NoConn ~ 3750 5250
NoConn ~ 3850 5250
NoConn ~ 3950 5250
NoConn ~ 4050 5250
NoConn ~ 4700 3900
NoConn ~ 4700 3500
NoConn ~ 4700 3400
NoConn ~ 4700 3300
NoConn ~ 4700 2800
NoConn ~ 4700 2700
NoConn ~ 4700 2600
NoConn ~ 2350 1550
NoConn ~ 2250 1550
NoConn ~ 2150 1550
NoConn ~ 2050 1550
NoConn ~ 1000 2300
NoConn ~ 1000 2500
NoConn ~ 1000 2900
NoConn ~ 1000 3100
NoConn ~ 1000 3200
NoConn ~ 1000 3600
NoConn ~ 1000 3900
NoConn ~ 1000 4600
Wire Wire Line
	2850 6050 2850 5750
Wire Wire Line
	2950 6050 2950 5800
$Comp
L Device:R_Small R1508
U 1 1 5C86A90F
P 2700 5650
F 0 "R1508" V 2600 5500 50  0000 L CNN
F 1 "10K" H 2759 5605 50  0000 L CNN
F 2 "Resistor_SMD:R_0603_1608Metric" H 2700 5650 50  0001 C CNN
F 3 "~" H 2700 5650 50  0001 C CNN
	1    2700 5650
	-1   0    0    1   
$EndComp
$Comp
L Device:R_Small R1509
U 1 1 5C86D45A
P 2700 5900
F 0 "R1509" V 2600 5800 50  0000 L CNN
F 1 "10K" H 2759 5855 50  0000 L CNN
F 2 "Resistor_SMD:R_0603_1608Metric" H 2700 5900 50  0001 C CNN
F 3 "~" H 2700 5900 50  0001 C CNN
	1    2700 5900
	-1   0    0    1   
$EndComp
Wire Wire Line
	2700 6000 2650 6000
Connection ~ 2650 6000
Wire Wire Line
	2650 6000 2650 6300
Wire Wire Line
	2700 5550 2650 5550
Connection ~ 2650 5550
Wire Wire Line
	2650 5550 2650 6000
Wire Wire Line
	2700 5750 2850 5750
Connection ~ 2850 5750
Wire Wire Line
	2850 5750 2850 5250
Wire Wire Line
	2700 5800 2950 5800
Connection ~ 2950 5800
Wire Wire Line
	2950 5800 2950 5250
$Comp
L Device:R_Small R1511
U 1 1 5C889E3E
P 3150 5700
F 0 "R1511" V 3250 5700 50  0000 L CNN
F 1 "0" H 3209 5655 50  0000 L CNN
F 2 "Resistor_SMD:R_0805_2012Metric" H 3150 5700 50  0001 C CNN
F 3 "~" H 3150 5700 50  0001 C CNN
F 4 "DNI, secondary side, under \"P3\"" H 3150 5700 50  0001 C CNN "Note"
	1    3150 5700
	-1   0    0    -1  
$EndComp
$Comp
L Device:R_Small R1512
U 1 1 5C88A22A
P 3350 5700
F 0 "R1512" V 3450 5700 50  0000 L CNN
F 1 "0" H 3409 5655 50  0000 L CNN
F 2 "Resistor_SMD:R_0603_1608Metric" H 3350 5700 50  0001 C CNN
F 3 "~" H 3350 5700 50  0001 C CNN
F 4 "DNI, secondary side, under \"P3\"" H 3350 5700 50  0001 C CNN "Note"
	1    3350 5700
	-1   0    0    -1  
$EndComp
Wire Wire Line
	3150 5600 3150 5250
Wire Wire Line
	3350 5600 3350 5250
NoConn ~ 3250 5250
Wire Wire Line
	3150 5800 3150 5850
Wire Wire Line
	3150 5850 3250 5850
Wire Wire Line
	3350 5850 3350 5800
Wire Wire Line
	850  7300 1500 7300
Wire Wire Line
	850  7200 1200 7200
Wire Wire Line
	900  7050 900  7100
Connection ~ 900  7100
Wire Wire Line
	1200 6800 1200 7200
Connection ~ 1200 7200
Wire Wire Line
	1500 7050 1500 7300
Connection ~ 1500 7300
Wire Wire Line
	3100 7400 3200 7400
Wire Wire Line
	2750 7300 2850 7300
Wire Wire Line
	4650 6800 5300 6800
Wire Wire Line
	2400 7200 2500 7200
Wire Wire Line
	4650 6650 5300 6650
Wire Wire Line
	2050 7100 2150 7100
Wire Wire Line
	4650 5850 5300 5850
Wire Wire Line
	3250 5850 3250 6300
Wire Wire Line
	3250 6300 2650 6300
Connection ~ 3250 5850
Wire Wire Line
	3250 5850 3350 5850
Connection ~ 2650 6300
Connection ~ 4850 6150
Connection ~ 4850 7100
Text Label 1800 6500 0    50   ~ 0
PA7
Wire Wire Line
	1800 6600 1800 6500
Text Label 3200 7100 0    50   ~ 0
PA2
Text Label 3200 6800 0    50   ~ 0
PA0
Text Label 3200 6950 0    50   ~ 0
PA1
Text Label 3200 7400 0    50   ~ 0
PA3
Wire Wire Line
	2850 7300 2850 7100
Wire Wire Line
	2850 7100 3200 7100
Wire Wire Line
	2500 7200 2500 6950
Wire Wire Line
	2500 6950 3200 6950
Wire Wire Line
	2150 7100 2150 6800
Wire Wire Line
	2150 6800 3200 6800
$Comp
L power:GND #PWR01503
U 1 1 5C7F3398
P 1400 7550
F 0 "#PWR01503" H 1400 7300 50  0001 C CNN
F 1 "GND" H 1405 7377 50  0000 C CNN
F 2 "" H 1400 7550 50  0001 C CNN
F 3 "" H 1400 7550 50  0001 C CNN
	1    1400 7550
	1    0    0    -1  
$EndComp
Wire Wire Line
	850  7500 1400 7500
Wire Wire Line
	1400 7500 1400 7550
Wire Wire Line
	850  7100 900  7100
Wire Wire Line
	1500 7300 2550 7300
Wire Wire Line
	1200 7200 2200 7200
Wire Wire Line
	900  7100 1850 7100
Wire Wire Line
	1800 7400 850  7400
Wire Wire Line
	2900 7400 1800 7400
$Comp
L power:+1V8 #PWR01515
U 1 1 5C9AD4E5
P 4800 4500
F 0 "#PWR01515" H 4800 4350 50  0001 C CNN
F 1 "+1V8" V 4815 4628 50  0000 L CNN
F 2 "" H 4800 4500 50  0001 C CNN
F 3 "" H 4800 4500 50  0001 C CNN
	1    4800 4500
	0    1    1    0   
$EndComp
$Comp
L power:GND #PWR01516
U 1 1 5C9AD670
P 5300 3650
F 0 "#PWR01516" H 5300 3400 50  0001 C CNN
F 1 "GND" H 5305 3477 50  0000 C CNN
F 2 "" H 5300 3650 50  0001 C CNN
F 3 "" H 5300 3650 50  0001 C CNN
	1    5300 3650
	1    0    0    -1  
$EndComp
Wire Wire Line
	5300 3650 5300 3600
Wire Wire Line
	5300 3600 4700 3600
Wire Wire Line
	4850 3700 4700 3700
Wire Wire Line
	4800 3800 4700 3800
$Comp
L power:+1V8 #PWR01513
U 1 1 5C9B8193
P 4800 2400
F 0 "#PWR01513" H 4800 2250 50  0001 C CNN
F 1 "+1V8" V 4815 2528 50  0000 L CNN
F 2 "" H 4800 2400 50  0001 C CNN
F 3 "" H 4800 2400 50  0001 C CNN
	1    4800 2400
	0    1    1    0   
$EndComp
Wire Wire Line
	5200 2500 4700 2500
Wire Wire Line
	4700 2400 4800 2400
$Comp
L power:+1V8 #PWR01509
U 1 1 5C9C3AC2
P 3350 1450
F 0 "#PWR01509" H 3350 1300 50  0001 C CNN
F 1 "+1V8" V 3350 1650 50  0000 C CNN
F 2 "" H 3350 1450 50  0001 C CNN
F 3 "" H 3350 1450 50  0001 C CNN
	1    3350 1450
	1    0    0    -1  
$EndComp
$Comp
L power:+1V8 #PWR01507
U 1 1 5C9CB532
P 2950 1450
F 0 "#PWR01507" H 2950 1300 50  0001 C CNN
F 1 "+1V8" V 2950 1650 50  0000 C CNN
F 2 "" H 2950 1450 50  0001 C CNN
F 3 "" H 2950 1450 50  0001 C CNN
	1    2950 1450
	1    0    0    -1  
$EndComp
$Comp
L power:+1V8 #PWR01502
U 1 1 5C9CF955
P 900 3000
F 0 "#PWR01502" H 900 2850 50  0001 C CNN
F 1 "+1V8" V 915 3128 50  0000 L CNN
F 2 "" H 900 3000 50  0001 C CNN
F 3 "" H 900 3000 50  0001 C CNN
	1    900  3000
	0    -1   -1   0   
$EndComp
$Comp
L power:GND #PWR01506
U 1 1 5C9CF990
P 2750 1450
F 0 "#PWR01506" H 2750 1200 50  0001 C CNN
F 1 "GND" V 2750 1250 50  0000 C CNN
F 2 "" H 2750 1450 50  0001 C CNN
F 3 "" H 2750 1450 50  0001 C CNN
	1    2750 1450
	-1   0    0    1   
$EndComp
Wire Wire Line
	900  4300 1000 4300
Wire Wire Line
	900  3000 1000 3000
Wire Wire Line
	900  2400 1000 2400
Wire Wire Line
	850  2200 1000 2200
Text Label 900  3700 2    50   ~ 0
PB15
Wire Wire Line
	1000 4500 900  4500
Wire Wire Line
	1000 4400 900  4400
Wire Wire Line
	900  4200 1000 4200
Wire Wire Line
	1000 4100 900  4100
Wire Wire Line
	900  4000 1000 4000
Wire Wire Line
	1000 3800 900  3800
Wire Wire Line
	900  3700 1000 3700
Wire Wire Line
	1000 3500 900  3500
Wire Wire Line
	900  3400 1000 3400
Wire Wire Line
	1000 3300 900  3300
Wire Wire Line
	900  2800 1000 2800
Wire Wire Line
	1000 2700 900  2700
Wire Wire Line
	900  2600 1000 2600
Wire Wire Line
	4700 4500 4800 4500
Wire Wire Line
	4850 4400 4700 4400
Text Label 4800 4600 0    50   ~ 0
TDI
Text Label 4800 4300 0    50   ~ 0
TDO
Text Label 4800 4200 0    50   ~ 0
TMS
Text Label 4800 4100 0    50   ~ 0
TCK
Text Label 4800 4000 0    50   ~ 0
NRST
Wire Wire Line
	4800 4000 4700 4000
Wire Wire Line
	4700 4100 4800 4100
Wire Wire Line
	4800 4200 4700 4200
Wire Wire Line
	4700 4300 4800 4300
Wire Wire Line
	4700 4600 4800 4600
$Comp
L power:+1V8 #PWR01514
U 1 1 5CA52295
P 4800 3800
F 0 "#PWR01514" H 4800 3650 50  0001 C CNN
F 1 "+1V8" V 4815 3928 50  0000 L CNN
F 2 "" H 4800 3800 50  0001 C CNN
F 3 "" H 4800 3800 50  0001 C CNN
	1    4800 3800
	0    1    1    0   
$EndComp
NoConn ~ 4700 3000
Wire Wire Line
	4800 2900 4700 2900
Wire Wire Line
	4800 3100 4700 3100
Wire Wire Line
	4800 3200 4700 3200
Text Label 3150 1450 1    50   ~ 0
PA29
Text Label 3250 1450 1    50   ~ 0
PA28
Wire Wire Line
	1650 1450 1650 1550
Wire Wire Line
	1750 1550 1750 1450
Wire Wire Line
	1850 1450 1850 1550
Wire Wire Line
	1950 1550 1950 1450
Wire Wire Line
	2450 1450 2450 1550
Wire Wire Line
	2550 1450 2550 1550
Wire Wire Line
	2650 1450 2650 1550
Wire Wire Line
	2750 1550 2750 1450
Wire Wire Line
	2850 1400 2850 1550
Wire Wire Line
	2950 1550 2950 1450
Wire Wire Line
	3050 1450 3050 1550
Wire Wire Line
	3150 1550 3150 1450
Wire Wire Line
	3250 1450 3250 1550
Wire Wire Line
	3350 1550 3350 1450
Text Label 4050 1450 0    50   ~ 0
D-
Text Label 3950 1200 0    50   ~ 0
D+
Text Label 4450 1350 0    50   ~ 0
D-A
Text Label 4450 950  0    50   ~ 0
D+A
$Comp
L Device:R_Small R1514
U 1 1 5CAD067F
P 4250 1250
F 0 "R1514" V 4050 1200 50  0000 C CNN
F 1 "33" V 4145 1250 50  0000 C CNN
F 2 "Resistor_SMD:R_0402_1005Metric" H 4250 1250 50  0001 C CNN
F 3 "~" H 4250 1250 50  0001 C CNN
	1    4250 1250
	0    1    1    0   
$EndComp
$Comp
L Device:R_Small R1515
U 1 1 5CAD0793
P 4250 1500
F 0 "R1515" V 4050 1450 50  0000 C CNN
F 1 "33" V 4150 1500 50  0000 C CNN
F 2 "Resistor_SMD:R_0402_1005Metric" H 4250 1500 50  0001 C CNN
F 3 "~" H 4250 1500 50  0001 C CNN
	1    4250 1500
	0    1    -1   0   
$EndComp
Wire Wire Line
	4150 1500 4050 1500
Wire Wire Line
	4050 1500 4050 1550
Wire Wire Line
	4350 1500 4450 1500
Wire Wire Line
	4450 1500 4450 1350
Wire Wire Line
	3650 1350 3650 1550
Wire Wire Line
	3950 1550 3950 1250
Wire Wire Line
	3950 1250 4150 1250
Wire Wire Line
	4350 1250 4450 1250
Wire Wire Line
	4450 1250 4450 950 
Wire Wire Line
	4450 950  3550 950 
Wire Wire Line
	3550 950  3550 1550
Wire Wire Line
	3650 1350 4450 1350
Wire Wire Line
	4050 1450 4050 1500
Connection ~ 4050 1500
Wire Wire Line
	3950 1200 3950 1250
Connection ~ 3950 1250
Wire Wire Line
	3750 1300 3750 1550
$Comp
L Device:C_Small C1501
U 1 1 5CBC67D8
P 3650 700
F 0 "C1501" V 3600 300 50  0000 C CNN
F 1 "10PF" V 3500 350 50  0000 C CNN
F 2 "Capacitor_SMD:C_0402_1005Metric" H 3650 700 50  0001 C CNN
F 3 "~" H 3650 700 50  0001 C CNN
	1    3650 700 
	0    1    1    0   
$EndComp
Wire Wire Line
	3750 700  3850 700 
Wire Wire Line
	3850 700  3850 850 
Wire Wire Line
	3550 700  3450 700 
Wire Wire Line
	3450 700  3450 850 
$Comp
L Device:R_Small R1513
U 1 1 5CBD79D4
P 3650 850
F 0 "R1513" V 3650 1200 50  0000 C CNN
F 1 "6K8" V 3550 1200 50  0000 C CNN
F 2 "Resistor_SMD:R_0402_1005Metric" H 3650 850 50  0001 C CNN
F 3 "~" H 3650 850 50  0001 C CNN
	1    3650 850 
	0    1    1    0   
$EndComp
Wire Wire Line
	3550 850  3450 850 
Wire Wire Line
	3450 850  3450 1550
Wire Wire Line
	3850 850  3750 850 
Wire Wire Line
	3850 850  3850 1550
Connection ~ 3450 850 
Connection ~ 3850 850 
$Comp
L power:GND #PWR01508
U 1 1 5CC048EF
P 3250 900
F 0 "#PWR01508" H 3250 650 50  0001 C CNN
F 1 "GND" H 3250 750 50  0000 C CNN
F 2 "" H 3250 900 50  0001 C CNN
F 3 "" H 3250 900 50  0001 C CNN
	1    3250 900 
	1    0    0    -1  
$EndComp
Wire Wire Line
	3250 900  3250 850 
Wire Wire Line
	3250 850  3450 850 
$Comp
L power:GND #PWR01505
U 1 1 5CC0DE2E
P 2550 5300
F 0 "#PWR01505" H 2550 5050 50  0001 C CNN
F 1 "GND" H 2555 5127 50  0000 C CNN
F 2 "" H 2550 5300 50  0001 C CNN
F 3 "" H 2550 5300 50  0001 C CNN
	1    2550 5300
	1    0    0    -1  
$EndComp
Wire Wire Line
	2550 5300 2550 5250
$Comp
L power:GND #PWR01501
U 1 1 5CC1745C
P 900 2400
F 0 "#PWR01501" H 900 2150 50  0001 C CNN
F 1 "GND" V 900 2200 50  0000 C CNN
F 2 "" H 900 2400 50  0001 C CNN
F 3 "" H 900 2400 50  0001 C CNN
	1    900  2400
	0    1    1    0   
$EndComp
$Comp
L Device:D_TVS D1503
U 1 1 5CC17D2D
P 6750 5450
F 0 "D1503" H 6350 5500 50  0000 C CNN
F 1 "D_TVS" H 6350 5400 50  0000 C CNN
F 2 "Diode_SMD:D_0402_1005Metric" H 6750 5450 50  0001 C CNN
F 3 "~" H 6750 5450 50  0001 C CNN
	1    6750 5450
	1    0    0    -1  
$EndComp
Wire Wire Line
	6900 5600 6950 5600
Text Label 6950 5550 0    50   ~ 0
D-
Wire Wire Line
	6900 5450 6950 5450
Wire Wire Line
	6950 5550 6950 5600
Connection ~ 6950 5600
Wire Wire Line
	6950 5600 7100 5600
Text Label 6950 5400 0    50   ~ 0
D+
Wire Wire Line
	6950 5400 6950 5450
Connection ~ 6950 5450
Wire Wire Line
	6600 5450 6550 5450
Wire Wire Line
	6550 5450 6550 5600
Wire Wire Line
	6600 5600 6550 5600
Connection ~ 6550 5600
Wire Wire Line
	6550 5600 6550 5900
$Comp
L power:GND #PWR01521
U 1 1 5CC81819
P 6550 5950
F 0 "#PWR01521" H 6550 5700 50  0001 C CNN
F 1 "GND" H 6555 5777 50  0000 C CNN
F 2 "" H 6550 5950 50  0001 C CNN
F 3 "" H 6550 5950 50  0001 C CNN
	1    6550 5950
	1    0    0    -1  
$EndComp
Wire Wire Line
	7150 5650 7100 5650
Wire Wire Line
	7100 5650 7100 5900
Wire Wire Line
	7100 5900 6550 5900
Connection ~ 6550 5900
Wire Wire Line
	6550 5900 6550 5950
Wire Wire Line
	7450 5850 7450 5900
Wire Wire Line
	7450 5900 7100 5900
Connection ~ 7100 5900
$Comp
L Device:C_Small C1510
U 1 1 5CCB5EDD
P 7550 6150
F 0 "C1510" H 7350 6100 50  0000 C CNN
F 1 "10PF" H 7350 6200 50  0000 C CNN
F 2 "Capacitor_SMD:C_0402_1005Metric" H 7550 6150 50  0001 C CNN
F 3 "~" H 7550 6150 50  0001 C CNN
	1    7550 6150
	-1   0    0    1   
$EndComp
$Comp
L Device:R_Small R1516
U 1 1 5CCB5EE4
P 7400 6150
F 0 "R1516" H 7550 6050 50  0000 C CNN
F 1 "100k" H 7550 6200 50  0000 C CNN
F 2 "Resistor_SMD:R_0402_1005Metric" H 7400 6150 50  0001 C CNN
F 3 "~" H 7400 6150 50  0001 C CNN
	1    7400 6150
	-1   0    0    1   
$EndComp
Wire Wire Line
	7550 6050 7550 6000
Wire Wire Line
	7550 6000 7400 6000
Wire Wire Line
	7400 6000 7400 6050
Wire Wire Line
	7550 6250 7550 6300
Wire Wire Line
	7550 6300 7400 6300
Wire Wire Line
	7400 6300 7400 6250
Wire Wire Line
	7550 5850 7550 6000
Connection ~ 7550 6000
Wire Wire Line
	7400 6300 7100 6300
Wire Wire Line
	7100 6300 7100 5900
Connection ~ 7400 6300
$Comp
L Device:Ferrite_Bead_Small FB1501
U 1 1 5CD39514
P 6900 5250
F 0 "FB1501" V 6663 5250 50  0000 C CNN
F 1 "330OHM" V 6750 5250 50  0000 C CNN
F 2 "Inductor_SMD:L_0603_1608Metric" V 6830 5250 50  0001 C CNN
F 3 "~" H 6900 5250 50  0001 C CNN
	1    6900 5250
	0    1    1    0   
$EndComp
Wire Wire Line
	6750 5250 6800 5250
$Comp
L Device:D_TVS D1504
U 1 1 5CC181ED
P 6750 5600
F 0 "D1504" H 6350 5500 50  0000 C CNN
F 1 "D_TVS" H 6350 5600 50  0000 C CNN
F 2 "Diode_SMD:D_0402_1005Metric" H 6750 5600 50  0001 C CNN
F 3 "~" H 6750 5600 50  0001 C CNN
	1    6750 5600
	1    0    0    -1  
$EndComp
NoConn ~ 8300 5900
$Comp
L power:GND #PWR01522
U 1 1 5CD7FE79
P 8250 6050
F 0 "#PWR01522" H 8250 5800 50  0001 C CNN
F 1 "GND" H 8255 5877 50  0000 C CNN
F 2 "" H 8250 6050 50  0001 C CNN
F 3 "" H 8250 6050 50  0001 C CNN
	1    8250 6050
	1    0    0    -1  
$EndComp
Wire Wire Line
	8300 5600 8250 5600
Wire Wire Line
	8300 5700 8250 5700
Wire Wire Line
	8250 5700 8250 5800
Wire Wire Line
	8300 6000 8250 6000
Connection ~ 8250 6000
Wire Wire Line
	8250 6000 8250 6050
Wire Wire Line
	8300 5800 8250 5800
Connection ~ 8250 5800
Wire Wire Line
	8250 5800 8250 6000
Text Label 8900 5600 0    50   ~ 0
TMS
Text Label 8900 5700 0    50   ~ 0
TCK
Text Label 8900 5800 0    50   ~ 0
TDO
Text Label 8900 5900 0    50   ~ 0
TDI
Text Label 8900 6000 0    50   ~ 0
NRST
Wire Wire Line
	8900 6000 8800 6000
Wire Wire Line
	8800 5900 8900 5900
Wire Wire Line
	8900 5800 8800 5800
Wire Wire Line
	8800 5700 8900 5700
Wire Wire Line
	8900 5600 8800 5600
$Comp
L usb-smu:LED_BOGA D1505
U 1 1 5CE13A27
P 9950 5950
F 0 "D1505" H 9950 6465 50  0000 C CNN
F 1 "LED_BOGA" H 9950 6374 50  0000 C CNN
F 2 "usb-smu:EIA-STD-4_1.6x2.1" H 9950 5900 50  0001 C CNN
F 3 "~" H 9950 5900 50  0001 C CNN
	1    9950 5950
	1    0    0    -1  
$EndComp
$Comp
L Device:R_Small R1517
U 1 1 5CE209A3
P 10350 5750
F 0 "R1517" V 10500 5200 50  0000 C CNN
F 1 "130" V 10400 5250 50  0000 C CNN
F 2 "Resistor_SMD:R_0402_1005Metric" H 10350 5750 50  0001 C CNN
F 3 "~" H 10350 5750 50  0001 C CNN
	1    10350 5750
	0    -1   -1   0   
$EndComp
$Comp
L Device:R_Small R1518
U 1 1 5CE20BC8
P 10350 5950
F 0 "R1518" V 10400 5400 50  0000 C CNN
F 1 "130" V 10300 5450 50  0000 C CNN
F 2 "Resistor_SMD:R_0402_1005Metric" H 10350 5950 50  0001 C CNN
F 3 "~" H 10350 5950 50  0001 C CNN
	1    10350 5950
	0    -1   -1   0   
$EndComp
$Comp
L Device:R_Small R1519
U 1 1 5CE20C24
P 10350 6150
F 0 "R1519" V 10300 5600 50  0000 C CNN
F 1 "130" V 10200 5650 50  0000 C CNN
F 2 "Resistor_SMD:R_0402_1005Metric" H 10350 6150 50  0001 C CNN
F 3 "~" H 10350 6150 50  0001 C CNN
	1    10350 6150
	0    -1   -1   0   
$EndComp
Wire Wire Line
	10250 6150 10150 6150
Wire Wire Line
	10250 5950 10150 5950
Wire Wire Line
	10250 5750 10150 5750
Text Label 10500 5750 0    50   ~ 0
PA28
Text Label 10500 5950 0    50   ~ 0
PA29
Text Label 10500 6150 0    50   ~ 0
PB15
Wire Wire Line
	10500 6150 10450 6150
Wire Wire Line
	10500 5950 10450 5950
Wire Wire Line
	10500 5750 10450 5750
$Comp
L Device:Crystal Y1501
U 1 1 5CE9CA9C
P 5650 2300
F 0 "Y1501" H 6050 2450 50  0000 C CNN
F 1 "12MHz" H 6050 2350 50  0000 C CNN
F 2 "Crystal:Crystal_SMD_5032-2Pin_5.0x3.2mm" H 5650 2300 50  0001 C CNN
F 3 "~" H 5650 2300 50  0001 C CNN
	1    5650 2300
	1    0    0    -1  
$EndComp
$Comp
L Device:C_Small C1502
U 1 1 5CE9CC20
P 5450 2550
F 0 "C1502" H 5250 2500 50  0000 C CNN
F 1 "10PF" H 5250 2600 50  0000 C CNN
F 2 "Capacitor_SMD:C_0603_1608Metric" H 5450 2550 50  0001 C CNN
F 3 "~" H 5450 2550 50  0001 C CNN
	1    5450 2550
	-1   0    0    1   
$EndComp
$Comp
L Device:C_Small C1503
U 1 1 5CEB773A
P 5850 2550
F 0 "C1503" H 5650 2500 50  0000 C CNN
F 1 "10PF" H 5650 2600 50  0000 C CNN
F 2 "Capacitor_SMD:C_0603_1608Metric" H 5850 2550 50  0001 C CNN
F 3 "~" H 5850 2550 50  0001 C CNN
	1    5850 2550
	-1   0    0    1   
$EndComp
Wire Wire Line
	5450 2450 5450 2300
Wire Wire Line
	5450 2300 5500 2300
Wire Wire Line
	5800 2300 5850 2300
Wire Wire Line
	5850 2300 5850 2450
Wire Wire Line
	5450 2650 5450 2700
Wire Wire Line
	5450 2700 5650 2700
Wire Wire Line
	5850 2700 5850 2650
Wire Wire Line
	5450 2300 4700 2300
Connection ~ 5450 2300
Wire Wire Line
	5850 2300 5850 2150
Wire Wire Line
	5850 2150 4800 2150
Wire Wire Line
	4800 2150 4800 2200
Wire Wire Line
	4800 2200 4700 2200
Connection ~ 5850 2300
$Comp
L power:GND #PWR01517
U 1 1 5CF34E59
P 5650 2750
F 0 "#PWR01517" H 5650 2500 50  0001 C CNN
F 1 "GND" H 5655 2577 50  0000 C CNN
F 2 "" H 5650 2750 50  0001 C CNN
F 3 "" H 5650 2750 50  0001 C CNN
	1    5650 2750
	1    0    0    -1  
$EndComp
Wire Wire Line
	5650 2750 5650 2700
Connection ~ 5650 2700
Wire Wire Line
	5650 2700 5850 2700
Wire Wire Line
	5200 2500 5200 2700
Wire Wire Line
	5200 2700 5450 2700
Connection ~ 5450 2700
Wire Wire Line
	6950 5450 7150 5450
Wire Wire Line
	7100 5600 7100 5550
Wire Wire Line
	7000 5250 7150 5250
Wire Wire Line
	7100 5550 7150 5550
Text HLabel 8250 5600 0    50   Input ~ 0
3V3
Text HLabel 9700 5950 0    50   Input ~ 0
3V3
Wire Wire Line
	9700 5950 9750 5950
Text HLabel 6750 5250 0    50   Input ~ 0
VUSB
Text HLabel 5800 6250 2    50   Input ~ 0
3V3
Text HLabel 5800 7200 2    50   Input ~ 0
3V3
Wire Wire Line
	5800 6250 5750 6250
Connection ~ 5750 6250
Wire Wire Line
	5750 6250 5750 6350
Wire Wire Line
	5800 7200 5750 7200
Connection ~ 5750 7200
Wire Wire Line
	5750 7200 5750 7300
Text HLabel 1050 7600 2    50   Input ~ 0
3V3
Text HLabel 3600 5600 2    50   Input ~ 0
3V3
Wire Wire Line
	3600 5600 3550 5600
Wire Wire Line
	3550 5250 3550 5600
Text HLabel 2300 6300 0    50   Input ~ 0
3V3
Text HLabel 4850 4400 2    50   Input ~ 0
3V3
Text HLabel 4850 3700 2    50   Input ~ 0
3V3
Text HLabel 4800 3100 2    50   Input ~ 0
SWMODE-A
Text HLabel 4800 3200 2    50   Input ~ 0
SWMODE-B
Text HLabel 4800 2900 2    50   Input ~ 0
PWR_ENABLE
Text HLabel 3750 1300 1    50   Input ~ 0
3V3
Text HLabel 2850 1400 1    50   Input ~ 0
3V3
Text HLabel 850  2200 0    50   Input ~ 0
3V3
Text HLabel 900  4300 0    50   Input ~ 0
3V3
Text HLabel 900  4500 0    50   Input ~ 0
SCK2
Text HLabel 900  4400 0    50   Input ~ 0
SCK1
Text HLabel 900  4200 0    50   Input ~ 0
RX2
Text HLabel 900  4100 0    50   Input ~ 0
RX1
Text HLabel 900  4000 0    50   Input ~ 0
TX1
Text HLabel 900  3800 0    50   Input ~ 0
TX0
Text HLabel 900  3500 0    50   Input ~ 0
SCK0
Text HLabel 900  3400 0    50   Input ~ 0
~SYNC
Text HLabel 900  3300 0    50   Input ~ 0
~CLR
Text HLabel 900  2700 0    50   Input ~ 0
~LDAC
Text HLabel 900  2800 0    50   Input ~ 0
CHA-SW3
Text HLabel 900  2600 0    50   Input ~ 0
TX2
Text HLabel 3050 1450 1    50   Input ~ 0
CNV
Text HLabel 2650 1450 1    50   Input ~ 0
CHA-SW0
Text HLabel 2550 1450 1    50   Input ~ 0
CHA-SW1
Text HLabel 2450 1450 1    50   Input ~ 0
CHA-SW2
Text HLabel 1950 1450 1    50   Input ~ 0
CHB-SW0
Text HLabel 1850 1450 1    50   Input ~ 0
CHB-SW1
Text HLabel 1750 1450 1    50   Input ~ 0
CHB-SW2
Text HLabel 1650 1450 1    50   Input ~ 0
CHB-SW3
Text HLabel 2850 6050 3    50   Input ~ 0
SDA
Text HLabel 2950 6050 3    50   Input ~ 0
SCL
$Comp
L Device:C_Small C1504
U 1 1 5C914693
P 6750 3550
F 0 "C1504" H 6658 3504 50  0000 R CNN
F 1 "10UF" H 6658 3595 50  0000 R CNN
F 2 "Capacitor_SMD:C_0805_2012Metric" H 6750 3550 50  0001 C CNN
F 3 "~" H 6750 3550 50  0001 C CNN
	1    6750 3550
	1    0    0    1   
$EndComp
Text HLabel 6400 3400 0    50   Input ~ 0
3V3
$Comp
L power:GND #PWR01518
U 1 1 5C914DEF
P 6400 3700
F 0 "#PWR01518" H 6400 3450 50  0001 C CNN
F 1 "GND" H 6405 3527 50  0000 C CNN
F 2 "" H 6400 3700 50  0001 C CNN
F 3 "" H 6400 3700 50  0001 C CNN
	1    6400 3700
	1    0    0    -1  
$EndComp
Wire Wire Line
	6400 3400 6750 3400
Wire Wire Line
	6750 3400 6750 3450
Wire Wire Line
	6400 3700 6750 3700
Wire Wire Line
	6750 3700 6750 3650
$Comp
L Device:C_Small C1505
U 1 1 5C951711
P 6750 4350
F 0 "C1505" H 6658 4304 50  0000 R CNN
F 1 "10UF" H 6658 4395 50  0000 R CNN
F 2 "Capacitor_SMD:C_0805_2012Metric" H 6750 4350 50  0001 C CNN
F 3 "~" H 6750 4350 50  0001 C CNN
	1    6750 4350
	1    0    0    1   
$EndComp
$Comp
L power:GND #PWR01520
U 1 1 5C951718
P 6400 4500
F 0 "#PWR01520" H 6400 4250 50  0001 C CNN
F 1 "GND" H 6405 4327 50  0000 C CNN
F 2 "" H 6400 4500 50  0001 C CNN
F 3 "" H 6400 4500 50  0001 C CNN
	1    6400 4500
	1    0    0    -1  
$EndComp
Wire Wire Line
	6400 4200 6750 4200
Wire Wire Line
	6750 4200 6750 4250
Wire Wire Line
	6400 4500 6750 4500
Wire Wire Line
	6750 4500 6750 4450
$Comp
L power:+1V8 #PWR01519
U 1 1 5C9610D4
P 6400 4200
F 0 "#PWR01519" H 6400 4050 50  0001 C CNN
F 1 "+1V8" V 6415 4328 50  0000 L CNN
F 2 "" H 6400 4200 50  0001 C CNN
F 3 "" H 6400 4200 50  0001 C CNN
	1    6400 4200
	0    -1   -1   0   
$EndComp
$Comp
L Device:C_Small C1506
U 1 1 5C9614A5
P 7150 3550
F 0 "C1506" H 7058 3504 50  0000 R CNN
F 1 "0.1UF" H 7058 3595 50  0000 R CNN
F 2 "Capacitor_SMD:C_0402_1005Metric" H 7150 3550 50  0001 C CNN
F 3 "~" H 7150 3550 50  0001 C CNN
	1    7150 3550
	1    0    0    1   
$EndComp
$Comp
L Device:C_Small C1508
U 1 1 5C96171C
P 7550 3550
F 0 "C1508" H 7458 3504 50  0000 R CNN
F 1 "0.1UF" H 7458 3595 50  0000 R CNN
F 2 "Capacitor_SMD:C_0402_1005Metric" H 7550 3550 50  0001 C CNN
F 3 "~" H 7550 3550 50  0001 C CNN
	1    7550 3550
	1    0    0    1   
$EndComp
$Comp
L Device:C_Small C1511
U 1 1 5C961792
P 7950 3550
F 0 "C1511" H 7858 3504 50  0000 R CNN
F 1 "0.1UF" H 7858 3595 50  0000 R CNN
F 2 "Capacitor_SMD:C_0402_1005Metric" H 7950 3550 50  0001 C CNN
F 3 "~" H 7950 3550 50  0001 C CNN
	1    7950 3550
	1    0    0    1   
$EndComp
$Comp
L Device:C_Small C1513
U 1 1 5C99059E
P 8350 3550
F 0 "C1513" H 8258 3504 50  0000 R CNN
F 1 "0.1UF" H 8258 3595 50  0000 R CNN
F 2 "Capacitor_SMD:C_0402_1005Metric" H 8350 3550 50  0001 C CNN
F 3 "~" H 8350 3550 50  0001 C CNN
	1    8350 3550
	1    0    0    1   
$EndComp
$Comp
L Device:C_Small C1515
U 1 1 5C9905A4
P 8750 3550
F 0 "C1515" H 8658 3504 50  0000 R CNN
F 1 "0.1UF" H 8658 3595 50  0000 R CNN
F 2 "Capacitor_SMD:C_0402_1005Metric" H 8750 3550 50  0001 C CNN
F 3 "~" H 8750 3550 50  0001 C CNN
	1    8750 3550
	1    0    0    1   
$EndComp
$Comp
L Device:C_Small C1517
U 1 1 5C9905AA
P 9150 3550
F 0 "C1517" H 9058 3504 50  0000 R CNN
F 1 "0.1UF" H 9058 3595 50  0000 R CNN
F 2 "Capacitor_SMD:C_0402_1005Metric" H 9150 3550 50  0001 C CNN
F 3 "~" H 9150 3550 50  0001 C CNN
	1    9150 3550
	1    0    0    1   
$EndComp
$Comp
L Device:C_Small C1519
U 1 1 5C99FF0C
P 9550 3550
F 0 "C1519" H 9458 3504 50  0000 R CNN
F 1 "0.1UF" H 9458 3595 50  0000 R CNN
F 2 "Capacitor_SMD:C_0402_1005Metric" H 9550 3550 50  0001 C CNN
F 3 "~" H 9550 3550 50  0001 C CNN
	1    9550 3550
	1    0    0    1   
$EndComp
$Comp
L Device:C_Small C1507
U 1 1 5C9AF96C
P 7150 4350
F 0 "C1507" H 7058 4304 50  0000 R CNN
F 1 "0.1UF" H 7058 4395 50  0000 R CNN
F 2 "Capacitor_SMD:C_0402_1005Metric" H 7150 4350 50  0001 C CNN
F 3 "~" H 7150 4350 50  0001 C CNN
	1    7150 4350
	1    0    0    1   
$EndComp
$Comp
L Device:C_Small C1509
U 1 1 5C9AF972
P 7550 4350
F 0 "C1509" H 7458 4304 50  0000 R CNN
F 1 "0.1UF" H 7458 4395 50  0000 R CNN
F 2 "Capacitor_SMD:C_0402_1005Metric" H 7550 4350 50  0001 C CNN
F 3 "~" H 7550 4350 50  0001 C CNN
	1    7550 4350
	1    0    0    1   
$EndComp
$Comp
L Device:C_Small C1512
U 1 1 5C9AF978
P 7950 4350
F 0 "C1512" H 7858 4304 50  0000 R CNN
F 1 "0.1UF" H 7858 4395 50  0000 R CNN
F 2 "Capacitor_SMD:C_0402_1005Metric" H 7950 4350 50  0001 C CNN
F 3 "~" H 7950 4350 50  0001 C CNN
	1    7950 4350
	1    0    0    1   
$EndComp
$Comp
L Device:C_Small C1514
U 1 1 5C9AF97E
P 8350 4350
F 0 "C1514" H 8258 4304 50  0000 R CNN
F 1 "0.1UF" H 8258 4395 50  0000 R CNN
F 2 "Capacitor_SMD:C_0402_1005Metric" H 8350 4350 50  0001 C CNN
F 3 "~" H 8350 4350 50  0001 C CNN
	1    8350 4350
	1    0    0    1   
$EndComp
$Comp
L Device:C_Small C1516
U 1 1 5C9AF984
P 8750 4350
F 0 "C1516" H 8658 4304 50  0000 R CNN
F 1 "0.1UF" H 8658 4395 50  0000 R CNN
F 2 "Capacitor_SMD:C_0402_1005Metric" H 8750 4350 50  0001 C CNN
F 3 "~" H 8750 4350 50  0001 C CNN
	1    8750 4350
	1    0    0    1   
$EndComp
$Comp
L Device:C_Small C1518
U 1 1 5C9AF98A
P 9150 4350
F 0 "C1518" H 9058 4304 50  0000 R CNN
F 1 "0.1UF" H 9058 4395 50  0000 R CNN
F 2 "Capacitor_SMD:C_0402_1005Metric" H 9150 4350 50  0001 C CNN
F 3 "~" H 9150 4350 50  0001 C CNN
	1    9150 4350
	1    0    0    1   
$EndComp
$Comp
L Device:C_Small C1520
U 1 1 5C9AF990
P 9550 4350
F 0 "C1520" H 9458 4304 50  0000 R CNN
F 1 "0.1UF" H 9458 4395 50  0000 R CNN
F 2 "Capacitor_SMD:C_0402_1005Metric" H 9550 4350 50  0001 C CNN
F 3 "~" H 9550 4350 50  0001 C CNN
	1    9550 4350
	1    0    0    1   
$EndComp
Wire Wire Line
	6750 4200 7150 4200
Wire Wire Line
	9550 4200 9550 4250
Connection ~ 6750 4200
Wire Wire Line
	9550 4450 9550 4500
Connection ~ 6750 4500
Wire Wire Line
	7150 4500 7150 4450
Connection ~ 7150 4500
Wire Wire Line
	7150 4500 6750 4500
Wire Wire Line
	7150 4250 7150 4200
Connection ~ 7150 4200
Wire Wire Line
	7150 4200 7550 4200
Wire Wire Line
	7550 4200 7550 4250
Connection ~ 7550 4200
Wire Wire Line
	7550 4200 7950 4200
Wire Wire Line
	7550 4450 7550 4500
Connection ~ 7550 4500
Wire Wire Line
	7550 4500 7150 4500
Wire Wire Line
	7950 4500 7950 4450
Connection ~ 7950 4500
Wire Wire Line
	7950 4500 7550 4500
Wire Wire Line
	7950 4250 7950 4200
Connection ~ 7950 4200
Wire Wire Line
	7950 4200 8350 4200
Wire Wire Line
	8350 4200 8350 4250
Connection ~ 8350 4200
Wire Wire Line
	8350 4200 8750 4200
Wire Wire Line
	8750 4200 8750 4250
Wire Wire Line
	8750 4200 9150 4200
Connection ~ 8750 4200
Wire Wire Line
	9150 4200 9150 4250
Wire Wire Line
	9150 4200 9550 4200
Connection ~ 9150 4200
Wire Wire Line
	9550 4500 9150 4500
Wire Wire Line
	9150 4450 9150 4500
Connection ~ 9150 4500
Wire Wire Line
	9150 4500 8750 4500
Wire Wire Line
	8750 4500 8750 4450
Connection ~ 8750 4500
Wire Wire Line
	8750 4500 8350 4500
Wire Wire Line
	8350 4450 8350 4500
Connection ~ 8350 4500
Wire Wire Line
	8350 4500 7950 4500
Wire Wire Line
	6750 3700 7150 3700
Wire Wire Line
	9550 3700 9550 3650
Connection ~ 6750 3700
Wire Wire Line
	9550 3450 9550 3400
Wire Wire Line
	9550 3400 9150 3400
Connection ~ 6750 3400
Wire Wire Line
	7150 3450 7150 3400
Connection ~ 7150 3400
Wire Wire Line
	7150 3400 6750 3400
Wire Wire Line
	7550 3400 7550 3450
Connection ~ 7550 3400
Wire Wire Line
	7550 3400 7150 3400
Wire Wire Line
	7950 3450 7950 3400
Connection ~ 7950 3400
Wire Wire Line
	7950 3400 7550 3400
Wire Wire Line
	8350 3400 8350 3450
Connection ~ 8350 3400
Wire Wire Line
	8350 3400 7950 3400
Wire Wire Line
	8750 3450 8750 3400
Connection ~ 8750 3400
Wire Wire Line
	8750 3400 8350 3400
Wire Wire Line
	9150 3400 9150 3450
Connection ~ 9150 3400
Wire Wire Line
	9150 3400 8750 3400
Wire Wire Line
	9150 3650 9150 3700
Connection ~ 9150 3700
Wire Wire Line
	9150 3700 9550 3700
Wire Wire Line
	8750 3700 8750 3650
Connection ~ 8750 3700
Wire Wire Line
	8750 3700 9150 3700
Wire Wire Line
	8350 3650 8350 3700
Connection ~ 8350 3700
Wire Wire Line
	8350 3700 8750 3700
Wire Wire Line
	7950 3700 7950 3650
Connection ~ 7950 3700
Wire Wire Line
	7950 3700 8350 3700
Wire Wire Line
	7550 3650 7550 3700
Connection ~ 7550 3700
Wire Wire Line
	7550 3700 7950 3700
Wire Wire Line
	7150 3650 7150 3700
Connection ~ 7150 3700
Wire Wire Line
	7150 3700 7550 3700
$Comp
L Device:C_Small C1521
U 1 1 5CBFEDE8
P 9950 3550
F 0 "C1521" H 9858 3504 50  0000 R CNN
F 1 "0.1UF" H 9858 3595 50  0000 R CNN
F 2 "Capacitor_SMD:C_0402_1005Metric" H 9950 3550 50  0001 C CNN
F 3 "~" H 9950 3550 50  0001 C CNN
	1    9950 3550
	1    0    0    1   
$EndComp
Wire Wire Line
	9950 3450 9950 3400
Wire Wire Line
	9950 3400 9550 3400
Connection ~ 9550 3400
Wire Wire Line
	9550 3700 9950 3700
Wire Wire Line
	9950 3700 9950 3650
Connection ~ 9550 3700
$EndSCHEMATC
