EESchema Schematic File Version 4
LIBS:usb-smu-cache
EELAYER 26 0
EELAYER END
$Descr A4 11693 8268
encoding utf-8
Sheet 16 17
Title ""
Date ""
Rev ""
Comp ""
Comment1 ""
Comment2 ""
Comment3 ""
Comment4 ""
$EndDescr
$Comp
L Connector_Generic:Conn_01x06 J?
U 1 1 5C7CC8EB
P 6100 2550
AR Path="/5C7CA950/5C7CC8EB" Ref="J?"  Part="1" 
AR Path="/5C7CC8EB" Ref="J?"  Part="1" 
AR Path="/5C7CC7F8/5C7CC8EB" Ref="J1601"  Part="1" 
F 0 "J1601" H 6180 2542 50  0000 L CNN
F 1 "Conn_01x06" H 6180 2451 50  0000 L CNN
F 2 "usb-smu:PinSocket_1x06_P2.54mm_Horizontal_reversed" H 6100 2550 50  0001 C CNN
F 3 "~" H 6100 2550 50  0001 C CNN
	1    6100 2550
	1    0    0    -1  
$EndComp
$Comp
L Diode:BAT54ADW D1602
U 1 1 5C7CC9D3
P 5850 4750
F 0 "D1602" H 5850 4965 50  0000 C CNN
F 1 "BAT54ADW" H 5850 4874 50  0000 C CNN
F 2 "Package_TO_SOT_SMD:SOT-363_SC-70-6" H 5850 4575 50  0001 C CNN
F 3 "http://www.diodes.com/datasheets/ds30152.pdf" H 5850 4850 50  0001 C CNN
	1    5850 4750
	1    0    0    -1  
$EndComp
$Comp
L Diode:BAT54ADW D1602
U 2 1 5C7CCA71
P 6350 4750
F 0 "D1602" H 6350 4525 50  0000 C CNN
F 1 "BAT54ADW" H 6350 4616 50  0000 C CNN
F 2 "Package_TO_SOT_SMD:SOT-363_SC-70-6" H 6350 4575 50  0001 C CNN
F 3 "http://www.diodes.com/datasheets/ds30152.pdf" H 6350 4850 50  0001 C CNN
	2    6350 4750
	-1   0    0    1   
$EndComp
$Comp
L Diode:BAT54ADW D1602
U 3 1 5C7CCB2D
P 5850 4950
F 0 "D1602" H 5850 4750 50  0000 C CNN
F 1 "BAT54ADW" H 5850 4850 50  0000 C CNN
F 2 "Package_TO_SOT_SMD:SOT-363_SC-70-6" H 5850 4775 50  0001 C CNN
F 3 "http://www.diodes.com/datasheets/ds30152.pdf" H 5850 5050 50  0001 C CNN
	3    5850 4950
	1    0    0    -1  
$EndComp
$Comp
L Diode:BAT54ADW D1602
U 4 1 5C7CCB33
P 6350 4950
F 0 "D1602" H 6350 5150 50  0000 C CNN
F 1 "BAT54ADW" H 6350 5050 50  0000 C CNN
F 2 "Package_TO_SOT_SMD:SOT-363_SC-70-6" H 6350 4775 50  0001 C CNN
F 3 "http://www.diodes.com/datasheets/ds30152.pdf" H 6350 5050 50  0001 C CNN
	4    6350 4950
	-1   0    0    1   
$EndComp
Wire Wire Line
	6000 4750 6100 4750
Wire Wire Line
	6000 4950 6100 4950
Wire Wire Line
	6500 4750 6550 4750
Wire Wire Line
	6550 4750 6550 4950
Wire Wire Line
	6550 4950 6500 4950
Wire Wire Line
	5700 4950 5650 4950
Wire Wire Line
	5650 4950 5650 4750
Wire Wire Line
	5650 4750 5700 4750
$Comp
L Diode:BAT54ADW D1601
U 1 1 5C7CCF3A
P 5850 3650
F 0 "D1601" H 5850 3865 50  0000 C CNN
F 1 "BAT54ADW" H 5850 3774 50  0000 C CNN
F 2 "Package_TO_SOT_SMD:SOT-363_SC-70-6" H 5850 3475 50  0001 C CNN
F 3 "http://www.diodes.com/datasheets/ds30152.pdf" H 5850 3750 50  0001 C CNN
	1    5850 3650
	1    0    0    -1  
$EndComp
$Comp
L Diode:BAT54ADW D1601
U 2 1 5C7CCF40
P 6350 3650
F 0 "D1601" H 6350 3425 50  0000 C CNN
F 1 "BAT54ADW" H 6350 3516 50  0000 C CNN
F 2 "Package_TO_SOT_SMD:SOT-363_SC-70-6" H 6350 3475 50  0001 C CNN
F 3 "http://www.diodes.com/datasheets/ds30152.pdf" H 6350 3750 50  0001 C CNN
	2    6350 3650
	-1   0    0    1   
$EndComp
$Comp
L Diode:BAT54ADW D1601
U 3 1 5C7CCF46
P 5850 3850
F 0 "D1601" H 5850 3650 50  0000 C CNN
F 1 "BAT54ADW" H 5850 3750 50  0000 C CNN
F 2 "Package_TO_SOT_SMD:SOT-363_SC-70-6" H 5850 3675 50  0001 C CNN
F 3 "http://www.diodes.com/datasheets/ds30152.pdf" H 5850 3950 50  0001 C CNN
	3    5850 3850
	1    0    0    -1  
$EndComp
$Comp
L Diode:BAT54ADW D1601
U 4 1 5C7CCF4C
P 6350 3850
F 0 "D1601" H 6350 4050 50  0000 C CNN
F 1 "BAT54ADW" H 6350 3950 50  0000 C CNN
F 2 "Package_TO_SOT_SMD:SOT-363_SC-70-6" H 6350 3675 50  0001 C CNN
F 3 "http://www.diodes.com/datasheets/ds30152.pdf" H 6350 3950 50  0001 C CNN
	4    6350 3850
	-1   0    0    1   
$EndComp
Wire Wire Line
	6500 3650 6550 3650
Wire Wire Line
	6550 3650 6550 3850
Wire Wire Line
	6550 3850 6500 3850
Wire Wire Line
	5700 3850 5650 3850
Wire Wire Line
	5650 3850 5650 3650
Wire Wire Line
	5650 3650 5700 3650
$Comp
L Device:R_Small R1602
U 1 1 5C7CD37C
P 5350 5250
F 0 "R1602" V 5154 5250 50  0000 C CNN
F 1 "R_Small" V 5245 5250 50  0000 C CNN
F 2 "Resistor_SMD:R_0603_1608Metric" H 5350 5250 50  0001 C CNN
F 3 "~" H 5350 5250 50  0001 C CNN
	1    5350 5250
	0    1    1    0   
$EndComp
$Comp
L Device:R_Small R1601
U 1 1 5C7CD41B
P 5350 4450
F 0 "R1601" V 5154 4450 50  0000 C CNN
F 1 "R_Small" V 5245 4450 50  0000 C CNN
F 2 "Resistor_SMD:R_0603_1608Metric" H 5350 4450 50  0001 C CNN
F 3 "~" H 5350 4450 50  0001 C CNN
	1    5350 4450
	0    1    1    0   
$EndComp
Wire Wire Line
	5450 4450 6100 4450
Wire Wire Line
	6100 4450 6100 4750
Connection ~ 6100 4750
Wire Wire Line
	6100 4750 6200 4750
Wire Wire Line
	5450 5250 6100 5250
Wire Wire Line
	6100 5250 6100 4950
Connection ~ 6100 4950
Wire Wire Line
	6100 4950 6200 4950
$Comp
L power:GND #PWR01601
U 1 1 5C7CD8FD
P 5500 4800
F 0 "#PWR01601" H 5500 4550 50  0001 C CNN
F 1 "GND" H 5505 4627 50  0000 C CNN
F 2 "" H 5500 4800 50  0001 C CNN
F 3 "" H 5500 4800 50  0001 C CNN
	1    5500 4800
	1    0    0    -1  
$EndComp
Wire Wire Line
	5500 4800 5500 4750
Wire Wire Line
	5500 4750 5650 4750
Connection ~ 5650 4750
Text HLabel 5000 4450 0    50   Input ~ 0
CHA
Text HLabel 5050 5250 0    50   Input ~ 0
CHB
Wire Wire Line
	5050 5250 5150 5250
Wire Wire Line
	5250 4450 5050 4450
Wire Wire Line
	6000 3850 6100 3850
Wire Wire Line
	6000 3650 6100 3650
Wire Wire Line
	6100 3650 6100 3350
Wire Wire Line
	6100 3350 5050 3350
Wire Wire Line
	5050 3350 5050 4450
Connection ~ 6100 3650
Wire Wire Line
	6100 3650 6200 3650
Connection ~ 5050 4450
Wire Wire Line
	5050 4450 5000 4450
Wire Wire Line
	6100 3850 6100 4150
Wire Wire Line
	6100 4150 5150 4150
Wire Wire Line
	5150 4150 5150 5250
Connection ~ 6100 3850
Wire Wire Line
	6100 3850 6200 3850
Connection ~ 5150 5250
Wire Wire Line
	5150 5250 5250 5250
Wire Wire Line
	5900 2850 5150 2850
Wire Wire Line
	5150 2850 5150 4150
Connection ~ 5150 4150
Wire Wire Line
	5900 2350 5050 2350
Wire Wire Line
	5050 2350 5050 3350
Connection ~ 5050 3350
Wire Wire Line
	5900 2550 5850 2550
Wire Wire Line
	5850 2550 5850 2600
Wire Wire Line
	5850 2650 5900 2650
$Comp
L power:GND #PWR01602
U 1 1 5C7DC5A0
P 5750 2600
F 0 "#PWR01602" H 5750 2350 50  0001 C CNN
F 1 "GND" V 5755 2472 50  0000 R CNN
F 2 "" H 5750 2600 50  0001 C CNN
F 3 "" H 5750 2600 50  0001 C CNN
	1    5750 2600
	0    1    1    0   
$EndComp
Wire Wire Line
	5750 2600 5850 2600
Connection ~ 5850 2600
Wire Wire Line
	5850 2600 5850 2650
Wire Wire Line
	5850 2450 5900 2450
Wire Wire Line
	5900 2750 5850 2750
Text HLabel 5850 2450 0    50   Input ~ 0
2V5_BUFFERED
Text HLabel 5850 2750 0    50   Input ~ 0
5V_BUFFERED
Text HLabel 5550 3650 0    50   Input ~ 0
-1V0
Wire Wire Line
	5550 3650 5650 3650
Connection ~ 5650 3650
Text HLabel 6650 3650 2    50   Input ~ 0
6V0
Wire Wire Line
	6650 3650 6550 3650
Connection ~ 6550 3650
Text HLabel 6650 4750 2    50   Input ~ 0
5V0
Wire Wire Line
	6650 4750 6550 4750
Connection ~ 6550 4750
$EndSCHEMATC
