EESchema Schematic File Version 4
LIBS:usb-smu-cache
EELAYER 26 0
EELAYER END
$Descr A4 11693 8268
encoding utf-8
Sheet 7 17
Title ""
Date ""
Rev ""
Comp ""
Comment1 ""
Comment2 ""
Comment3 ""
Comment4 ""
$EndDescr
$Sheet
S 5050 3950 600  200 
U 5DBC7C47
F0 "-1V" 50
F1 "-1V.sch" 50
F2 "-1V0" I R 5650 4050 50 
F3 "4V5" I L 5050 4050 50 
$EndSheet
$Sheet
S 4250 4200 600  200 
U 5DBDEB67
F0 "3V3" 50
F1 "3V3.sch" 50
F2 "VUSB" I L 4250 4300 50 
F3 "3V3" I R 4850 4300 50 
$EndSheet
$Sheet
S 4250 3550 600  300 
U 5DBFFA18
F0 "4V5" 50
F1 "4V5.sch" 50
F2 "PWR_ENABLE" I L 4250 3750 50 
F3 "4V5" I R 4850 3650 50 
F4 "VUSB" I L 4250 3650 50 
$EndSheet
$Sheet
S 7450 3550 600  200 
U 5DC0DA2B
F0 "2V5" 50
F1 "2V5.sch" 50
F2 "5V0" I L 7450 3650 50 
F3 "2V5" I R 8050 3650 50 
$EndSheet
$Sheet
S 6650 3550 600  200 
U 5DC172A8
F0 "5V" 50
F1 "5V.sch" 50
F2 "6V0" I L 6650 3650 50 
F3 "5V0" I R 7250 3650 50 
$EndSheet
$Sheet
S 5850 3550 600  200 
U 5DC1D8FF
F0 "6V" 50
F1 "6V.sch" 50
F2 "6V5" I L 5850 3650 50 
F3 "6V0" I R 6450 3650 50 
$EndSheet
$Sheet
S 5050 3550 600  200 
U 5DC22759
F0 "6V5" 50
F1 "6V5.sch" 50
F2 "6V5" I R 5650 3650 50 
F3 "4V5" I L 5050 3650 50 
$EndSheet
Wire Wire Line
	4850 3650 4950 3650
Wire Wire Line
	5050 4050 4950 4050
Wire Wire Line
	4950 4050 4950 3650
Connection ~ 4950 3650
Wire Wire Line
	4950 3650 5050 3650
Wire Wire Line
	6450 3650 6550 3650
Wire Wire Line
	7250 3650 7350 3650
Wire Wire Line
	4250 3650 4150 3650
Wire Wire Line
	4150 3650 4150 4300
Wire Wire Line
	4150 4300 4250 4300
Text HLabel 4050 3650 0    50   Input ~ 0
VUSB
Text HLabel 4050 3750 0    50   Input ~ 0
PWR_ENABLE
Text HLabel 4950 4300 2    50   Input ~ 0
3V3
Text HLabel 5750 4050 2    50   Input ~ 0
-1V0
Text HLabel 6550 3450 1    50   Input ~ 0
6V0
Text HLabel 7350 3450 1    50   Input ~ 0
5V0
Text HLabel 8150 3650 2    50   Input ~ 0
2V5
Wire Wire Line
	8150 3650 8050 3650
Wire Wire Line
	7350 3650 7350 3450
Connection ~ 7350 3650
Wire Wire Line
	7350 3650 7450 3650
Wire Wire Line
	6550 3650 6550 3450
Connection ~ 6550 3650
Wire Wire Line
	6550 3650 6650 3650
Wire Wire Line
	4250 3750 4050 3750
Wire Wire Line
	4150 3650 4050 3650
Connection ~ 4150 3650
Wire Wire Line
	4950 4300 4850 4300
Wire Wire Line
	5750 4050 5650 4050
Wire Wire Line
	5650 3650 5850 3650
$EndSCHEMATC
