EESchema Schematic File Version 4
LIBS:usb-smu-cache
EELAYER 26 0
EELAYER END
$Descr A4 11693 8268
encoding utf-8
Sheet 1 17
Title ""
Date ""
Rev ""
Comp ""
Comment1 ""
Comment2 ""
Comment3 ""
Comment4 ""
$EndDescr
$Sheet
S 8800 1400 1250 1900
U 5C7CA938
F0 "Analog_chA" 50
F1 "Analog_ch.sch" 50
F2 "SWMODE" I L 8800 1500 50 
F3 "3V3" I L 8800 2500 50 
F4 "SCL" I L 8800 1700 50 
F5 "SDA" I L 8800 1600 50 
F6 "CH_IN" I R 10050 3200 50 
F7 "-1V0" I L 8800 2300 50 
F8 "6V0" I L 8800 2700 50 
F9 "OUT_V" I L 8800 2850 50 
F10 "OUT_V_BUFFERED" I R 10050 3100 50 
F11 "5V0" I L 8800 2600 50 
F12 "2V5" I L 8800 2400 50 
F13 "ISENSE" I L 8800 3200 50 
F14 "VSETPOINT" I L 8800 2950 50 
F15 "VSENSE" I L 8800 3100 50 
F16 "SW0" I L 8800 1850 50 
F17 "SW1" I L 8800 1950 50 
F18 "SW2" I L 8800 2050 50 
F19 "SW3" I L 8800 2150 50 
$EndSheet
$Sheet
S 7400 2650 1000 1550
U 5C7CA958
F0 "converters" 50
F1 "converters.sch" 50
F2 "SCK0" I L 7400 3300 50 
F3 "~SYNC" I L 7400 2850 50 
F4 "TX0" I L 7400 3400 50 
F5 "~LDAC" I L 7400 2950 50 
F6 "~CLR" I L 7400 3050 50 
F7 "VSETPOINT-A" I R 8400 2950 50 
F8 "VSETPOINT-B" I R 8400 3900 50 
F9 "SCK1" I L 7400 3550 50 
F10 "TX1" I L 7400 3650 50 
F11 "RX1" I L 7400 3750 50 
F12 "SCK2" I L 7400 3900 50 
F13 "TX2" I L 7400 4000 50 
F14 "RX2" I L 7400 4100 50 
F15 "VSENSE-A" I R 8400 3100 50 
F16 "VSENSE-B" I R 8400 3750 50 
F17 "ISENSE-A" I R 8400 3200 50 
F18 "ISENSE-B" I R 8400 3650 50 
F19 "CNV" I L 7400 3200 50 
F20 "5V0" I L 7400 2750 50 
$EndSheet
$Sheet
S 4650 2150 900  900 
U 5C7CA963
F0 "power" 50
F1 "power.sch" 50
F2 "VUSB" I R 5550 2400 50 
F3 "PWR_ENABLE" I R 5550 2250 50 
F4 "3V3" I R 5550 2750 50 
F5 "-1V0" I R 5550 2550 50 
F6 "6V0" I R 5550 2950 50 
F7 "5V0" I R 5550 2850 50 
F8 "2V5" I R 5550 2650 50 
$EndSheet
$Sheet
S 5850 2150 1150 2550
U 5C7CA967
F0 "MCU" 50
F1 "MCU.sch" 50
F2 "3V3" I L 5850 2750 50 
F3 "VUSB" I L 5850 2400 50 
F4 "SWMODE-A" I R 7000 2250 50 
F5 "SWMODE-B" I R 7000 4650 50 
F6 "PWR_ENABLE" I L 5850 2250 50 
F7 "SCK2" I R 7000 3900 50 
F8 "SCK1" I R 7000 3550 50 
F9 "RX2" I R 7000 4100 50 
F10 "RX1" I R 7000 3750 50 
F11 "TX1" I R 7000 3650 50 
F12 "TX0" I R 7000 3400 50 
F13 "SCK0" I R 7000 3300 50 
F14 "~SYNC" I R 7000 2850 50 
F15 "~CLR" I R 7000 3050 50 
F16 "~LDAC" I R 7000 2950 50 
F17 "CHA-SW3" I R 7000 2700 50 
F18 "TX2" I R 7000 4000 50 
F19 "CNV" I R 7000 3200 50 
F20 "CHA-SW0" I R 7000 2400 50 
F21 "CHA-SW1" I R 7000 2500 50 
F22 "CHA-SW2" I R 7000 2600 50 
F23 "CHB-SW0" I R 7000 4200 50 
F24 "CHB-SW1" I R 7000 4300 50 
F25 "CHB-SW2" I R 7000 4400 50 
F26 "CHB-SW3" I R 7000 4500 50 
F27 "SDA" I L 5850 4500 50 
F28 "SCL" I L 5850 4600 50 
$EndSheet
$Sheet
S 10350 3150 700  1000
U 5C7CC7F8
F0 "output" 50
F1 "output.sch" 50
F2 "CHA" I L 10350 3350 50 
F3 "CHB" I L 10350 3500 50 
F4 "2V5_BUFFERED" I L 10350 3250 50 
F5 "5V_BUFFERED" I L 10350 3600 50 
F6 "-1V0" I L 10350 3850 50 
F7 "6V0" I L 10350 4050 50 
F8 "5V0" I L 10350 3950 50 
$EndSheet
Wire Wire Line
	10350 3600 10250 3600
Wire Wire Line
	10250 3600 10250 3750
Wire Wire Line
	10250 3750 10050 3750
Wire Wire Line
	10350 3500 10150 3500
Wire Wire Line
	10150 3500 10150 3650
Wire Wire Line
	10150 3650 10050 3650
Wire Wire Line
	10350 3250 10250 3250
Wire Wire Line
	10250 3250 10250 3100
Wire Wire Line
	10250 3100 10050 3100
Wire Wire Line
	10350 3350 10150 3350
Wire Wire Line
	10150 3350 10150 3200
Wire Wire Line
	10150 3200 10050 3200
$Sheet
S 8800 3550 1250 1900
U 5DF94C12
F0 "Analog_chB" 50
F1 "Analog_ch.sch" 50
F2 "SWMODE" I L 8800 5350 50 
F3 "3V3" I L 8800 4350 50 
F4 "SCL" I L 8800 5250 50 
F5 "SDA" I L 8800 5150 50 
F6 "CH_IN" I R 10050 3650 50 
F7 "-1V0" I L 8800 4150 50 
F8 "6V0" I L 8800 4550 50 
F9 "OUT_V" I L 8800 4000 50 
F10 "OUT_V_BUFFERED" I R 10050 3750 50 
F11 "5V0" I L 8800 4450 50 
F12 "2V5" I L 8800 4250 50 
F13 "ISENSE" I L 8800 3650 50 
F14 "VSETPOINT" I L 8800 3900 50 
F15 "VSENSE" I L 8800 3750 50 
F16 "SW0" I L 8800 4700 50 
F17 "SW1" I L 8800 4800 50 
F18 "SW2" I L 8800 4900 50 
F19 "SW3" I L 8800 5000 50 
$EndSheet
Wire Wire Line
	8800 3750 8400 3750
Wire Wire Line
	8400 3650 8800 3650
Wire Wire Line
	8800 3200 8400 3200
Wire Wire Line
	8400 3100 8800 3100
Wire Wire Line
	8800 3900 8400 3900
Wire Wire Line
	8400 2950 8800 2950
Wire Wire Line
	7000 4650 7050 4650
Wire Wire Line
	7050 5350 8800 5350
Wire Wire Line
	7000 2250 7050 2250
Entry Wire Line
	7050 2400 7150 2300
Entry Wire Line
	7050 2500 7150 2400
Entry Wire Line
	7050 2600 7150 2500
Entry Wire Line
	7050 2700 7150 2600
Entry Wire Line
	8650 1850 8550 1950
Entry Wire Line
	8650 1950 8550 2050
Entry Wire Line
	8650 2050 8550 2150
Entry Wire Line
	8650 2150 8550 2250
Wire Wire Line
	7050 2400 7000 2400
Wire Wire Line
	7050 2500 7000 2500
Wire Wire Line
	7050 2600 7000 2600
Wire Wire Line
	7050 2700 7000 2700
Wire Wire Line
	8650 2150 8800 2150
Wire Wire Line
	8800 2050 8650 2050
Wire Wire Line
	8650 1950 8800 1950
Wire Wire Line
	8800 1850 8650 1850
Wire Wire Line
	7050 4650 7050 5350
Wire Wire Line
	7050 2250 7050 1500
Wire Wire Line
	7050 1500 8800 1500
Wire Bus Line
	8550 2250 7150 2250
Text Label 8750 2850 2    50   ~ 0
2V5
Text Label 8750 4250 2    50   ~ 0
2V5
Text Label 8750 4450 2    50   ~ 0
5V0
Text Label 8750 4350 2    50   ~ 0
3V3
Text Label 8750 4550 2    50   ~ 0
6V0
Text Label 8750 4150 2    50   ~ 0
-1V0
Text Label 8750 4000 2    50   ~ 0
5V0
Text Label 8750 2400 2    50   ~ 0
2V5
Text Label 8750 2600 2    50   ~ 0
5V0
Text Label 8750 2500 2    50   ~ 0
3V3
Text Label 8750 2700 2    50   ~ 0
6V0
Text Label 8750 2300 2    50   ~ 0
-1V0
Wire Wire Line
	8750 2300 8800 2300
Wire Wire Line
	8800 2400 8750 2400
Wire Wire Line
	8750 2500 8800 2500
Wire Wire Line
	8800 2600 8750 2600
Wire Wire Line
	8750 2700 8800 2700
Wire Wire Line
	8750 4550 8800 4550
Wire Wire Line
	8800 4450 8750 4450
Wire Wire Line
	8750 4350 8800 4350
Wire Wire Line
	8800 4250 8750 4250
Wire Wire Line
	8750 4150 8800 4150
Text Label 10300 4050 2    50   ~ 0
6V0
Text Label 10300 3950 2    50   ~ 0
5V0
Text Label 10300 3850 2    50   ~ 0
-1V0
Wire Wire Line
	10300 3850 10350 3850
Wire Wire Line
	10350 3950 10300 3950
Wire Wire Line
	10300 4050 10350 4050
Text Label 7350 2750 2    50   ~ 0
5V0
Wire Wire Line
	7400 2750 7350 2750
Wire Wire Line
	7000 4100 7400 4100
Wire Wire Line
	7000 4000 7400 4000
Wire Wire Line
	7000 3900 7400 3900
Wire Wire Line
	7000 3750 7400 3750
Wire Wire Line
	7400 3650 7000 3650
Wire Wire Line
	7000 3550 7400 3550
Wire Wire Line
	7000 3300 7400 3300
Wire Wire Line
	7400 3400 7000 3400
Wire Wire Line
	7000 3200 7400 3200
Wire Wire Line
	7000 2850 7400 2850
Wire Wire Line
	7400 2950 7000 2950
Wire Wire Line
	7000 3050 7400 3050
Text Label 5800 4500 2    50   ~ 0
SDA
Text Label 5800 4600 2    50   ~ 0
SCL
Wire Wire Line
	5800 4500 5850 4500
Wire Wire Line
	5850 4600 5800 4600
Wire Wire Line
	5850 2400 5550 2400
Wire Wire Line
	5850 2250 5550 2250
Text Label 5600 2650 0    50   ~ 0
2V5
Text Label 5600 2850 0    50   ~ 0
5V0
Text Label 5600 2750 0    50   ~ 0
3V3
Text Label 5600 2950 0    50   ~ 0
6V0
Text Label 5600 2550 0    50   ~ 0
-1V0
Wire Wire Line
	5550 2950 5600 2950
Wire Wire Line
	5550 2650 5600 2650
Wire Wire Line
	5600 2550 5550 2550
Wire Wire Line
	5600 2850 5550 2850
Wire Wire Line
	5550 2750 5850 2750
Text Label 8750 5150 2    50   ~ 0
SDA
Text Label 8750 5250 2    50   ~ 0
SCL
Text Label 8750 1600 2    50   ~ 0
SDA
Text Label 8750 1700 2    50   ~ 0
SCL
Wire Wire Line
	8750 1600 8800 1600
Wire Wire Line
	8800 1700 8750 1700
Wire Wire Line
	8800 5150 8750 5150
Wire Wire Line
	8750 5250 8800 5250
Wire Wire Line
	7000 4200 7050 4200
Wire Wire Line
	8750 4700 8800 4700
Wire Wire Line
	7050 4300 7000 4300
Wire Wire Line
	8800 4800 8750 4800
Wire Wire Line
	7000 4400 7050 4400
Wire Wire Line
	8750 4900 8800 4900
Wire Wire Line
	7050 4500 7000 4500
Wire Wire Line
	8800 5000 8750 5000
Entry Wire Line
	8750 5000 8650 4900
Entry Wire Line
	8750 4700 8650 4600
Entry Wire Line
	8750 4800 8650 4700
Entry Wire Line
	8750 4900 8650 4800
Entry Wire Line
	7050 4500 7150 4600
Entry Wire Line
	7050 4200 7150 4300
Entry Wire Line
	7050 4300 7150 4400
Entry Wire Line
	7050 4400 7150 4500
Wire Bus Line
	8650 4600 7150 4600
$Comp
L power:GND #PWR?
U 1 1 5C8BFBF3
P 8500 4250
AR Path="/5C7CA938/5C8BFBF3" Ref="#PWR?"  Part="1" 
AR Path="/5C7CA93F/5C8BFBF3" Ref="#PWR?"  Part="1" 
AR Path="/5DF8C17D/5C8BFBF3" Ref="#PWR?"  Part="1" 
AR Path="/5DF94C12/5C8BFBF3" Ref="#PWR?"  Part="1" 
AR Path="/5C8BFBF3" Ref="#PWR0102"  Part="1" 
F 0 "#PWR0102" H 8500 4000 50  0001 C CNN
F 1 "GND" H 8505 4077 50  0000 C CNN
F 2 "" H 8500 4250 50  0001 C CNN
F 3 "" H 8500 4250 50  0001 C CNN
	1    8500 4250
	1    0    0    -1  
$EndComp
Wire Wire Line
	8500 4250 8500 4200
Wire Wire Line
	8500 4000 8800 4000
$Comp
L power:GND #PWR?
U 1 1 5C8CA2ED
P 8500 2600
AR Path="/5C7CA938/5C8CA2ED" Ref="#PWR?"  Part="1" 
AR Path="/5C7CA93F/5C8CA2ED" Ref="#PWR?"  Part="1" 
AR Path="/5DF8C17D/5C8CA2ED" Ref="#PWR?"  Part="1" 
AR Path="/5DF94C12/5C8CA2ED" Ref="#PWR?"  Part="1" 
AR Path="/5C8CA2ED" Ref="#PWR0101"  Part="1" 
F 0 "#PWR0101" H 8500 2350 50  0001 C CNN
F 1 "GND" H 8505 2427 50  0000 C CNN
F 2 "" H 8500 2600 50  0001 C CNN
F 3 "" H 8500 2600 50  0001 C CNN
	1    8500 2600
	1    0    0    1   
$EndComp
Wire Wire Line
	8500 2600 8500 2650
$Comp
L Device:R_Small R?
U 1 1 5C8CA2F4
P 8500 2750
AR Path="/5C7CA938/5C8CA2F4" Ref="R?"  Part="1" 
AR Path="/5C8CA2F4" Ref="R101"  Part="1" 
F 0 "R101" H 8400 2950 50  0000 R CNN
F 1 "510" H 8350 3050 50  0000 R CNN
F 2 "Resistor_SMD:R_0402_1005Metric" H 8500 2750 50  0001 C CNN
F 3 "~" H 8500 2750 50  0001 C CNN
	1    8500 2750
	1    0    0    -1  
$EndComp
$Comp
L Device:C_Small C101
U 1 1 5C8D4D83
P 8500 4100
F 0 "C101" H 8300 4350 50  0000 R CNN
F 1 "0.01UF" H 8350 4450 50  0000 R CNN
F 2 "Capacitor_SMD:C_0402_1005Metric" H 8500 4100 50  0001 C CNN
F 3 "~" H 8500 4100 50  0001 C CNN
	1    8500 4100
	1    0    0    1   
$EndComp
Wire Wire Line
	8500 2850 8800 2850
Wire Bus Line
	8550 1950 8550 2250
Wire Bus Line
	8650 4600 8650 4900
Wire Bus Line
	7150 4300 7150 4600
Wire Bus Line
	7150 2250 7150 2600
$EndSCHEMATC
